session_code,participant_code,criteria,criteria_first,control,criteria_choices,lottery_choices,mechanism,arrival_code,best_mechanism
20ankhzq,zrkk3j4r,"Rock, Paper, Scissors",0,1,"[1, 1, 3, 3, 2]","[False, False, True, False, True]",DC-5 Lottery,90207,"Rock, Paper, Scissors"
20ankhzq,gb8jpfh8,Time,1,1,"[1, 2, 0, 4, 3]","[True, True, False, True, False]",Time,90204,Time
20ankhzq,r4izh6kv,"Rock, Paper, Scissors",1,1,"[1, 2, 3, 3, 1]","[True, False, True, False, True]","Rock, Paper, Scissors",90348,"Rock, Paper, Scissors"
20ankhzq,6wmc4r4x,Time,0,0,"[9, 2, 0, 4, 9]","[True, True, True, False, True]",DC-5 Lottery,90210,Time
20ankhzq,779r1srd,Time,0,1,,,,90214,
20ankhzq,i1sosyph,Guessing the Paintings,0,1,"[0, 0, 0, 0, 1]","[True, True, True, True, True]",DC-5 Lottery,90209,Guessing the Paintings
20ankhzq,44mj5im9,Guessing the Paintings,0,1,"[1, 1, 1, 0, 1]","[True, True, False, True, True]",Guessing the Paintings,90213,DC-5 Lottery
20ankhzq,rxeaephc,"Rock, Paper, Scissors",0,0,"[3, 2, 3, 3, 3]","[True, True, True, True, True]",DC-5 Lottery,90215,DC-5 Lottery
20ankhzq,wwqisdx0,Time,1,0,"[6, 3, 5, 1, 8]","[False, False, False, True, True]",Time,90235,DC-5 Lottery
20ankhzq,d6lu4cet,"Rock, Paper, Scissors",1,1,"[3, 1, 3, 1, 1]","[True, False, True, True, True]",DC-5 Lottery,90220,DC-5 Lottery
20ankhzq,2sj58oa5,Time,0,1,"[0, 0, 4, 0, 5]","[False, True, True, False, True]",DC-5 Lottery,90321,Time
20ankhzq,36dvryi7,Guessing the Paintings,1,1,"[0, 0, 1, 1, 0]","[True, False, False, True, False]",DC-5 Lottery,90402,DC-5 Lottery
20ankhzq,uqq4hhte,"Rock, Paper, Scissors",1,0,"[1, 3, 2, 2, 1]","[True, True, True, True, True]",DC-5 Lottery,90223,DC-5 Lottery
20ankhzq,xvrluhaf,"Rock, Paper, Scissors",0,0,"[3, 3, 1, 1, 3]","[True, False, False, True, False]",DC-5 Lottery,90241,"Rock, Paper, Scissors"
20ankhzq,r133syt1,"Rock, Paper, Scissors",0,0,"[2, 2, 3, 3, 2]","[True, False, False, False, False]",DC-5 Lottery,90235,"Rock, Paper, Scissors"
20ankhzq,9opr6x37,"Rock, Paper, Scissors",0,1,"[1, 2, 3, 2, 2]","[True, True, False, False, True]",DC-5 Lottery,90308,DC-5 Lottery
20ankhzq,dii22yrd,"Rock, Paper, Scissors",1,1,"[1, 3, 1, 2, 3]","[True, True, False, False, False]",DC-5 Lottery,90248,DC-5 Lottery
20ankhzq,6ziuh1ic,"Rock, Paper, Scissors",0,0,"[2, 1, 1, 2, 2]","[True, False, True, True, True]","Rock, Paper, Scissors",90236,"Rock, Paper, Scissors"
20ankhzq,4muc3qpe,Guessing the Paintings,1,0,"[0, 1, 0, 0, 1]","[False, True, True, False, False]",Guessing the Paintings,90234,Guessing the Paintings
20ankhzq,vyleq9yi,"Rock, Paper, Scissors",0,0,"[3, 2, 3, 3, 2]","[True, True, True, False, False]",DC-5 Lottery,90412,DC-5 Lottery
20ankhzq,xmd920u5,"Rock, Paper, Scissors",0,1,"[3, 3, 2, 3, 1]","[True, True, False, False, False]",DC-5 Lottery,90255,DC-5 Lottery
20ankhzq,8nvb6e7i,Time,1,1,,,,,
20ankhzq,rvgpa2zz,Guessing the Paintings,1,0,"[1, 0, 1, 1, 0]","[True, True, False, False, True]",Guessing the Paintings,90231,DC-5 Lottery
20ankhzq,iy9e6qtp,"Rock, Paper, Scissors",1,0,"[2, 3, 2, 1, 3]","[False, True, True, False, False]","Rock, Paper, Scissors",90252,DC-5 Lottery
20ankhzq,dnqqvu5s,"Rock, Paper, Scissors",1,0,"[1, 2, 1, 3, 2]","[False, True, True, False, True]","Rock, Paper, Scissors",90321,DC-5 Lottery
20ankhzq,y6zmqusj,Time,0,0,"[9, 4, 0, 1, 5]","[False, True, True, False, True]",DC-5 Lottery,90315,Time
20ankhzq,2xc67q33,Guessing the Paintings,1,1,"[0, 0, 1, 1, 0]","[True, True, False, True, False]",Guessing the Paintings,90252,DC-5 Lottery
20ankhzq,ykv5m9r9,"Rock, Paper, Scissors",0,0,"[2, 2, 2, 1, 3]","[False, False, False, False, True]","Rock, Paper, Scissors",90239,"Rock, Paper, Scissors"
20ankhzq,z6acpyvq,"Rock, Paper, Scissors",0,0,"[2, 1, 3, 2, 3]","[False, False, True, False, True]","Rock, Paper, Scissors",90300,DC-5 Lottery
20ankhzq,ne1ur0sh,"Rock, Paper, Scissors",0,0,"[2, 3, 1, 3, 3]","[False, False, False, False, False]","Rock, Paper, Scissors",90307,"Rock, Paper, Scissors"
20ankhzq,mv6fiaqn,"Rock, Paper, Scissors",0,0,"[3, 1, 3, 2, 2]","[True, False, True, True, True]","Rock, Paper, Scissors",90251,"Rock, Paper, Scissors"
20ankhzq,ysul2dlx,Guessing the Paintings,0,1,"[0, 0, 1, 0, 1]","[False, False, True, False, True]",Guessing the Paintings,90306,DC-5 Lottery
20ankhzq,kz1ve0vz,Time,0,0,,"[True, True, True, True, True]",,90250,
20ankhzq,tbl21pzp,"Rock, Paper, Scissors",1,1,"[1, 3, 3, 3, 2]","[True, False, True, True, True]","Rock, Paper, Scissors",90243,"Rock, Paper, Scissors"
20ankhzq,vg1pl71u,Time,1,0,"[2, 2, 5, 1, 2]","[False, False, False, False, True]",Time,90316,Time
20ankhzq,2h5apbc5,Time,1,1,"[0, 2, 6, 3, 1]","[False, True, False, True, False]",Time,90246,DC-5 Lottery
20ankhzq,z54s0bct,Time,1,0,"[6, 0, 0, 0, 0]","[False, False, False, False, False]",DC-5 Lottery,90352,Time
20ankhzq,m4der3jx,Time,1,0,"[0, 2, 8, 2, 0]","[False, True, False, False, False]",DC-5 Lottery,90420,Time
20ankhzq,bo82uuj3,Time,0,1,"[0, 2, 6, 3, 1]","[True, False, True, False, True]",DC-5 Lottery,90252,DC-5 Lottery
20ankhzq,13d5ftlf,"Rock, Paper, Scissors",0,0,"[1, 3, 2, 2, 3]","[False, False, False, False, False]","Rock, Paper, Scissors",90256,"Rock, Paper, Scissors"
20ankhzq,aruyxjcz,"Rock, Paper, Scissors",0,1,"[3, 1, 1, 2, 2]","[True, False, True, True, True]","Rock, Paper, Scissors",90256,"Rock, Paper, Scissors"
20ankhzq,o7nl69dj,Time,1,0,"[0, 2, 6, 3, 1]","[True, False, True, False, True]",DC-5 Lottery,90256,Time
20ankhzq,ckcz1kpl,"Rock, Paper, Scissors",0,1,"[1, 3, 3, 1, 1]","[True, False, True, False, True]","Rock, Paper, Scissors",90249,DC-5 Lottery
20ankhzq,36cl59tm,"Rock, Paper, Scissors",1,1,"[3, 2, 2, 1, 1]","[False, False, True, False, False]",DC-5 Lottery,90411,"Rock, Paper, Scissors"
20ankhzq,uu36hch3,"Rock, Paper, Scissors",0,1,"[2, 1, 1, 1, 3]","[True, True, True, True, True]",DC-5 Lottery,90332,"Rock, Paper, Scissors"
20ankhzq,i2ppggvu,Time,0,0,"[0, 0, 6, 2, 5]","[False, True, True, False, False]",DC-5 Lottery,90305,DC-5 Lottery
20ankhzq,85aqdxy0,Time,1,1,"[2, 3, 0, 5, 9]","[True, False, True, False, True]",Time,90314,Time
20ankhzq,rviwwycw,"Rock, Paper, Scissors",0,0,"[2, 3, 3, 3, 3]","[True, False, False, True, False]","Rock, Paper, Scissors",90309,DC-5 Lottery
20ankhzq,tvm5bojb,"Rock, Paper, Scissors",0,1,"[2, 2, 3, 2, 3]","[True, True, False, False, True]","Rock, Paper, Scissors",90312,"Rock, Paper, Scissors"
20ankhzq,k3ckr0so,Time,0,1,"[7, 3, 1, 5, 3]","[False, False, False, False, False]",DC-5 Lottery,90253,Time
20ankhzq,22a7szj4,Guessing the Paintings,1,0,"[1, 1, 0, 1, 0]","[False, True, True, False, True]",Guessing the Paintings,90255,Guessing the Paintings
20ankhzq,srhakl82,Guessing the Paintings,1,0,"[1, 0, 0, 1, 1]","[False, False, True, False, False]",Guessing the Paintings,90251,
20ankhzq,tcrtkkk8,Guessing the Paintings,0,0,"[1, 0, 0, 1, 0]","[False, False, False, True, True]",Guessing the Paintings,90306,DC-5 Lottery
20ankhzq,ift6k3v2,"Rock, Paper, Scissors",0,1,"[1, 2, 3, 1, 1]","[False, True, True, False, False]",DC-5 Lottery,90657,"Rock, Paper, Scissors"
20ankhzq,ve7axpf7,"Rock, Paper, Scissors",1,1,"[2, 2, 3, 1, 2]","[False, True, False, True, False]","Rock, Paper, Scissors",90257,"Rock, Paper, Scissors"
20ankhzq,nd0v4m3b,Time,1,0,"[4, 0, 7, 1, 2]","[True, True, False, False, True]",Time,90347,DC-5 Lottery
20ankhzq,tc65iy6p,Guessing the Paintings,0,0,"[0, 0, 1, 0, 1]","[True, False, True, True, False]",Guessing the Paintings,90436,DC-5 Lottery
20ankhzq,ryccesci,Time,0,1,"[1, 1, 1, 1, 1]","[True, True, False, False, False]",DC-5 Lottery,90357,DC-5 Lottery
20ankhzq,4vnlw1m1,"Rock, Paper, Scissors",0,0,"[3, 2, 3, 2, 3]","[False, True, True, False, True]",,90314,
20ankhzq,57g1eosm,Time,0,0,"[2, 1, 1, 4, 4]","[True, False, False, True, True]",DC-5 Lottery,90440,Time
20ankhzq,dx5475dy,"Rock, Paper, Scissors",1,1,"[3, 2, 1, 3, 2]","[True, True, True, True, True]","Rock, Paper, Scissors",90344,DC-5 Lottery
20ankhzq,56ck0lqw,Guessing the Paintings,1,1,"[0, 1, 1, 0, 0]",,,90257,
20ankhzq,a8g7509x,"Rock, Paper, Scissors",0,0,"[1, 3, 1, 3, 2]","[False, False, True, True, False]",DC-5 Lottery,90449,DC-5 Lottery
20ankhzq,m5c7vf3m,"Rock, Paper, Scissors",0,1,"[2, 2, 1, 2, 2]","[True, False, False, False, False]",DC-5 Lottery,90303,"Rock, Paper, Scissors"
20ankhzq,d7axuw78,Guessing the Paintings,1,1,"[0, 1, 1, 0, 1]","[True, True, False, True, True]",DC-5 Lottery,90328,DC-5 Lottery
20ankhzq,v5ntag5g,"Rock, Paper, Scissors",1,0,"[2, 2, 1, 3, 3]","[False, True, True, False, False]","Rock, Paper, Scissors",90341,"Rock, Paper, Scissors"
20ankhzq,rqavy8dq,Time,0,1,"[5, 3, 0, 5, 0]","[True, False, True, True, False]",Time,90309,Time
20ankhzq,q6t7mkuw,"Rock, Paper, Scissors",0,1,"[1, 1, 2, 3, 1]","[True, False, False, True, True]",DC-5 Lottery,90313,DC-5 Lottery
20ankhzq,95cuelx9,Guessing the Paintings,1,0,"[0, 1, 0, 1, 0]","[False, False, True, False, True]",Guessing the Paintings,90314,Guessing the Paintings
20ankhzq,efe7cd1g,"Rock, Paper, Scissors",0,1,"[3, 2, 2, 3, 1]","[True, False, False, True, True]","Rock, Paper, Scissors",90311,DC-5 Lottery
20ankhzq,h2mcakhd,"Rock, Paper, Scissors",0,1,"[3, 1, 1, 3, 1]","[False, True, True, True, True]",DC-5 Lottery,90407,DC-5 Lottery
20ankhzq,ejn5z23p,Guessing the Paintings,1,1,"[0, 1, 1, 0, 1]","[True, True, False, True, True]",Guessing the Paintings,90350,DC-5 Lottery
20ankhzq,o0yk60u7,"Rock, Paper, Scissors",0,0,"[1, 3, 2, 2, 2]","[True, True, False, False, False]","Rock, Paper, Scissors",90641,DC-5 Lottery
20ankhzq,j4oubjo4,"Rock, Paper, Scissors",0,0,"[3, 1, 1, 2, 2]","[False, False, True, True, True]",DC-5 Lottery,90317,DC-5 Lottery
20ankhzq,3wlbjc8l,"Rock, Paper, Scissors",0,0,"[2, 2, 3, 2, 1]","[False, True, True, False, True]","Rock, Paper, Scissors",90332,DC-5 Lottery
20ankhzq,6pj4qk9v,"Rock, Paper, Scissors",0,0,"[2, 2, 1, 1, 3]","[True, False, False, True, False]","Rock, Paper, Scissors",90405,
20ankhzq,71x0wof8,"Rock, Paper, Scissors",1,0,"[2, 2, 2, 1, 2]","[True, False, True, True, True]",,90314,
20ankhzq,pqcipbe3,Guessing the Paintings,1,1,"[0, 1, 0, 0, 1]","[False, False, False, False, False]",DC-5 Lottery,90326,Guessing the Paintings
20ankhzq,fqgj1r89,"Rock, Paper, Scissors",1,0,"[1, 3, 3, 3, 3]","[True, False, False, False, False]",DC-5 Lottery,90318,"Rock, Paper, Scissors"
20ankhzq,rs5nkv07,Time,1,1,"[9, 2, 5, 1, 3]","[False, True, False, True, False]",DC-5 Lottery,90509,DC-5 Lottery
20ankhzq,206bmhqy,Time,1,0,"[7, 2, 7, 3, 1]","[False, True, False, True, True]",DC-5 Lottery,90357,Time
20ankhzq,ae2i6ca3,"Rock, Paper, Scissors",1,1,"[1, 2, 1, 3, 2]","[True, False, True, False, False]","Rock, Paper, Scissors",90318,DC-5 Lottery
20ankhzq,esprzosc,Time,0,0,"[1, 4, 3, 1, 7]","[False, True, False, True, False]",Time,90452,DC-5 Lottery
20ankhzq,wvum1uqo,Time,1,0,,"[True, True, True, True, False]",,90321,
20ankhzq,mm9nlbr9,"Rock, Paper, Scissors",1,0,"[2, 3, 2, 2, 1]","[True, True, False, False, True]",DC-5 Lottery,90341,"Rock, Paper, Scissors"
20ankhzq,8ugoznyp,"Rock, Paper, Scissors",0,1,"[1, 3, 3, 2, 3]","[False, False, True, False, True]","Rock, Paper, Scissors",90320,DC-5 Lottery
20ankhzq,b1vuo9kb,Time,0,0,"[0, 2, 6, 3, 1]","[True, True, True, False, False]",DC-5 Lottery,90319,Time
20ankhzq,v92lpww0,Guessing the Paintings,0,1,"[1, 1, 0, 1, 0]","[True, False, False, True, False]",Guessing the Paintings,90322,Guessing the Paintings
20ankhzq,b0m1jenj,"Rock, Paper, Scissors",1,0,"[1, 1, 2, 1, 1]","[False, False, False, True, False]","Rock, Paper, Scissors",90352,DC-5 Lottery
20ankhzq,oyifl5du,Guessing the Paintings,0,0,"[0, 0, 1, 1, 1]","[True, False, True, False, True]",Guessing the Paintings,90407,Guessing the Paintings
20ankhzq,ejh4dtu3,"Rock, Paper, Scissors",1,1,"[3, 2, 2, 1, 2]","[True, False, True, True, False]",DC-5 Lottery,90325,DC-5 Lottery
20ankhzq,69kwbvy7,Guessing the Paintings,1,0,"[1, 1, 0, 0, 0]","[False, True, True, True, False]",DC-5 Lottery,90335,DC-5 Lottery
20ankhzq,kclm27sk,Time,0,1,"[3, 2, 5, 4, 9]","[True, False, False, True, True]",DC-5 Lottery,90422,Time
20ankhzq,4u22j4tv,"Rock, Paper, Scissors",0,0,"[2, 1, 1, 2, 1]","[False, True, True, False, False]","Rock, Paper, Scissors",90353,DC-5 Lottery
20ankhzq,kamxvz5k,"Rock, Paper, Scissors",1,0,"[3, 3, 1, 3, 3]","[True, False, True, False, False]","Rock, Paper, Scissors",90349,DC-5 Lottery
20ankhzq,a5gzwhyu,"Rock, Paper, Scissors",1,0,"[1, 3, 1, 2, 2]","[False, True, True, False, True]","Rock, Paper, Scissors",90500,DC-5 Lottery
20ankhzq,xbvhezuo,"Rock, Paper, Scissors",1,1,"[1, 2, 2, 1, 1]","[False, True, True, False, True]",DC-5 Lottery,90415,DC-5 Lottery
20ankhzq,r63eku9g,Time,0,1,"[0, 2, 6, 3, 1]","[True, True, False, True, True]",DC-5 Lottery,90327,Time
20ankhzq,nu1ez6px,Guessing the Paintings,1,0,"[0, 0, 1, 1, 1]","[True, False, True, True, True]",DC-5 Lottery,90332,Guessing the Paintings
20ankhzq,nngz5dho,"Rock, Paper, Scissors",0,0,"[3, 2, 2, 2, 2]","[False, False, True, True, True]",DC-5 Lottery,90456,DC-5 Lottery
20ankhzq,kdkgujr3,Time,0,1,"[3, 1, 3, 1, 3]","[True, False, True, True, True]",DC-5 Lottery,90351,Time
20ankhzq,cudfk1lw,Time,0,0,"[1, 3, 0, 4, 0]","[False, True, True, False, False]",DC-5 Lottery,90421,Time
20ankhzq,6pteigyu,"Rock, Paper, Scissors",0,1,"[1, 3, 1, 3, 2]","[True, False, False, True, True]",DC-5 Lottery,90412,DC-5 Lottery
20ankhzq,2r7vfy5b,"Rock, Paper, Scissors",0,1,"[1, 2, 1, 2, 2]","[True, False, True, False, True]","Rock, Paper, Scissors",90338,"Rock, Paper, Scissors"
20ankhzq,ygragkco,Time,1,1,"[7, 3, 0, 3, 0]","[True, False, False, True, True]",Time,90551,DC-5 Lottery
20ankhzq,b9akclzg,"Rock, Paper, Scissors",0,1,"[1, 3, 2, 3, 1]","[True, True, False, True, False]",DC-5 Lottery,90353,"Rock, Paper, Scissors"
20ankhzq,iswtuqs1,Time,1,0,"[7, 2, 5, 4, 0]","[False, False, True, True, True]",DC-5 Lottery,90505,Time
20ankhzq,k515rwci,Time,0,1,"[1, 2, 9, 0, 0]","[False, False, False, False, False]",Time,90334,Time
20ankhzq,0ns4ysu4,Time,1,1,"[3, 4, 2, 4, 6]","[False, False, True, True, True]",Time,90507,DC-5 Lottery
20ankhzq,efpuy0c6,"Rock, Paper, Scissors",0,1,"[1, 1, 2, 2, 1]","[True, False, True, True, True]",DC-5 Lottery,90538,"Rock, Paper, Scissors"
20ankhzq,cpvv3pei,"Rock, Paper, Scissors",1,1,"[3, 2, 2, 1, 3]","[True, False, True, True, False]","Rock, Paper, Scissors",90406,"Rock, Paper, Scissors"
20ankhzq,uedm5khw,"Rock, Paper, Scissors",1,0,"[1, 2, 2, 2, 3]","[False, False, False, False, False]",DC-5 Lottery,90355,"Rock, Paper, Scissors"
20ankhzq,gzd6gwki,"Rock, Paper, Scissors",1,1,"[1, 3, 1, 2, 1]","[True, True, False, False, True]","Rock, Paper, Scissors",90428,"Rock, Paper, Scissors"
20ankhzq,1zhyq34d,"Rock, Paper, Scissors",1,1,"[1, 1, 1, 3, 1]","[True, False, False, True, True]","Rock, Paper, Scissors",90412,"Rock, Paper, Scissors"
20ankhzq,f49uaz3y,"Rock, Paper, Scissors",1,0,"[3, 1, 2, 1, 3]","[True, True, True, True, False]",DC-5 Lottery,90405,DC-5 Lottery
20ankhzq,nt3b2ied,"Rock, Paper, Scissors",0,0,"[1, 2, 3, 2, 2]","[False, True, True, False, False]","Rock, Paper, Scissors",90410,"Rock, Paper, Scissors"
20ankhzq,5b4n2w8j,Time,1,0,"[9, 1, 9, 1, 9]","[False, True, False, False, True]",DC-5 Lottery,90429,Time
20ankhzq,213jrt74,"Rock, Paper, Scissors",0,0,"[3, 1, 2, 3, 2]","[True, True, True, False, False]","Rock, Paper, Scissors",90418,"Rock, Paper, Scissors"
20ankhzq,ow7jyg4n,"Rock, Paper, Scissors",1,1,"[1, 2, 2, 1, 3]","[True, False, True, True, False]",DC-5 Lottery,90352,"Rock, Paper, Scissors"
20ankhzq,d5jdad55,Time,0,0,"[0, 0, 6, 2, 2]","[True, True, True, True, False]",Time,90422,Time
20ankhzq,qae70d8o,"Rock, Paper, Scissors",0,1,"[2, 3, 2, 2, 3]","[True, True, False, True, False]",DC-5 Lottery,90352,"Rock, Paper, Scissors"
20ankhzq,e9zc72jx,Guessing the Paintings,0,0,"[1, 0, 0, 0, 0]","[True, True, True, True, True]",Guessing the Paintings,90416,Guessing the Paintings
20ankhzq,yfuyquwm,"Rock, Paper, Scissors",1,0,"[3, 3, 2, 2, 3]","[False, True, False, True, True]",DC-5 Lottery,90404,"Rock, Paper, Scissors"
20ankhzq,p2hms5ah,"Rock, Paper, Scissors",0,1,"[1, 3, 3, 3, 1]","[True, False, True, False, True]",DC-5 Lottery,90421,"Rock, Paper, Scissors"
20ankhzq,ndqmgqtm,Guessing the Paintings,0,1,"[0, 0, 1, 0, 0]","[False, True, False, False, True]",DC-5 Lottery,90355,DC-5 Lottery
20ankhzq,txpeoyb4,"Rock, Paper, Scissors",1,1,"[2, 1, 2, 2, 3]","[True, False, True, False, True]",DC-5 Lottery,90429,DC-5 Lottery
20ankhzq,lpu5mucs,"Rock, Paper, Scissors",1,0,"[2, 3, 1, 2, 2]","[False, True, True, False, True]","Rock, Paper, Scissors",90459,"Rock, Paper, Scissors"
20ankhzq,lqi4q3mp,"Rock, Paper, Scissors",1,0,"[3, 2, 1, 1, 3]","[True, False, False, False, True]",DC-5 Lottery,90353,"Rock, Paper, Scissors"
20ankhzq,29rkmuvu,"Rock, Paper, Scissors",0,0,"[2, 3, 2, 1, 3]","[False, False, False, False, False]",DC-5 Lottery,90356,DC-5 Lottery
20ankhzq,jlh472gv,Time,1,0,"[2, 3, 0, 0, 5]","[True, True, True, True, False]",DC-5 Lottery,90406,DC-5 Lottery
20ankhzq,xs8368bq,"Rock, Paper, Scissors",0,0,"[3, 3, 3, 2, 2]","[False, True, False, True, False]","Rock, Paper, Scissors",90408,DC-5 Lottery
20ankhzq,iy03xzvl,Guessing the Paintings,1,1,"[1, 1, 1, 1, 1]","[True, True, False, False, True]",Guessing the Paintings,90439,DC-5 Lottery
20ankhzq,z1jh5ye6,Guessing the Paintings,0,0,"[0, 1, 0, 0, 1]","[True, True, False, False, True]",DC-5 Lottery,90517,DC-5 Lottery
20ankhzq,uyh7lb5z,Guessing the Paintings,0,0,"[0, 0, 0, 1, 0]","[False, False, False, True, False]",Guessing the Paintings,90414,DC-5 Lottery
20ankhzq,u7l0dieg,Guessing the Paintings,1,0,"[1, 0, 1, 1, 0]","[False, True, True, False, False]",Guessing the Paintings,90530,DC-5 Lottery
20ankhzq,o6bwoi8e,Guessing the Paintings,0,1,"[1, 1, 0, 1, 1]","[False, True, False, True, False]",DC-5 Lottery,90516,Guessing the Paintings
20ankhzq,z442o6sz,"Rock, Paper, Scissors",0,0,"[2, 1, 3, 2, 1]","[False, True, False, False, True]",DC-5 Lottery,90440,DC-5 Lottery
20ankhzq,94xa91vm,Guessing the Paintings,0,0,"[1, 1, 1, 0, 0]","[False, False, False, True, True]",Guessing the Paintings,90412,DC-5 Lottery
20ankhzq,ugd4sj8h,"Rock, Paper, Scissors",1,1,"[3, 3, 1, 1, 2]","[True, True, True, True, True]","Rock, Paper, Scissors",90647,"Rock, Paper, Scissors"
20ankhzq,x39wluzt,"Rock, Paper, Scissors",0,1,"[1, 2, 2, 1, 1]","[True, True, True, True, False]","Rock, Paper, Scissors",90418,"Rock, Paper, Scissors"
20ankhzq,nv674ltm,"Rock, Paper, Scissors",0,0,"[2, 1, 1, 3, 2]","[True, True, True, False, False]","Rock, Paper, Scissors",90442,DC-5 Lottery
20ankhzq,i7kqdegp,Time,0,1,"[0, 2, 6, 3, 1]","[True, True, True, True, True]",DC-5 Lottery,90418,DC-5 Lottery
20ankhzq,8pxaxtgc,"Rock, Paper, Scissors",1,0,"[2, 2, 3, 3, 1]","[False, False, False, False, True]","Rock, Paper, Scissors",90421,"Rock, Paper, Scissors"
20ankhzq,m33dluxu,"Rock, Paper, Scissors",1,0,"[2, 3, 3, 3, 2]","[False, False, False, False, True]",DC-5 Lottery,90809,DC-5 Lottery
20ankhzq,ws0z9e44,"Rock, Paper, Scissors",0,0,"[2, 2, 1, 3, 3]","[True, False, True, False, False]",DC-5 Lottery,90448,"Rock, Paper, Scissors"
20ankhzq,oxe77xff,Time,1,0,"[0, 2, 6, 3, 1]","[True, False, True, True, True]",DC-5 Lottery,90444,DC-5 Lottery
20ankhzq,vyai6kph,"Rock, Paper, Scissors",1,0,"[2, 1, 3, 1, 1]","[True, False, False, False, False]",DC-5 Lottery,90445,"Rock, Paper, Scissors"
20ankhzq,dg3dwn19,Time,1,0,"[6, 0, 8, 2, 2]","[True, True, True, True, True]",DC-5 Lottery,90458,Time
20ankhzq,xfr3h5sj,Time,0,1,"[3, 2, 3, 1, 2]","[True, True, False, True, False]",DC-5 Lottery,90422,Time
20ankhzq,vww3jlon,Time,0,1,"[8, 3, 9, 1, 7]","[False, True, True, False, True]",Time,90634,Time
20ankhzq,x3oejt99,Time,1,1,"[7, 3, 0, 0, 3]","[True, True, True, True, True]",DC-5 Lottery,90448,Time
20ankhzq,k9axxxid,Guessing the Paintings,1,0,"[0, 1, 0, 1, 1]","[False, False, False, True, True]",Guessing the Paintings,90444,DC-5 Lottery
20ankhzq,3wfnnlaz,"Rock, Paper, Scissors",0,1,"[3, 1, 2, 3, 1]","[True, False, True, True, False]","Rock, Paper, Scissors",90442,"Rock, Paper, Scissors"
20ankhzq,caa8um1f,Guessing the Paintings,0,1,"[0, 0, 1, 0, 1]","[False, True, False, False, True]",Guessing the Paintings,90429,Guessing the Paintings
20ankhzq,vxel32n9,Time,1,1,"[1, 0, 1, 0, 1]","[True, True, True, True, True]",Time,90533,Time
20ankhzq,39s2ymel,Guessing the Paintings,0,0,"[1, 0, 1, 0, 1]","[False, True, False, True, False]",Guessing the Paintings,90632,DC-5 Lottery
20ankhzq,cu8wih2h,"Rock, Paper, Scissors",0,0,"[2, 3, 1, 1, 1]","[False, True, False, False, False]","Rock, Paper, Scissors",90438,"Rock, Paper, Scissors"
20ankhzq,slve72j2,Time,1,1,"[2, 3, 0, 2, 0]","[True, True, False, False, False]",DC-5 Lottery,90437,DC-5 Lottery
20ankhzq,7ithfak7,"Rock, Paper, Scissors",1,1,"[3, 2, 1, 1, 1]","[True, True, False, False, True]",DC-5 Lottery,90507,"Rock, Paper, Scissors"
20ankhzq,1zn5tn7z,"Rock, Paper, Scissors",1,1,"[3, 3, 1, 3, 3]",,,,
20ankhzq,qgklelcf,"Rock, Paper, Scissors",0,1,"[2, 3, 2, 1, 3]","[True, False, True, True, True]",DC-5 Lottery,90444,"Rock, Paper, Scissors"
20ankhzq,vv3k867b,"Rock, Paper, Scissors",1,0,"[3, 1, 3, 3, 1]","[False, True, False, True, True]",DC-5 Lottery,90448,"Rock, Paper, Scissors"
20ankhzq,auzur6ja,"Rock, Paper, Scissors",0,0,"[2, 3, 1, 1, 2]","[True, False, True, True, False]","Rock, Paper, Scissors",90444,"Rock, Paper, Scissors"
20ankhzq,fmhgnntu,Guessing the Paintings,1,1,"[0, 0, 0, 0, 1]","[True, True, True, True, True]",Guessing the Paintings,90447,DC-5 Lottery
20ankhzq,xajb9a24,Guessing the Paintings,1,0,"[1, 1, 1, 1, 0]","[False, False, False, True, True]",Guessing the Paintings,90528,DC-5 Lottery
20ankhzq,kgoet3z4,"Rock, Paper, Scissors",1,0,"[3, 2, 1, 1, 1]","[False, False, False, False, True]","Rock, Paper, Scissors",90503,DC-5 Lottery
20ankhzq,h78x14ig,"Rock, Paper, Scissors",1,0,"[1, 2, 3, 2, 2]","[True, False, False, True, False]","Rock, Paper, Scissors",90454,"Rock, Paper, Scissors"
20ankhzq,2urj8tcn,"Rock, Paper, Scissors",1,1,"[1, 3, 2, 3, 2]","[True, True, False, False, True]","Rock, Paper, Scissors",90549,"Rock, Paper, Scissors"
20ankhzq,lsh9mzmf,"Rock, Paper, Scissors",0,1,"[3, 2, 3, 1, 1]","[True, False, False, False, True]","Rock, Paper, Scissors",90606,"Rock, Paper, Scissors"
20ankhzq,juhubvca,Guessing the Paintings,1,1,"[0, 1, 0, 1, 1]","[True, False, False, True, True]",DC-5 Lottery,90503,DC-5 Lottery
20ankhzq,6mcf8lgy,"Rock, Paper, Scissors",1,0,"[1, 2, 1, 3, 1]","[False, False, True, False, True]",DC-5 Lottery,90506,DC-5 Lottery
20ankhzq,58i8ytki,"Rock, Paper, Scissors",0,1,"[2, 3, 1, 3, 3]","[True, True, True, False, False]",DC-5 Lottery,90522,"Rock, Paper, Scissors"
20ankhzq,piua62qx,Guessing the Paintings,0,0,"[1, 0, 1, 1, 0]","[False, True, False, False, True]",Guessing the Paintings,90508,DC-5 Lottery
20ankhzq,h5j6a99v,Guessing the Paintings,0,1,"[0, 0, 1, 1, 0]","[True, False, True, False, True]",Guessing the Paintings,90458,DC-5 Lottery
20ankhzq,b101femh,"Rock, Paper, Scissors",1,1,"[2, 2, 1, 1, 1]","[True, True, False, True, False]","Rock, Paper, Scissors",90618,"Rock, Paper, Scissors"
20ankhzq,t1c69b55,Guessing the Paintings,1,1,"[0, 1, 0, 0, 1]","[True, False, True, True, True]",DC-5 Lottery,91517,DC-5 Lottery
20ankhzq,fzouuf0k,"Rock, Paper, Scissors",0,1,"[1, 1, 1, 3, 1]","[False, True, True, False, True]","Rock, Paper, Scissors",90505,DC-5 Lottery
20ankhzq,f2vc0qxi,"Rock, Paper, Scissors",0,0,"[3, 1, 3, 1, 1]","[False, False, False, False, True]","Rock, Paper, Scissors",90510,"Rock, Paper, Scissors"
20ankhzq,2jpzej28,"Rock, Paper, Scissors",0,0,"[1, 2, 1, 1, 1]","[False, True, False, False, False]","Rock, Paper, Scissors",90611,DC-5 Lottery
20ankhzq,gs2ec3ki,"Rock, Paper, Scissors",1,0,"[1, 2, 2, 1, 2]","[False, True, True, False, True]",DC-5 Lottery,90523,DC-5 Lottery
20ankhzq,qo28yt0h,Guessing the Paintings,1,1,"[0, 1, 1, 1, 1]","[True, False, False, True, False]",Guessing the Paintings,90511,Guessing the Paintings
20ankhzq,cdrvc8tn,Time,1,0,"[2, 3, 0, 5, 0]","[False, True, False, False, True]",Time,90538,Time
20ankhzq,9nu9to1p,Time,1,1,"[5, 1, 0, 5, 6]","[True, False, True, False, True]",DC-5 Lottery,90528,DC-5 Lottery
20ankhzq,7sc2afsr,"Rock, Paper, Scissors",0,0,"[2, 2, 3, 1, 2]","[False, False, True, False, True]","Rock, Paper, Scissors",90538,DC-5 Lottery
20ankhzq,zym4xujv,Time,0,0,"[7, 2, 2, 1, 8]","[False, True, False, True, True]",DC-5 Lottery,90517,Time
20ankhzq,x2nqrzqo,Guessing the Paintings,1,1,"[0, 0, 1, 0, 0]","[False, False, True, False, True]",DC-5 Lottery,90552,DC-5 Lottery
20ankhzq,io20xpnw,Time,1,1,,,,90517,
20ankhzq,qrpizmum,Guessing the Paintings,0,0,"[0, 0, 1, 1, 0]","[False, False, False, True, False]",Guessing the Paintings,90526,DC-5 Lottery
20ankhzq,jtcu297o,Guessing the Paintings,0,0,"[0, 1, 0, 0, 1]","[False, False, True, True, True]",DC-5 Lottery,90601,Guessing the Paintings
20ankhzq,9e61wr5z,Time,0,0,"[5, 2, 0, 1, 0]","[True, False, False, True, False]",Time,90513,DC-5 Lottery
20ankhzq,9j6pr4p3,Guessing the Paintings,0,0,"[0, 1, 1, 0, 0]","[False, True, True, True, False]",Guessing the Paintings,90618,Guessing the Paintings
20ankhzq,b5i19u1f,Time,0,0,"[2, 5, 0, 0, 0]","[True, True, True, True, True]",Time,90614,DC-5 Lottery
20ankhzq,0t1wry3b,"Rock, Paper, Scissors",1,1,"[1, 1, 2, 3, 1]","[True, True, False, False, True]","Rock, Paper, Scissors",90535,DC-5 Lottery
20ankhzq,ad1699r9,Time,1,0,"[9, 2, 5, 3, 0]","[True, False, False, True, True]",Time,90550,Time
20ankhzq,69dbp95p,"Rock, Paper, Scissors",0,0,"[2, 3, 2, 3, 2]","[False, False, False, False, True]",DC-5 Lottery,90802,DC-5 Lottery
20ankhzq,3d75el42,"Rock, Paper, Scissors",0,0,"[3, 1, 1, 1, 2]","[True, True, True, True, False]","Rock, Paper, Scissors",90537,DC-5 Lottery
20ankhzq,vcybyxvs,"Rock, Paper, Scissors",0,0,"[2, 3, 1, 3, 3]","[True, False, True, True, False]","Rock, Paper, Scissors",90523,"Rock, Paper, Scissors"
20ankhzq,ehp2bhd1,Time,1,1,"[9, 0, 8, 3, 0]","[True, True, False, False, True]",Time,90554,Time
20ankhzq,ssr21ex7,Time,0,1,"[6, 3, 8, 3, 0]","[False, False, True, True, False]",Time,90639,Time
20ankhzq,qmgf6221,"Rock, Paper, Scissors",0,1,"[1, 1, 1, 2, 1]","[True, True, False, True, True]",DC-5 Lottery,90601,DC-5 Lottery
20ankhzq,vdqz48x6,"Rock, Paper, Scissors",1,0,"[3, 3, 3, 1, 1]","[False, True, False, False, True]",DC-5 Lottery,90655,DC-5 Lottery
20ankhzq,a6hbvyyn,"Rock, Paper, Scissors",0,0,"[1, 2, 1, 3, 2]","[True, False, True, False, True]",DC-5 Lottery,90523,DC-5 Lottery
20ankhzq,a8ieqgfz,Guessing the Paintings,1,0,"[1, 1, 1, 0, 1]","[False, True, True, False, False]",DC-5 Lottery,90528,DC-5 Lottery
20ankhzq,8vbqgx6i,Time,0,1,"[0, 2, 6, 3, 1]","[False, True, False, True, True]",DC-5 Lottery,90554,DC-5 Lottery
20ankhzq,57ebi801,"Rock, Paper, Scissors",0,0,"[2, 3, 2, 3, 2]","[False, True, True, True, True]",DC-5 Lottery,90544,"Rock, Paper, Scissors"
20ankhzq,09utgvvs,"Rock, Paper, Scissors",0,1,"[1, 3, 2, 3, 2]","[False, True, True, False, False]","Rock, Paper, Scissors",90658,DC-5 Lottery
20ankhzq,aur9wchf,Guessing the Paintings,0,1,"[0, 1, 1, 1, 0]","[True, True, True, True, True]",Guessing the Paintings,90546,
20ankhzq,ylermnv4,"Rock, Paper, Scissors",1,1,"[1, 1, 2, 1, 1]","[True, False, True, False, False]",DC-5 Lottery,90547,DC-5 Lottery
20ankhzq,782htya1,Guessing the Paintings,1,1,"[0, 1, 1, 0, 0]","[True, True, False, True, False]",DC-5 Lottery,90543,Guessing the Paintings
20ankhzq,i6eph5kq,"Rock, Paper, Scissors",1,0,"[3, 1, 1, 2, 3]","[False, False, True, False, True]","Rock, Paper, Scissors",90613,"Rock, Paper, Scissors"
20ankhzq,kw0th6ep,Time,1,1,"[8, 0, 3, 2, 6]","[True, True, False, True, False]",Time,90619,DC-5 Lottery
20ankhzq,ee949h5a,"Rock, Paper, Scissors",0,0,"[2, 3, 1, 1, 3]","[True, False, False, True, False]","Rock, Paper, Scissors",90638,DC-5 Lottery
20ankhzq,0t33exb6,"Rock, Paper, Scissors",0,0,"[2, 2, 2, 3, 2]","[False, False, False, False, False]","Rock, Paper, Scissors",90548,"Rock, Paper, Scissors"
20ankhzq,tsjr4v24,Guessing the Paintings,0,1,"[1, 0, 1, 1, 1]","[False, False, False, False, False]",DC-5 Lottery,90624,Guessing the Paintings
20ankhzq,xzbnowy9,Time,0,1,"[2, 1, 3, 2, 5]","[False, True, False, True, False]",DC-5 Lottery,90702,Time
20ankhzq,ykhmkbmf,Time,1,0,"[1, 5, 7, 3, 9]","[False, False, True, True, False]",Time,90558,Time
20ankhzq,cxqjn079,"Rock, Paper, Scissors",1,1,"[1, 1, 2, 1, 3]","[True, False, False, True, True]","Rock, Paper, Scissors",90549,"Rock, Paper, Scissors"
20ankhzq,h9fn7a0w,Time,1,0,"[1, 3, 0, 3, 0]","[False, False, True, False, True]",DC-5 Lottery,90623,DC-5 Lottery
20ankhzq,g2plw76p,Guessing the Paintings,0,1,"[1, 0, 1, 1, 1]","[True, True, True, True, True]",Guessing the Paintings,90548,Guessing the Paintings
20ankhzq,l85harkb,"Rock, Paper, Scissors",1,1,"[3, 3, 2, 2, 2]","[False, True, True, False, True]",DC-5 Lottery,90726,DC-5 Lottery
20ankhzq,1b5h1s1g,Time,1,1,"[1, 3, 0, 1, 0]","[True, False, True, True, False]",DC-5 Lottery,90601,Time
20ankhzq,0mq1g0ez,Guessing the Paintings,0,0,"[0, 1, 0, 0, 1]","[False, True, True, True, False]",DC-5 Lottery,90656,DC-5 Lottery
20ankhzq,z2xvg1fv,Guessing the Paintings,0,1,"[1, 0, 0, 0, 0]","[False, True, False, True, False]",Guessing the Paintings,90606,DC-5 Lottery
20ankhzq,29is8qev,Guessing the Paintings,0,0,"[1, 0, 1, 0, 1]","[False, False, False, True, False]",Guessing the Paintings,90610,DC-5 Lottery
20ankhzq,1icamwqp,Guessing the Paintings,0,0,"[1, 1, 0, 0, 1]","[True, True, True, False, True]",DC-5 Lottery,90620,DC-5 Lottery
20ankhzq,jw90l58e,"Rock, Paper, Scissors",0,1,"[3, 3, 1, 1, 3]","[False, False, False, False, False]","Rock, Paper, Scissors",90643,DC-5 Lottery
20ankhzq,t3qd9rsd,"Rock, Paper, Scissors",1,0,"[3, 2, 2, 1, 1]","[True, True, False, True, True]","Rock, Paper, Scissors",90622,DC-5 Lottery
20ankhzq,vcr7o9gb,"Rock, Paper, Scissors",1,1,"[2, 2, 2, 2, 3]","[True, True, True, True, True]",DC-5 Lottery,90608,"Rock, Paper, Scissors"
20ankhzq,dsjpjcjd,"Rock, Paper, Scissors",0,0,"[2, 3, 3, 3, 3]","[True, True, False, True, False]","Rock, Paper, Scissors",90629,"Rock, Paper, Scissors"
20ankhzq,ytrqc81a,Guessing the Paintings,0,0,"[1, 0, 1, 0, 0]","[False, True, True, False, True]",Guessing the Paintings,90723,DC-5 Lottery
20ankhzq,q1isqpa4,Guessing the Paintings,1,1,"[0, 1, 1, 0, 1]","[True, False, False, True, True]",DC-5 Lottery,90632,DC-5 Lottery
20ankhzq,s0bzanbq,"Rock, Paper, Scissors",0,0,"[1, 1, 1, 2, 2]","[False, False, False, True, True]",DC-5 Lottery,90648,"Rock, Paper, Scissors"
20ankhzq,ab6y1wg8,"Rock, Paper, Scissors",0,0,"[3, 2, 2, 2, 1]","[True, False, False, True, False]","Rock, Paper, Scissors",90739,DC-5 Lottery
20ankhzq,caz57vvt,"Rock, Paper, Scissors",1,0,"[2, 1, 2, 2, 3]","[True, False, True, False, False]","Rock, Paper, Scissors",90619,"Rock, Paper, Scissors"
20ankhzq,c0c49nxy,"Rock, Paper, Scissors",1,1,"[2, 2, 3, 2, 2]","[False, False, True, False, True]","Rock, Paper, Scissors",90741,DC-5 Lottery
20ankhzq,bzz3nbf5,Time,0,1,"[2, 3, 0, 3, 0]","[True, True, True, True, True]",DC-5 Lottery,90640,DC-5 Lottery
20ankhzq,gq1435r2,Time,0,1,"[5, 1, 6, 0, 9]","[True, False, False, True, True]",Time,90852,Time
20ankhzq,dtvox9xe,"Rock, Paper, Scissors",1,1,"[2, 2, 2, 1, 3]","[False, False, False, False, False]",DC-5 Lottery,90645,"Rock, Paper, Scissors"
20ankhzq,s9bhyez7,Guessing the Paintings,1,0,"[0, 1, 1, 0, 1]","[False, True, True, True, True]",DC-5 Lottery,90728,DC-5 Lottery
20ankhzq,dweisw2p,Time,1,0,"[2, 3, 0, 1, 5]","[True, False, True, False, True]",DC-5 Lottery,90641,Time
20ankhzq,kkuu4jvv,"Rock, Paper, Scissors",0,1,"[3, 2, 3, 3, 2]","[False, True, True, False, True]","Rock, Paper, Scissors",90624,"Rock, Paper, Scissors"
20ankhzq,dvze6xsl,Time,0,0,"[1, 1, 5, 2, 5]","[True, False, True, False, True]",DC-5 Lottery,90720,Time
20ankhzq,sqkria2l,"Rock, Paper, Scissors",1,0,"[3, 3, 2, 2, 2]","[False, True, False, True, True]",DC-5 Lottery,90653,DC-5 Lottery
20ankhzq,gduzk86d,Time,1,0,"[8, 4, 0, 0, 0]","[True, False, False, False, True]",Time,90740,DC-5 Lottery
20ankhzq,ng42pkx0,Guessing the Paintings,1,0,"[1, 0, 0, 1, 1]","[False, True, True, False, True]",DC-5 Lottery,90716,Guessing the Paintings
20ankhzq,wwaxm1gl,"Rock, Paper, Scissors",0,0,"[1, 3, 3, 2, 2]","[True, True, False, True, False]","Rock, Paper, Scissors",90633,DC-5 Lottery
20ankhzq,905bbf4u,Guessing the Paintings,0,0,"[0, 1, 1, 0, 0]","[False, True, True, True, False]",DC-5 Lottery,90648,Guessing the Paintings
20ankhzq,clmhajk8,"Rock, Paper, Scissors",1,1,"[3, 2, 2, 2, 2]","[False, False, True, False, False]",DC-5 Lottery,90723,DC-5 Lottery
20ankhzq,a4ul0duu,Time,0,1,"[1, 0, 2, 0, 1]","[True, True, False, True, True]",Time,90648,Time
20ankhzq,aut0349h,Guessing the Paintings,0,1,"[1, 1, 0, 1, 1]","[False, False, True, False, False]",DC-5 Lottery,90710,Guessing the Paintings
20ankhzq,lv11r66s,Guessing the Paintings,0,0,"[1, 1, 1, 0, 1]","[False, False, True, False, False]",DC-5 Lottery,90646,Guessing the Paintings
20ankhzq,fck50e5v,"Rock, Paper, Scissors",1,0,"[2, 3, 1, 2, 2]","[True, False, False, False, False]","Rock, Paper, Scissors",90758,DC-5 Lottery
20ankhzq,xag4ygt6,Guessing the Paintings,0,0,"[1, 1, 0, 1, 0]","[False, True, False, True, False]",DC-5 Lottery,90656,DC-5 Lottery
20ankhzq,sejzil86,"Rock, Paper, Scissors",0,1,"[2, 2, 1, 2, 1]","[False, True, False, False, False]","Rock, Paper, Scissors",90649,DC-5 Lottery
20ankhzq,2h2e4vat,Guessing the Paintings,1,0,"[0, 1, 0, 1, 0]","[False, True, False, True, False]",Guessing the Paintings,90719,DC-5 Lottery
20ankhzq,e02i4wdl,"Rock, Paper, Scissors",0,1,"[2, 2, 1, 2, 1]","[True, False, True, True, False]","Rock, Paper, Scissors",90720,DC-5 Lottery
20ankhzq,4kscl76b,"Rock, Paper, Scissors",0,0,"[1, 3, 3, 3, 1]","[False, True, False, False, False]",DC-5 Lottery,90710,"Rock, Paper, Scissors"
20ankhzq,go5snwjc,"Rock, Paper, Scissors",1,1,"[3, 3, 1, 1, 1]","[True, False, True, False, True]","Rock, Paper, Scissors",90735,DC-5 Lottery
20ankhzq,tcyugjil,"Rock, Paper, Scissors",0,0,"[1, 1, 3, 3, 3]","[True, True, True, True, False]",DC-5 Lottery,90844,DC-5 Lottery
20ankhzq,05fi9m46,"Rock, Paper, Scissors",1,1,"[3, 1, 3, 1, 1]","[False, True, False, False, True]",DC-5 Lottery,90734,DC-5 Lottery
20ankhzq,jtfhpkzq,Time,0,0,"[0, 3, 0, 3, 0]","[False, True, True, False, False]",Time,91007,Time
20ankhzq,uls6g5rw,Time,1,0,"[0, 1, 1, 1, 2]","[False, True, False, True, True]",Time,90932,DC-5 Lottery
20ankhzq,hn7gdu99,Time,0,1,"[0, 2, 6, 3, 1]","[False, False, False, False, False]",DC-5 Lottery,90744,DC-5 Lottery
20ankhzq,pfsxor2s,Time,1,1,"[0, 0, 5, 0, 5]","[True, False, True, False, True]",DC-5 Lottery,90715,Time
20ankhzq,dp981do0,Time,1,1,"[8, 3, 7, 4, 5]","[True, False, True, False, True]",DC-5 Lottery,90740,DC-5 Lottery
20ankhzq,tu9p1x4i,Time,0,0,"[0, 5, 8, 0, 0]","[True, True, False, False, True]",Time,90713,Time
20ankhzq,8i8q362n,"Rock, Paper, Scissors",0,0,"[3, 2, 3, 3, 1]","[False, False, True, True, False]",DC-5 Lottery,90720,DC-5 Lottery
20ankhzq,rdd1h63z,Time,0,0,"[3, 1, 5, 2, 6]","[False, False, True, True, False]",DC-5 Lottery,90740,DC-5 Lottery
20ankhzq,nvczev36,Time,1,1,"[0, 2, 6, 3, 2]","[False, True, True, False, True]",DC-5 Lottery,91428,DC-5 Lottery
20ankhzq,d9sa7wug,Time,0,1,"[2, 2, 5, 5, 5]","[True, False, True, False, True]",DC-5 Lottery,90840,DC-5 Lottery
20ankhzq,gtkbbfy6,"Rock, Paper, Scissors",0,1,"[3, 1, 3, 3, 3]","[True, True, True, True, True]",DC-5 Lottery,90726,DC-5 Lottery
20ankhzq,7su2hx5l,Guessing the Paintings,1,0,"[1, 0, 0, 0, 1]","[False, False, False, True, False]",Guessing the Paintings,90742,DC-5 Lottery
20ankhzq,9jnod1n5,Guessing the Paintings,0,0,"[0, 1, 1, 0, 0]","[False, True, True, True, True]",DC-5 Lottery,90710,Guessing the Paintings
20ankhzq,2cedl064,Time,0,0,"[2, 3, 2, 1, 2]","[True, False, True, False, True]",Time,90801,Time
20ankhzq,212k6im7,Time,0,0,"[2, 4, 5, 2, 5]","[True, True, False, False, False]",DC-5 Lottery,91101,DC-5 Lottery
20ankhzq,dmpmrhw6,"Rock, Paper, Scissors",0,0,"[3, 3, 3, 3, 3]","[True, True, True, False, True]","Rock, Paper, Scissors",90836,DC-5 Lottery
20ankhzq,ywo0wjpt,Guessing the Paintings,1,0,"[1, 0, 1, 0, 1]","[False, True, True, False, True]",DC-5 Lottery,90723,Guessing the Paintings
20ankhzq,b1gnfmeg,Time,1,1,"[4, 2, 2, 1, 5]","[True, False, False, True, True]",Time,90846,DC-5 Lottery
20ankhzq,tupe0cut,Guessing the Paintings,1,0,"[1, 0, 1, 0, 0]","[False, True, True, False, False]",Guessing the Paintings,90714,Guessing the Paintings
20ankhzq,a38zmy8c,"Rock, Paper, Scissors",0,1,"[1, 1, 3, 2, 2]","[True, False, False, True, True]","Rock, Paper, Scissors",90836,"Rock, Paper, Scissors"
20ankhzq,l99krxiv,"Rock, Paper, Scissors",1,0,"[3, 1, 2, 3, 2]","[False, False, True, False, False]","Rock, Paper, Scissors",90809,DC-5 Lottery
20ankhzq,y081324n,Guessing the Paintings,1,1,"[0, 0, 1, 1, 0]","[False, True, False, True, False]",Guessing the Paintings,91031,Guessing the Paintings
20ankhzq,83mmduvw,"Rock, Paper, Scissors",1,1,"[1, 3, 1, 3, 1]","[False, True, True, False, True]",DC-5 Lottery,91036,DC-5 Lottery
20ankhzq,0s1myhzp,"Rock, Paper, Scissors",1,0,"[1, 2, 1, 1, 3]","[True, True, True, False, False]","Rock, Paper, Scissors",90744,"Rock, Paper, Scissors"
20ankhzq,flvfdjvc,Guessing the Paintings,0,0,"[0, 1, 0, 1, 0]","[False, False, True, False, False]",Guessing the Paintings,90719,DC-5 Lottery
20ankhzq,35kdflhb,Guessing the Paintings,1,0,"[1, 0, 1, 1, 0]","[True, True, True, True, True]",Guessing the Paintings,90730,Guessing the Paintings
20ankhzq,1wk3tjsc,Time,1,0,"[5, 3, 0, 1, 5]","[True, False, True, True, True]",DC-5 Lottery,90755,DC-5 Lottery
20ankhzq,7t2ifor3,Time,1,1,"[2, 3, 4, 3, 0]","[False, True, True, False, True]",DC-5 Lottery,90829,DC-5 Lottery
20ankhzq,kehvl5bf,Guessing the Paintings,0,1,"[1, 1, 0, 1, 1]","[True, True, True, True, True]",DC-5 Lottery,90736,Guessing the Paintings
20ankhzq,i9vmdeh7,Time,1,0,"[1, 1, 2, 1, 4]","[False, False, True, True, True]",Time,90736,DC-5 Lottery
20ankhzq,aexz5gxe,"Rock, Paper, Scissors",0,1,"[1, 3, 1, 3, 2]","[False, True, False, True, True]","Rock, Paper, Scissors",90731,DC-5 Lottery
20ankhzq,hqi2tf7d,Guessing the Paintings,1,0,"[0, 0, 1, 0, 1]","[True, True, False, False, False]",Guessing the Paintings,90737,DC-5 Lottery
20ankhzq,gfcrdugp,Guessing the Paintings,1,1,"[1, 0, 0, 1, 0]","[True, True, True, True, True]",Guessing the Paintings,90732,DC-5 Lottery
20ankhzq,jbrm9fq9,"Rock, Paper, Scissors",1,1,"[2, 1, 3, 3, 1]","[True, True, False, False, True]","Rock, Paper, Scissors",90840,DC-5 Lottery
20ankhzq,pup94s19,"Rock, Paper, Scissors",0,1,"[2, 1, 1, 3, 2]","[True, False, False, True, False]","Rock, Paper, Scissors",90752,"Rock, Paper, Scissors"
20ankhzq,t9uvbmb3,"Rock, Paper, Scissors",0,1,"[3, 3, 2, 3, 1]","[True, False, False, False, True]",DC-5 Lottery,90835,DC-5 Lottery
20ankhzq,1i852op1,"Rock, Paper, Scissors",0,1,"[2, 2, 2, 1, 2]","[False, True, True, False, False]",DC-5 Lottery,90830,"Rock, Paper, Scissors"
20ankhzq,613iw6ud,"Rock, Paper, Scissors",1,0,"[3, 2, 3, 2, 2]","[True, True, False, True, False]","Rock, Paper, Scissors",90744,"Rock, Paper, Scissors"
20ankhzq,tegedgxz,"Rock, Paper, Scissors",1,1,"[1, 1, 1, 2, 1]","[False, False, False, True, False]",DC-5 Lottery,90852,"Rock, Paper, Scissors"
20ankhzq,74uvo4lf,"Rock, Paper, Scissors",1,1,"[2, 3, 3, 2, 3]","[False, True, True, False, False]",DC-5 Lottery,90804,DC-5 Lottery
20ankhzq,0vkrcxjs,"Rock, Paper, Scissors",1,0,"[1, 1, 2, 2, 2]","[False, True, True, True, True]","Rock, Paper, Scissors",90755,"Rock, Paper, Scissors"
20ankhzq,e6jww7ej,Time,1,0,"[8, 4, 7, 1, 6]","[True, False, True, False, True]",Time,90749,Time
20ankhzq,5qykp74v,Guessing the Paintings,0,0,"[0, 0, 0, 0, 0]","[True, False, True, False, True]",Guessing the Paintings,90829,Guessing the Paintings
20ankhzq,z29gb5bj,Time,1,0,"[7, 3, 1, 2, 8]","[False, False, False, False, False]",Time,90822,DC-5 Lottery
20ankhzq,6ieni42l,Time,1,1,"[6, 4, 0, 2, 5]","[True, True, True, False, True]",Time,90816,DC-5 Lottery
20ankhzq,pcabqxzn,"Rock, Paper, Scissors",0,1,"[1, 1, 3, 1, 3]","[True, False, False, True, True]","Rock, Paper, Scissors",90755,DC-5 Lottery
20ankhzq,595pynr5,"Rock, Paper, Scissors",1,1,"[2, 3, 2, 3, 2]","[False, False, False, True, False]",DC-5 Lottery,90903,DC-5 Lottery
20ankhzq,p2sbqzje,"Rock, Paper, Scissors",1,0,"[1, 2, 1, 1, 3]","[True, False, True, False, True]","Rock, Paper, Scissors",90753,DC-5 Lottery
20ankhzq,7idoqwo3,"Rock, Paper, Scissors",0,1,"[1, 1, 1, 1, 2]","[True, True, True, True, True]",DC-5 Lottery,90801,DC-5 Lottery
20ankhzq,godbcqo5,"Rock, Paper, Scissors",1,0,"[2, 2, 1, 2, 2]","[False, False, False, False, False]",DC-5 Lottery,90810,DC-5 Lottery
20ankhzq,tun24488,"Rock, Paper, Scissors",1,0,"[2, 1, 3, 1, 1]","[True, False, True, True, True]","Rock, Paper, Scissors",90936,"Rock, Paper, Scissors"
20ankhzq,uw9o3u3j,Guessing the Paintings,1,1,"[1, 1, 0, 0, 0]","[False, False, False, False, False]",Guessing the Paintings,90829,DC-5 Lottery
20ankhzq,1x39kw0k,Guessing the Paintings,0,1,"[1, 0, 0, 1, 0]","[True, False, True, False, True]",Guessing the Paintings,90803,Guessing the Paintings
20ankhzq,dntuj90s,Time,1,1,"[6, 2, 9, 1, 0]","[False, True, True, False, True]",DC-5 Lottery,91108,DC-5 Lottery
20ankhzq,rn0xlgnr,Time,1,1,"[8, 0, 5, 0, 3]","[True, True, False, True, True]",Time,90802,Time
20ankhzq,bzll73z0,Time,0,1,"[1, 3, 0, 0, 0]","[False, False, True, False, False]",Time,90759,Time
20ankhzq,0ppmeyhn,Guessing the Paintings,0,1,"[1, 0, 0, 1, 1]","[True, False, True, True, False]",Guessing the Paintings,90812,DC-5 Lottery
20ankhzq,utrwl05q,"Rock, Paper, Scissors",0,1,"[2, 1, 2, 3, 1]","[True, True, False, False, True]",DC-5 Lottery,90818,DC-5 Lottery
20ankhzq,el6o9cr1,Guessing the Paintings,1,0,"[0, 1, 1, 0, 1]","[False, True, False, False, False]",Guessing the Paintings,90846,DC-5 Lottery
20ankhzq,qm2ri430,Time,1,0,"[9, 1, 2, 3, 5]","[False, False, False, False, True]",Time,91008,DC-5 Lottery
20ankhzq,55f7m3e3,"Rock, Paper, Scissors",0,0,"[2, 1, 2, 3, 3]","[True, False, False, True, False]","Rock, Paper, Scissors",90831,DC-5 Lottery
20ankhzq,v4c8aq53,Guessing the Paintings,0,0,"[0, 1, 0, 1, 1]","[True, True, False, False, False]",Guessing the Paintings,90805,DC-5 Lottery
20ankhzq,83g47bja,Time,1,0,"[8, 4, 0, 3, 2]","[True, False, True, False, True]",DC-5 Lottery,90927,Time
20ankhzq,i92s2epj,"Rock, Paper, Scissors",1,1,"[2, 3, 2, 3, 3]","[True, True, True, True, True]","Rock, Paper, Scissors",90831,DC-5 Lottery
20ankhzq,oujd1etm,Time,0,1,"[4, 3, 5, 2, 2]","[True, True, False, True, False]",DC-5 Lottery,90824,Time
20ankhzq,rcggyv8t,Guessing the Paintings,1,1,"[0, 1, 0, 0, 1]","[True, False, True, False, True]",Guessing the Paintings,90915,Guessing the Paintings
20ankhzq,d8pxxlag,"Rock, Paper, Scissors",0,1,"[3, 1, 2, 3, 1]","[True, True, False, True, True]","Rock, Paper, Scissors",93040,"Rock, Paper, Scissors"
20ankhzq,u1nduhx6,"Rock, Paper, Scissors",1,1,"[3, 1, 1, 2, 3]","[True, True, False, False, True]","Rock, Paper, Scissors",90827,"Rock, Paper, Scissors"
20ankhzq,lbewfwd4,"Rock, Paper, Scissors",0,0,"[1, 2, 2, 2, 2]","[False, True, False, True, True]","Rock, Paper, Scissors",90822,DC-5 Lottery
20ankhzq,50zvcgs4,"Rock, Paper, Scissors",1,0,"[2, 2, 2, 3, 2]","[True, True, True, False, True]","Rock, Paper, Scissors",90841,DC-5 Lottery
20ankhzq,owoze02t,"Rock, Paper, Scissors",0,1,"[1, 1, 1, 3, 1]","[True, True, True, True, True]","Rock, Paper, Scissors",90822,"Rock, Paper, Scissors"
20ankhzq,yfor0dzy,Time,0,1,"[1, 2, 2, 1, 4]","[True, True, True, True, True]",DC-5 Lottery,90837,Time
20ankhzq,3xl57vc3,"Rock, Paper, Scissors",1,1,"[3, 1, 2, 1, 3]","[True, False, True, False, True]","Rock, Paper, Scissors",90903,DC-5 Lottery
20ankhzq,39q7xmny,"Rock, Paper, Scissors",0,1,"[1, 2, 3, 3, 1]","[True, False, False, True, True]","Rock, Paper, Scissors",91121,DC-5 Lottery
20ankhzq,b3qngihs,Guessing the Paintings,1,1,"[0, 0, 1, 0, 0]","[True, False, True, False, True]",Guessing the Paintings,90828,DC-5 Lottery
20ankhzq,v8legcgv,"Rock, Paper, Scissors",1,1,"[2, 1, 2, 3, 1]","[True, False, False, True, False]","Rock, Paper, Scissors",90841,"Rock, Paper, Scissors"
20ankhzq,nyhoiose,"Rock, Paper, Scissors",0,1,"[3, 1, 2, 3, 1]","[True, False, True, False, True]",DC-5 Lottery,90852,"Rock, Paper, Scissors"
20ankhzq,a0rubwri,Time,1,1,"[1, 1, 1, 1, 1]","[True, False, True, True, False]",Time,90857,DC-5 Lottery
20ankhzq,sj8hlj25,Time,1,0,"[2, 1, 3, 1, 4]","[False, False, True, True, True]",Time,91009,Time
20ankhzq,1ebe12jl,Time,0,1,"[0, 2, 6, 3, 1]","[True, True, False, False, True]",DC-5 Lottery,90857,Time
20ankhzq,uw8ermmr,Time,1,1,"[0, 3, 2, 5, 9]","[False, False, True, False, False]",DC-5 Lottery,91148,Time
20ankhzq,b9g18hk4,"Rock, Paper, Scissors",1,0,"[1, 2, 2, 2, 1]","[True, False, True, False, True]","Rock, Paper, Scissors",90909,"Rock, Paper, Scissors"
20ankhzq,m8d3glye,Time,1,1,"[0, 2, 6, 3, 1]","[True, True, False, False, True]",DC-5 Lottery,90845,DC-5 Lottery
20ankhzq,oku13qdg,"Rock, Paper, Scissors",0,1,"[3, 2, 3, 3, 1]","[True, False, False, True, True]",DC-5 Lottery,91112,"Rock, Paper, Scissors"
20ankhzq,sibhsing,Time,0,0,"[1, 1, 5, 1, 5]","[False, False, False, True, True]",DC-5 Lottery,90846,DC-5 Lottery
20ankhzq,xmiqpx6e,Guessing the Paintings,0,0,"[1, 0, 1, 0, 1]","[True, False, False, False, False]",Guessing the Paintings,90834,Guessing the Paintings
20ankhzq,mvrtbdmo,Time,0,0,"[9, 0, 9, 2, 1]","[True, True, True, True, False]",Time,90837,Time
20ankhzq,yxcd2tap,"Rock, Paper, Scissors",1,0,"[1, 1, 3, 1, 2]","[True, True, False, False, False]","Rock, Paper, Scissors",90840,"Rock, Paper, Scissors"
20ankhzq,mwhsbw86,Time,0,1,"[5, 2, 6, 3, 2]","[False, False, True, False, True]",DC-5 Lottery,90911,DC-5 Lottery
20ankhzq,wbh1wc6d,Guessing the Paintings,1,0,"[1, 1, 0, 0, 0]","[False, True, True, False, True]",Guessing the Paintings,91104,DC-5 Lottery
20ankhzq,6qda4let,"Rock, Paper, Scissors",1,1,"[2, 2, 2, 1, 3]","[True, False, True, True, False]",DC-5 Lottery,90938,DC-5 Lottery
20ankhzq,wwu4uzha,Time,1,1,"[1, 4, 8, 2, 6]","[True, False, True, True, False]",DC-5 Lottery,91216,DC-5 Lottery
20ankhzq,fhtln0tt,"Rock, Paper, Scissors",0,1,"[1, 3, 1, 3, 3]","[True, True, False, False, True]",DC-5 Lottery,91032,"Rock, Paper, Scissors"
20ankhzq,39abt964,"Rock, Paper, Scissors",1,0,"[1, 2, 1, 1, 3]","[False, True, False, False, False]",,91039,
20ankhzq,vby527pg,"Rock, Paper, Scissors",1,0,"[1, 1, 3, 2, 2]","[True, True, True, False, True]","Rock, Paper, Scissors",90911,DC-5 Lottery
20ankhzq,9llhqg1v,Time,0,0,"[0, 2, 5, 3, 0]","[False, False, True, True, False]",Time,90907,Time
20ankhzq,iazt8ylb,Guessing the Paintings,0,1,"[1, 1, 0, 0, 0]","[True, False, False, True, True]",DC-5 Lottery,90916,DC-5 Lottery
20ankhzq,2wt252p6,Time,0,1,"[8, 2, 2, 4, 8]","[False, False, True, False, True]",DC-5 Lottery,90936,DC-5 Lottery
20ankhzq,hi7qavbb,"Rock, Paper, Scissors",1,1,"[2, 3, 2, 2, 2]","[False, False, True, False, False]",DC-5 Lottery,91046,"Rock, Paper, Scissors"
20ankhzq,ml7uz0vo,Time,0,0,"[6, 4, 0, 0, 5]","[True, True, False, True, False]",Time,90935,DC-5 Lottery
20ankhzq,c0em0n2h,"Rock, Paper, Scissors",1,1,"[1, 3, 2, 2, 3]","[True, True, False, False, True]","Rock, Paper, Scissors",90935,"Rock, Paper, Scissors"
20ankhzq,n0pwjd9b,Time,0,1,"[5, 2, 3, 0, 8]","[True, True, False, False, False]",Time,91004,Time
20ankhzq,ag47pwz1,Time,1,1,"[5, 3, 3, 3, 3]","[False, False, False, False, False]",Time,91151,Time
20ankhzq,9qu3b41d,Guessing the Paintings,0,0,"[0, 1, 1, 1, 1]","[True, False, True, False, False]",Guessing the Paintings,90919,DC-5 Lottery
20ankhzq,kuccz6jm,Guessing the Paintings,1,1,"[0, 0, 1, 0, 1]","[False, False, True, True, True]",DC-5 Lottery,90932,Guessing the Paintings
20ankhzq,d17d53jy,Time,0,0,"[5, 3, 5, 1, 1]","[False, False, False, True, True]",DC-5 Lottery,90916,Time
20ankhzq,h9sooicz,"Rock, Paper, Scissors",1,0,"[3, 1, 1, 3, 2]","[True, True, False, False, False]",DC-5 Lottery,91006,DC-5 Lottery
20ankhzq,p8axyd8n,Time,0,0,"[0, 2, 6, 3, 1]","[False, False, True, False, False]",DC-5 Lottery,90942,Time
20ankhzq,s1outezs,"Rock, Paper, Scissors",0,1,"[3, 3, 1, 2, 3]","[False, True, True, False, False]","Rock, Paper, Scissors",91127,"Rock, Paper, Scissors"
20ankhzq,60vq4hwb,Guessing the Paintings,1,0,"[0, 0, 0, 1, 1]","[True, True, False, True, True]",DC-5 Lottery,90936,Guessing the Paintings
20ankhzq,frbqg4wh,"Rock, Paper, Scissors",1,0,"[2, 2, 2, 1, 3]","[True, True, False, False, False]","Rock, Paper, Scissors",90938,DC-5 Lottery
20ankhzq,oqp1ppul,"Rock, Paper, Scissors",1,1,"[1, 3, 2, 3, 3]","[False, True, False, True, True]",DC-5 Lottery,90939,DC-5 Lottery
20ankhzq,0y7o6vuy,Time,1,0,"[1, 1, 0, 0, 3]","[True, False, False, True, False]",Time,90942,Time
20ankhzq,lklk6muo,"Rock, Paper, Scissors",1,1,"[3, 2, 2, 1, 3]","[True, False, False, False, True]","Rock, Paper, Scissors",90947,"Rock, Paper, Scissors"
20ankhzq,t6qnp3n3,"Rock, Paper, Scissors",0,0,"[1, 2, 3, 2, 1]","[True, False, True, False, True]","Rock, Paper, Scissors",90939,DC-5 Lottery
20ankhzq,a65ys3x1,"Rock, Paper, Scissors",0,0,"[2, 1, 1, 3, 1]","[False, True, True, False, True]","Rock, Paper, Scissors",91018,"Rock, Paper, Scissors"
20ankhzq,3upqniwz,"Rock, Paper, Scissors",1,0,"[3, 3, 2, 1, 3]","[False, False, False, False, False]",DC-5 Lottery,90942,"Rock, Paper, Scissors"
20ankhzq,dnzkqit5,Guessing the Paintings,1,1,"[1, 0, 1, 0, 1]","[True, False, True, False, True]",DC-5 Lottery,91013,DC-5 Lottery
20ankhzq,u4ibn4cc,"Rock, Paper, Scissors",1,0,"[1, 3, 2, 1, 3]","[False, False, True, False, False]","Rock, Paper, Scissors",90943,"Rock, Paper, Scissors"
20ankhzq,gefnc4z8,"Rock, Paper, Scissors",1,1,"[3, 3, 2, 2, 3]","[True, False, False, True, True]","Rock, Paper, Scissors",90956,"Rock, Paper, Scissors"
20ankhzq,d0x0q115,Guessing the Paintings,1,1,"[1, 0, 1, 1, 0]","[True, False, False, False, True]",DC-5 Lottery,91005,DC-5 Lottery
20ankhzq,cmz4hsq2,"Rock, Paper, Scissors",1,0,"[2, 1, 2, 3, 3]","[False, False, False, True, True]",DC-5 Lottery,91003,DC-5 Lottery
20ankhzq,4twshi08,"Rock, Paper, Scissors",1,1,"[3, 3, 3, 3, 3]","[False, False, True, False, False]",DC-5 Lottery,91029,"Rock, Paper, Scissors"
20ankhzq,hg46qx0j,"Rock, Paper, Scissors",1,0,"[2, 1, 3, 2, 3]","[True, False, False, True, False]","Rock, Paper, Scissors",90957,DC-5 Lottery
20ankhzq,a2q7inzd,Guessing the Paintings,0,0,"[1, 1, 0, 0, 1]","[True, True, True, False, False]",Guessing the Paintings,91051,DC-5 Lottery
20ankhzq,x3v143b5,"Rock, Paper, Scissors",0,1,"[3, 1, 3, 1, 2]","[True, True, False, True, True]","Rock, Paper, Scissors",91018,"Rock, Paper, Scissors"
20ankhzq,fp3k2bs4,Guessing the Paintings,1,1,"[0, 0, 1, 1, 1]","[True, False, True, False, True]",DC-5 Lottery,91128,DC-5 Lottery
20ankhzq,za5soyej,"Rock, Paper, Scissors",0,1,"[3, 2, 3, 1, 3]","[True, True, True, True, True]",DC-5 Lottery,91015,"Rock, Paper, Scissors"
20ankhzq,77v541l4,"Rock, Paper, Scissors",0,1,"[3, 1, 1, 2, 1]","[True, False, False, True, True]",DC-5 Lottery,90949,"Rock, Paper, Scissors"
20ankhzq,4r13tb2i,Guessing the Paintings,0,0,"[1, 0, 0, 1, 0]","[False, False, True, True, True]",Guessing the Paintings,91602,Guessing the Paintings
20ankhzq,y4cb0t4r,"Rock, Paper, Scissors",1,0,"[3, 1, 1, 1, 3]","[False, False, True, False, True]",DC-5 Lottery,91001,DC-5 Lottery
20ankhzq,j6qwfyld,Guessing the Paintings,0,1,"[1, 0, 1, 0, 0]","[True, True, False, False, True]",Guessing the Paintings,91007,Guessing the Paintings
20ankhzq,d7hi4bdj,Time,1,0,"[7, 0, 7, 5, 7]","[False, False, True, False, False]",DC-5 Lottery,91102,Time
20ankhzq,blnksigt,"Rock, Paper, Scissors",1,0,"[2, 1, 1, 2, 3]","[True, True, True, True, True]","Rock, Paper, Scissors",91030,DC-5 Lottery
20ankhzq,f880o48f,Time,0,1,"[1, 2, 5, 1, 2]","[True, True, True, True, False]",DC-5 Lottery,91022,DC-5 Lottery
20ankhzq,ueufgvbu,"Rock, Paper, Scissors",1,0,"[1, 2, 2, 2, 1]","[False, True, False, True, True]","Rock, Paper, Scissors",91216,DC-5 Lottery
20ankhzq,dz2fbw6l,Guessing the Paintings,0,1,"[0, 1, 0, 0, 1]","[True, True, True, True, True]",DC-5 Lottery,91026,DC-5 Lottery
20ankhzq,i4qxs3r9,Guessing the Paintings,0,0,"[1, 0, 1, 1, 1]","[True, False, False, False, False]",Guessing the Paintings,91009,Guessing the Paintings
20ankhzq,9yv7z7mz,"Rock, Paper, Scissors",0,0,"[3, 1, 3, 1, 2]","[True, False, False, False, True]","Rock, Paper, Scissors",91143,DC-5 Lottery
20ankhzq,mifdwmgu,"Rock, Paper, Scissors",0,1,"[1, 1, 2, 2, 3]","[True, True, True, True, True]","Rock, Paper, Scissors",91011,"Rock, Paper, Scissors"
20ankhzq,oifra4nz,"Rock, Paper, Scissors",1,1,"[2, 3, 1, 1, 3]","[False, True, False, True, False]",DC-5 Lottery,91148,DC-5 Lottery
20ankhzq,ojzzojbc,"Rock, Paper, Scissors",0,1,"[2, 2, 2, 3, 1]","[False, False, True, True, False]","Rock, Paper, Scissors",91049,DC-5 Lottery
20ankhzq,9gnanimk,"Rock, Paper, Scissors",0,0,"[2, 1, 2, 3, 1]","[False, False, False, True, True]",DC-5 Lottery,91015,"Rock, Paper, Scissors"
20ankhzq,83ldhos9,"Rock, Paper, Scissors",0,0,"[1, 2, 3, 1, 1]","[False, False, False, True, True]","Rock, Paper, Scissors",91014,DC-5 Lottery
20ankhzq,oplu1zsw,"Rock, Paper, Scissors",1,0,"[2, 1, 3, 3, 2]","[True, False, False, True, False]","Rock, Paper, Scissors",91010,DC-5 Lottery
20ankhzq,bak435ss,Guessing the Paintings,1,1,"[1, 1, 1, 1, 1]","[True, False, True, False, False]",DC-5 Lottery,91025,Guessing the Paintings
20ankhzq,k5i95lmj,Guessing the Paintings,1,1,"[1, 1, 1, 1, 0]","[True, False, True, False, True]",DC-5 Lottery,91223,Guessing the Paintings
20ankhzq,i3p7t2w6,Guessing the Paintings,1,1,"[1, 0, 1, 1, 0]","[False, False, True, False, True]",Guessing the Paintings,91105,DC-5 Lottery
20ankhzq,e9umt8gl,"Rock, Paper, Scissors",1,0,"[1, 1, 2, 1, 1]","[True, False, False, True, False]",DC-5 Lottery,91032,"Rock, Paper, Scissors"
20ankhzq,3960s3sc,"Rock, Paper, Scissors",0,0,"[1, 2, 3, 3, 2]","[False, True, False, False, False]",DC-5 Lottery,91138,"Rock, Paper, Scissors"
20ankhzq,t1leh04a,"Rock, Paper, Scissors",0,0,"[2, 1, 3, 1, 1]","[False, False, True, True, False]","Rock, Paper, Scissors",91022,DC-5 Lottery
20ankhzq,pxc2wzfi,"Rock, Paper, Scissors",0,0,"[1, 1, 1, 2, 1]","[False, False, True, False, True]",DC-5 Lottery,91016,"Rock, Paper, Scissors"
20ankhzq,kbyj0lrr,Guessing the Paintings,1,1,"[0, 0, 1, 1, 0]","[True, False, True, False, False]",Guessing the Paintings,91018,DC-5 Lottery
20ankhzq,mihyc4u8,"Rock, Paper, Scissors",1,0,"[2, 3, 1, 3, 1]","[False, False, True, True, False]","Rock, Paper, Scissors",91059,DC-5 Lottery
20ankhzq,81hyv3sr,"Rock, Paper, Scissors",0,1,"[1, 2, 1, 1, 1]","[False, True, False, True, False]","Rock, Paper, Scissors",91406,"Rock, Paper, Scissors"
20ankhzq,giztcujl,"Rock, Paper, Scissors",1,0,"[2, 2, 3, 1, 1]","[True, False, True, False, True]","Rock, Paper, Scissors",91035,"Rock, Paper, Scissors"
20ankhzq,ohoz19tp,Guessing the Paintings,0,1,"[1, 0, 0, 1, 0]","[True, True, False, False, True]",Guessing the Paintings,91124,Guessing the Paintings
20ankhzq,dmsbqwvp,Time,1,0,"[5, 3, 5, 0, 7]","[False, True, False, False, False]",Time,91518,Time
20ankhzq,rojl1ssb,Time,0,1,"[8, 0, 0, 0, 0]","[False, False, False, False, False]",DC-5 Lottery,91035,Time
20ankhzq,j0tafzq8,Guessing the Paintings,0,1,"[0, 0, 1, 0, 1]","[True, False, True, True, False]",Guessing the Paintings,91607,Guessing the Paintings
20ankhzq,rsyduahi,Guessing the Paintings,1,1,"[1, 0, 1, 1, 1]","[True, False, True, False, True]",DC-5 Lottery,91049,DC-5 Lottery
20ankhzq,ciin22y4,Time,0,1,"[5, 0, 7, 1, 0]","[True, True, False, False, False]",DC-5 Lottery,91040,Time
20ankhzq,jo4o0a1p,"Rock, Paper, Scissors",1,1,"[2, 1, 2, 3, 3]","[True, True, False, False, True]",DC-5 Lottery,91105,DC-5 Lottery
20ankhzq,44j08pxx,"Rock, Paper, Scissors",0,1,"[2, 2, 2, 3, 1]","[True, False, True, False, True]",DC-5 Lottery,91059,DC-5 Lottery
20ankhzq,ujmx8cun,Time,1,0,"[0, 2, 6, 3, 0]","[True, False, False, False, True]",Time,91059,Time
20ankhzq,s2wb9loz,Guessing the Paintings,0,0,"[1, 0, 0, 1, 0]","[False, False, False, True, False]",Guessing the Paintings,91117,Guessing the Paintings
20ankhzq,0fl2y9tw,"Rock, Paper, Scissors",1,0,"[3, 2, 3, 1, 3]","[False, False, False, False, True]","Rock, Paper, Scissors",91059,"Rock, Paper, Scissors"
20ankhzq,gk342nd7,"Rock, Paper, Scissors",0,1,"[1, 1, 3, 3, 1]","[True, True, True, False, False]","Rock, Paper, Scissors",91126,"Rock, Paper, Scissors"
20ankhzq,boya5gej,Guessing the Paintings,1,1,"[1, 1, 0, 1, 1]","[True, False, True, True, False]",Guessing the Paintings,91103,DC-5 Lottery
20ankhzq,08ug6nnw,Time,1,1,"[5, 1, 2, 4, 0]","[True, False, False, True, True]",DC-5 Lottery,91152,DC-5 Lottery
20ankhzq,as0lbgfm,Guessing the Paintings,0,0,"[0, 1, 0, 1, 0]","[True, False, False, True, False]",,91040,
20ankhzq,m0zgk9m5,Time,1,1,"[7, 3, 5, 2, 8]","[True, True, False, True, True]",DC-5 Lottery,91223,DC-5 Lottery
20ankhzq,k53iy364,"Rock, Paper, Scissors",0,0,"[3, 3, 2, 2, 3]","[False, True, False, False, False]","Rock, Paper, Scissors",91154,DC-5 Lottery
20ankhzq,iyroku8q,Guessing the Paintings,0,1,"[0, 0, 0, 0, 0]","[True, True, False, False, True]",Guessing the Paintings,91050,Guessing the Paintings
20ankhzq,4op4rf6u,Guessing the Paintings,1,0,"[1, 1, 1, 0, 1]","[False, True, True, True, False]",DC-5 Lottery,91110,Guessing the Paintings
20ankhzq,i3e1mb54,Guessing the Paintings,1,0,"[0, 1, 0, 1, 1]","[True, False, False, True, True]",Guessing the Paintings,91121,DC-5 Lottery
20ankhzq,5nj04c2j,"Rock, Paper, Scissors",0,0,"[1, 2, 1, 2, 3]","[False, False, True, True, True]","Rock, Paper, Scissors",91101,"Rock, Paper, Scissors"
20ankhzq,adjdpru5,Guessing the Paintings,0,0,"[1, 1, 0, 1, 0]","[True, False, True, False, True]",Guessing the Paintings,91226,Guessing the Paintings
20ankhzq,mh1rhiuk,Time,1,0,"[9, 1, 1, 4, 3]","[False, False, False, True, True]",Time,91058,Time
20ankhzq,tbedhrqw,Guessing the Paintings,0,1,"[0, 0, 1, 1, 0]","[True, True, True, True, True]",DC-5 Lottery,91051,Guessing the Paintings
20ankhzq,e4ws8a4x,"Rock, Paper, Scissors",0,0,"[2, 3, 2, 1, 3]","[True, False, False, False, True]","Rock, Paper, Scissors",91332,"Rock, Paper, Scissors"
20ankhzq,8mldn54s,"Rock, Paper, Scissors",0,0,"[2, 1, 2, 2, 2]","[False, True, True, False, True]","Rock, Paper, Scissors",91058,DC-5 Lottery
20ankhzq,961ynmfk,Time,1,0,"[1, 3, 0, 1, 5]","[False, True, True, True, False]",DC-5 Lottery,91204,DC-5 Lottery
20ankhzq,gpnihfsn,"Rock, Paper, Scissors",1,0,"[1, 3, 3, 1, 3]","[True, False, False, True, False]",DC-5 Lottery,91119,DC-5 Lottery
20ankhzq,wciou11e,"Rock, Paper, Scissors",0,1,"[1, 3, 2, 3, 2]","[True, False, True, True, False]",DC-5 Lottery,91201,"Rock, Paper, Scissors"
20ankhzq,ytlftlkf,"Rock, Paper, Scissors",0,1,"[2, 3, 1, 2, 1]","[True, False, True, False, True]","Rock, Paper, Scissors",91152,"Rock, Paper, Scissors"
20ankhzq,20p7jm19,Time,1,1,"[9, 1, 3, 3, 0]","[True, True, False, False, True]",Time,91338,Time
20ankhzq,q34cnkqa,Time,1,0,"[0, 3, 0, 1, 5]","[False, True, False, True, True]",DC-5 Lottery,91223,Time
20ankhzq,seizkpnm,"Rock, Paper, Scissors",0,0,"[2, 1, 2, 1, 1]","[True, True, True, False, True]",DC-5 Lottery,91106,"Rock, Paper, Scissors"
20ankhzq,away3yoh,"Rock, Paper, Scissors",0,0,"[1, 2, 1, 3, 2]","[True, True, False, False, True]","Rock, Paper, Scissors",91104,DC-5 Lottery
20ankhzq,zfhjhupw,"Rock, Paper, Scissors",1,1,"[3, 3, 1, 1, 2]","[False, True, False, False, True]",DC-5 Lottery,91108,DC-5 Lottery
20ankhzq,be21tjn3,"Rock, Paper, Scissors",1,1,"[1, 1, 2, 1, 1]","[True, False, True, True, True]","Rock, Paper, Scissors",91126,DC-5 Lottery
20ankhzq,7cirupq9,"Rock, Paper, Scissors",0,1,"[1, 3, 3, 2, 3]","[True, False, False, True, False]",DC-5 Lottery,91144,DC-5 Lottery
20ankhzq,lhuh84eb,"Rock, Paper, Scissors",0,0,"[2, 2, 1, 2, 1]","[True, True, True, True, False]","Rock, Paper, Scissors",91146,"Rock, Paper, Scissors"
20ankhzq,orpvwax0,"Rock, Paper, Scissors",1,0,"[1, 3, 3, 2, 1]","[False, False, False, True, False]","Rock, Paper, Scissors",91121,"Rock, Paper, Scissors"
20ankhzq,jhsjxeta,"Rock, Paper, Scissors",0,1,"[1, 1, 3, 1, 3]","[False, True, True, False, False]","Rock, Paper, Scissors",91306,"Rock, Paper, Scissors"
20ankhzq,c6rxtx8f,"Rock, Paper, Scissors",1,0,"[3, 1, 2, 2, 3]","[True, True, True, False, True]","Rock, Paper, Scissors",91122,DC-5 Lottery
20ankhzq,0v6zusaa,"Rock, Paper, Scissors",0,0,"[3, 1, 3, 3, 1]","[False, True, True, False, False]",,91245,
20ankhzq,hr55hvpi,Time,1,0,"[2, 5, 8, 4, 1]","[False, True, False, False, True]",Time,91126,DC-5 Lottery
20ankhzq,fuwaodbe,Time,0,0,"[1, 5, 8, 0, 2]","[True, True, False, True, True]",DC-5 Lottery,91200,DC-5 Lottery
20ankhzq,vedhyak2,"Rock, Paper, Scissors",0,0,"[1, 1, 1, 1, 1]","[False, True, True, False, True]","Rock, Paper, Scissors",91227,DC-5 Lottery
20ankhzq,ucwnydjx,Guessing the Paintings,0,0,"[1, 0, 0, 1, 1]","[True, False, True, True, False]",DC-5 Lottery,91811,DC-5 Lottery
20ankhzq,r6nm63hw,Guessing the Paintings,1,1,"[1, 0, 1, 0, 1]","[True, True, False, True, False]",Guessing the Paintings,91148,DC-5 Lottery
20ankhzq,zghkugd3,"Rock, Paper, Scissors",1,0,"[3, 1, 1, 2, 3]","[False, False, True, False, False]","Rock, Paper, Scissors",91137,DC-5 Lottery
20ankhzq,ue1nnkeh,"Rock, Paper, Scissors",0,1,"[2, 3, 3, 2, 3]","[True, False, True, True, False]","Rock, Paper, Scissors",91131,DC-5 Lottery
20ankhzq,1n3sbswq,"Rock, Paper, Scissors",0,1,"[2, 1, 1, 3, 2]","[True, False, True, True, True]","Rock, Paper, Scissors",91151,DC-5 Lottery
20ankhzq,ng5x71ob,"Rock, Paper, Scissors",0,0,"[2, 2, 3, 1, 1]","[False, True, True, False, False]","Rock, Paper, Scissors",91136,"Rock, Paper, Scissors"
20ankhzq,wtpovxag,Guessing the Paintings,1,1,"[0, 1, 0, 1, 1]","[True, True, False, False, True]",Guessing the Paintings,91200,Guessing the Paintings
20ankhzq,cw03ieu1,"Rock, Paper, Scissors",1,0,"[1, 3, 3, 2, 2]","[False, True, False, False, False]","Rock, Paper, Scissors",91212,DC-5 Lottery
20ankhzq,m2v3gu6r,"Rock, Paper, Scissors",1,1,"[1, 1, 1, 1, 1]","[False, True, False, True, False]",DC-5 Lottery,91222,DC-5 Lottery
20ankhzq,4oquz0vb,"Rock, Paper, Scissors",0,1,"[2, 1, 3, 2, 1]","[False, True, False, True, False]",DC-5 Lottery,91133,"Rock, Paper, Scissors"
20ankhzq,y5797fgq,"Rock, Paper, Scissors",0,1,"[1, 3, 1, 1, 2]","[False, True, False, False, True]",DC-5 Lottery,91159,"Rock, Paper, Scissors"
20ankhzq,xh6p6gwq,Guessing the Paintings,1,0,"[1, 0, 0, 0, 0]","[True, False, True, False, False]",Guessing the Paintings,91209,DC-5 Lottery
20ankhzq,p7etd3ou,"Rock, Paper, Scissors",1,1,"[2, 3, 1, 2, 2]","[False, False, False, False, False]","Rock, Paper, Scissors",91150,"Rock, Paper, Scissors"
20ankhzq,1r9i8wf4,"Rock, Paper, Scissors",1,0,"[3, 3, 3, 2, 3]","[True, True, True, False, True]","Rock, Paper, Scissors",91142,"Rock, Paper, Scissors"
20ankhzq,icvhsun3,Guessing the Paintings,1,0,"[1, 0, 1, 0, 1]","[False, True, False, True, True]",Guessing the Paintings,91143,Guessing the Paintings
20ankhzq,24049vej,"Rock, Paper, Scissors",0,1,"[2, 1, 3, 1, 2]","[True, False, True, True, True]","Rock, Paper, Scissors",91149,"Rock, Paper, Scissors"
20ankhzq,2unp16ps,"Rock, Paper, Scissors",1,0,"[2, 3, 2, 1, 2]","[False, True, False, False, True]","Rock, Paper, Scissors",91237,"Rock, Paper, Scissors"
20ankhzq,gbxqcajs,Guessing the Paintings,0,1,"[1, 0, 0, 0, 0]","[True, False, True, True, False]",Guessing the Paintings,91154,Guessing the Paintings
20ankhzq,wpd7tr6g,"Rock, Paper, Scissors",0,1,"[1, 2, 1, 1, 1]","[True, True, True, True, True]","Rock, Paper, Scissors",91151,"Rock, Paper, Scissors"
20ankhzq,tege75z8,"Rock, Paper, Scissors",1,1,"[1, 2, 1, 2, 2]","[True, True, False, True, False]","Rock, Paper, Scissors",91221,"Rock, Paper, Scissors"
20ankhzq,e481jiga,Guessing the Paintings,1,1,"[1, 0, 1, 0, 1]","[True, False, True, False, False]",Guessing the Paintings,91204,Guessing the Paintings
20ankhzq,2lp54vvd,Guessing the Paintings,0,0,"[0, 0, 0, 0, 1]","[False, False, True, False, True]",Guessing the Paintings,91235,Guessing the Paintings
20ankhzq,avxmx4pp,"Rock, Paper, Scissors",0,0,"[1, 1, 2, 3, 1]","[False, True, False, True, False]",DC-5 Lottery,91617,"Rock, Paper, Scissors"
20ankhzq,p10bpe8l,"Rock, Paper, Scissors",1,1,"[1, 2, 3, 3, 1]","[True, False, True, True, False]",DC-5 Lottery,91329,DC-5 Lottery
20ankhzq,6a2exsw6,"Rock, Paper, Scissors",0,1,"[1, 3, 1, 3, 2]","[True, True, False, True, False]","Rock, Paper, Scissors",91222,DC-5 Lottery
20ankhzq,vtpvi182,"Rock, Paper, Scissors",0,1,"[1, 3, 3, 1, 3]","[False, False, True, False, True]",DC-5 Lottery,91340,DC-5 Lottery
20ankhzq,1xwqvpml,Guessing the Paintings,0,1,"[1, 1, 0, 0, 1]","[True, False, False, True, True]",DC-5 Lottery,91247,Guessing the Paintings
20ankhzq,ae5lhjq7,"Rock, Paper, Scissors",1,0,"[1, 1, 3, 3, 1]","[False, False, True, True, True]","Rock, Paper, Scissors",91229,"Rock, Paper, Scissors"
20ankhzq,r7fgp6pb,"Rock, Paper, Scissors",1,0,"[3, 2, 3, 3, 1]","[False, True, True, True, True]",DC-5 Lottery,91217,DC-5 Lottery
20ankhzq,8nxu11l6,"Rock, Paper, Scissors",1,0,"[1, 1, 2, 3, 1]","[False, True, False, False, True]","Rock, Paper, Scissors",91244,DC-5 Lottery
20ankhzq,yoy3x4j6,"Rock, Paper, Scissors",0,1,"[2, 3, 3, 1, 2]","[True, True, True, True, True]",DC-5 Lottery,91327,"Rock, Paper, Scissors"
20ankhzq,3rf5zrgq,"Rock, Paper, Scissors",0,0,"[2, 2, 1, 3, 2]","[False, False, True, True, True]","Rock, Paper, Scissors",91303,DC-5 Lottery
20ankhzq,vtvb6246,"Rock, Paper, Scissors",0,0,"[1, 3, 1, 1, 3]","[True, False, False, True, True]","Rock, Paper, Scissors",91228,DC-5 Lottery
20ankhzq,3k7xgdbk,"Rock, Paper, Scissors",0,0,"[1, 3, 1, 1, 2]","[False, True, True, False, True]",DC-5 Lottery,91243,DC-5 Lottery
20ankhzq,cyk2x4p8,"Rock, Paper, Scissors",1,0,"[3, 1, 2, 2, 2]","[True, False, False, True, False]",DC-5 Lottery,92330,"Rock, Paper, Scissors"
20ankhzq,2c8ezs5n,"Rock, Paper, Scissors",0,0,"[1, 2, 3, 3, 3]","[False, True, True, False, True]","Rock, Paper, Scissors",91333,"Rock, Paper, Scissors"
20ankhzq,q7mk9wqr,Guessing the Paintings,1,0,"[0, 1, 1, 0, 1]","[True, True, False, False, True]",Guessing the Paintings,91304,DC-5 Lottery
20ankhzq,p2oy64p0,Time,0,0,"[1, 0, 3, 2, 9]","[True, True, False, False, False]",Time,91347,DC-5 Lottery
20ankhzq,ofb66r5k,"Rock, Paper, Scissors",1,0,"[3, 1, 3, 3, 3]","[False, True, False, True, False]",DC-5 Lottery,91807,"Rock, Paper, Scissors"
20ankhzq,u2g40lw4,"Rock, Paper, Scissors",1,0,"[1, 1, 3, 3, 3]","[False, False, False, False, False]",DC-5 Lottery,91348,"Rock, Paper, Scissors"
20ankhzq,t3e5oce1,"Rock, Paper, Scissors",1,1,"[3, 3, 1, 2, 2]","[False, False, True, False, True]",DC-5 Lottery,91438,DC-5 Lottery
20ankhzq,stm70cus,"Rock, Paper, Scissors",0,0,"[3, 2, 1, 2, 1]","[False, True, False, True, True]","Rock, Paper, Scissors",91400,DC-5 Lottery
20ankhzq,vy9co76x,"Rock, Paper, Scissors",0,0,"[2, 1, 2, 3, 1]","[False, True, False, True, False]","Rock, Paper, Scissors",91347,DC-5 Lottery
20ankhzq,bvo5daca,Time,0,1,"[0, 2, 5, 2, 7]","[False, True, False, True, False]",DC-5 Lottery,91253,DC-5 Lottery
20ankhzq,ezh5qznt,"Rock, Paper, Scissors",0,0,"[2, 3, 3, 3, 1]","[False, True, False, True, True]","Rock, Paper, Scissors",91258,"Rock, Paper, Scissors"
20ankhzq,2pkya2wk,Guessing the Paintings,0,0,"[0, 0, 1, 1, 0]","[True, True, False, True, False]",Guessing the Paintings,91454,Guessing the Paintings
20ankhzq,28aa8tn1,"Rock, Paper, Scissors",0,0,"[2, 2, 2, 2, 1]","[True, True, False, True, False]",DC-5 Lottery,91301,DC-5 Lottery
20ankhzq,gxilhgmb,Guessing the Paintings,0,1,"[1, 0, 1, 1, 0]","[True, False, False, True, True]",DC-5 Lottery,91308,Guessing the Paintings
20ankhzq,uuatxx0d,Guessing the Paintings,1,1,"[1, 0, 0, 1, 1]","[True, False, False, True, True]",Guessing the Paintings,91323,DC-5 Lottery
20ankhzq,ojpgmynu,Time,0,1,"[1, 1, 2, 4, 6]","[True, False, True, True, False]",DC-5 Lottery,91404,DC-5 Lottery
20ankhzq,6cmzt8rn,"Rock, Paper, Scissors",1,0,"[2, 2, 1, 2, 2]","[True, True, False, True, True]","Rock, Paper, Scissors",91425,DC-5 Lottery
20ankhzq,kh1khks4,Guessing the Paintings,1,0,"[0, 0, 0, 1, 1]","[True, False, False, False, True]",Guessing the Paintings,91336,DC-5 Lottery
20ankhzq,px9v3x8x,"Rock, Paper, Scissors",0,1,"[1, 3, 3, 3, 2]","[True, True, False, False, True]","Rock, Paper, Scissors",91337,"Rock, Paper, Scissors"
20ankhzq,tczw4jqg,Time,1,1,"[2, 5, 0, 0, 0]","[False, False, True, True, False]",Time,91545,DC-5 Lottery
20ankhzq,h58ils8h,Time,1,0,"[1, 1, 3, 1, 5]","[False, True, False, False, True]",Time,91535,Time
20ankhzq,jchijwwt,Guessing the Paintings,1,0,"[1, 1, 1, 1, 0]","[True, True, False, True, True]",Guessing the Paintings,92017,Guessing the Paintings
20ankhzq,5vqsoei7,Guessing the Paintings,1,0,"[0, 0, 0, 0, 0]","[True, False, True, True, True]",DC-5 Lottery,91319,Guessing the Paintings
20ankhzq,7vk5vpt6,Guessing the Paintings,0,1,"[0, 0, 1, 1, 0]","[False, True, True, False, True]",DC-5 Lottery,91523,Guessing the Paintings
20ankhzq,p11q1uu3,Time,0,1,"[1, 3, 7, 5, 9]","[False, True, False, False, True]",Time,91431,DC-5 Lottery
20ankhzq,rtf80vy7,Guessing the Paintings,0,0,"[1, 0, 1, 1, 1]","[False, False, True, False, False]",DC-5 Lottery,91548,DC-5 Lottery
20ankhzq,dhbc69qr,"Rock, Paper, Scissors",0,0,"[3, 3, 2, 1, 2]","[False, True, True, False, False]","Rock, Paper, Scissors",92247,"Rock, Paper, Scissors"
20ankhzq,rsgexwtz,"Rock, Paper, Scissors",0,0,"[3, 1, 1, 3, 3]","[True, True, True, True, True]",,91325,
20ankhzq,tyl452q3,"Rock, Paper, Scissors",1,0,"[1, 1, 1, 3, 2]","[True, False, False, False, True]",DC-5 Lottery,91329,DC-5 Lottery
20ankhzq,dw8n2276,"Rock, Paper, Scissors",0,0,"[1, 1, 2, 1, 3]","[False, False, True, True, True]","Rock, Paper, Scissors",92041,"Rock, Paper, Scissors"
20ankhzq,15hbyd6x,"Rock, Paper, Scissors",0,0,"[2, 2, 3, 1, 2]","[False, False, False, False, True]","Rock, Paper, Scissors",91357,"Rock, Paper, Scissors"
20ankhzq,l9nk7i30,Time,0,0,"[7, 2, 5, 4, 4]","[False, True, False, True, True]",Time,91448,Time
20ankhzq,xf7rn3yr,Time,1,0,"[5, 0, 6, 2, 0]","[True, True, True, True, True]",Time,91329,DC-5 Lottery
20ankhzq,w8vci9g0,Time,1,0,"[2, 5, 0, 1, 0]","[False, False, False, False, False]",DC-5 Lottery,91428,Time
20ankhzq,gyznv3lk,Time,1,1,"[0, 2, 6, 3, 1]","[True, True, False, False, True]",Time,91352,Time
20ankhzq,gfg9zfjh,"Rock, Paper, Scissors",0,0,"[3, 2, 3, 2, 1]","[False, True, False, False, False]","Rock, Paper, Scissors",91342,"Rock, Paper, Scissors"
20ankhzq,fegaxna3,"Rock, Paper, Scissors",1,0,"[3, 2, 2, 3, 1]","[False, True, True, True, False]",DC-5 Lottery,91355,DC-5 Lottery
20ankhzq,7x0m8ud8,Guessing the Paintings,1,0,"[1, 1, 0, 1, 0]","[False, False, False, False, False]",Guessing the Paintings,91357,DC-5 Lottery
20ankhzq,p04n6anz,"Rock, Paper, Scissors",0,1,"[2, 3, 2, 1, 2]","[True, False, True, False, True]","Rock, Paper, Scissors",91349,DC-5 Lottery
20ankhzq,zs632ue4,Guessing the Paintings,1,1,"[1, 1, 0, 0, 0]","[True, False, True, False, True]",DC-5 Lottery,91352,DC-5 Lottery
20ankhzq,il1pf9bc,Time,1,1,"[3, 2, 0, 4, 5]","[False, True, False, True, False]",DC-5 Lottery,91407,DC-5 Lottery
20ankhzq,c8alwbko,Guessing the Paintings,0,1,"[1, 0, 1, 0, 1]","[True, True, True, False, False]",DC-5 Lottery,91402,DC-5 Lottery
20ankhzq,ublzltep,Guessing the Paintings,1,1,"[1, 1, 1, 1, 1]","[True, True, True, True, True]",Guessing the Paintings,91603,DC-5 Lottery
20ankhzq,p24zcds2,"Rock, Paper, Scissors",0,1,"[3, 1, 3, 1, 2]","[False, False, True, False, True]",DC-5 Lottery,91442,"Rock, Paper, Scissors"
20ankhzq,pizo4dji,Time,1,0,"[1, 3, 5, 4, 5]","[False, True, False, True, True]",Time,91547,Time
20ankhzq,202ltp0f,"Rock, Paper, Scissors",1,0,"[3, 1, 2, 2, 1]","[False, False, False, True, False]",DC-5 Lottery,91823,"Rock, Paper, Scissors"
20ankhzq,qqk8yxej,"Rock, Paper, Scissors",1,0,"[2, 2, 1, 2, 2]","[False, True, False, False, True]","Rock, Paper, Scissors",91430,"Rock, Paper, Scissors"
20ankhzq,2aro5g55,Guessing the Paintings,1,0,"[1, 0, 1, 1, 0]","[False, True, False, False, True]",Guessing the Paintings,91451,Guessing the Paintings
20ankhzq,y0r1n4k9,"Rock, Paper, Scissors",1,1,"[1, 3, 2, 2, 1]","[True, False, True, False, True]",DC-5 Lottery,91536,"Rock, Paper, Scissors"
20ankhzq,785dzjae,"Rock, Paper, Scissors",1,0,"[3, 3, 1, 2, 1]","[False, True, True, True, True]",DC-5 Lottery,91501,DC-5 Lottery
20ankhzq,v2tfwm77,Guessing the Paintings,0,0,"[1, 1, 0, 0, 0]","[False, False, True, False, True]",Guessing the Paintings,91550,DC-5 Lottery
20ankhzq,612e9col,Guessing the Paintings,0,1,"[1, 0, 1, 0, 1]","[True, True, False, False, False]",Guessing the Paintings,91538,Guessing the Paintings
20ankhzq,i1sq0un4,"Rock, Paper, Scissors",0,0,"[3, 3, 2, 1, 1]","[True, False, True, False, True]","Rock, Paper, Scissors",91512,"Rock, Paper, Scissors"
20ankhzq,ut70o8gj,Time,0,1,"[0, 0, 7, 0, 7]","[True, True, True, True, True]",Time,91509,DC-5 Lottery
20ankhzq,kps8gvp0,"Rock, Paper, Scissors",1,0,"[2, 1, 1, 3, 1]","[False, True, False, False, True]","Rock, Paper, Scissors",93434,"Rock, Paper, Scissors"
20ankhzq,6xq9fko1,"Rock, Paper, Scissors",0,1,"[3, 3, 1, 1, 1]","[True, True, False, True, False]","Rock, Paper, Scissors",94914,DC-5 Lottery
20ankhzq,evqrs7ey,Guessing the Paintings,1,1,"[0, 0, 0, 0, 1]","[True, False, False, False, False]",Guessing the Paintings,91547,Guessing the Paintings
20ankhzq,pvxd7dhu,Guessing the Paintings,1,0,"[1, 0, 0, 0, 0]","[False, True, False, True, True]",Guessing the Paintings,91515,DC-5 Lottery
20ankhzq,4bi8rrxz,Guessing the Paintings,0,1,"[1, 0, 0, 0, 1]","[False, True, False, True, False]",Guessing the Paintings,91528,Guessing the Paintings
20ankhzq,g9c0vk7f,"Rock, Paper, Scissors",0,0,"[3, 3, 2, 3, 2]","[True, False, False, True, True]","Rock, Paper, Scissors",91752,DC-5 Lottery
20ankhzq,0qtis8o8,"Rock, Paper, Scissors",0,0,"[1, 2, 3, 3, 3]","[True, False, False, False, False]",DC-5 Lottery,91521,DC-5 Lottery
20ankhzq,in123el2,Guessing the Paintings,1,0,"[0, 0, 1, 0, 0]","[False, True, False, True, False]",DC-5 Lottery,91558,DC-5 Lottery
20ankhzq,9upmt651,"Rock, Paper, Scissors",1,1,"[2, 1, 2, 3, 2]","[True, True, False, True, True]","Rock, Paper, Scissors",91631,DC-5 Lottery
20ankhzq,ppn1cqlr,Guessing the Paintings,1,0,"[0, 0, 0, 1, 0]","[False, False, True, False, True]",DC-5 Lottery,93011,DC-5 Lottery
20ankhzq,dchppmlh,Time,0,0,"[1, 4, 2, 1, 7]","[False, False, True, False, False]",DC-5 Lottery,91748,DC-5 Lottery
20ankhzq,kyu8aq7c,"Rock, Paper, Scissors",0,1,"[2, 2, 2, 1, 3]","[True, False, True, False, True]","Rock, Paper, Scissors",91546,DC-5 Lottery
20ankhzq,7cmftyu0,Time,0,0,"[3, 2, 6, 3, 1]","[False, True, True, False, False]",Time,91550,Time
20ankhzq,gf7z4fux,"Rock, Paper, Scissors",0,1,"[2, 2, 2, 1, 2]","[True, True, False, False, True]",DC-5 Lottery,91612,DC-5 Lottery
20ankhzq,b0x3kij1,"Rock, Paper, Scissors",0,0,"[2, 1, 1, 3, 1]","[True, False, False, False, True]",DC-5 Lottery,91619,DC-5 Lottery
20ankhzq,vxxi87yb,"Rock, Paper, Scissors",1,1,"[3, 1, 2, 2, 2]","[True, False, True, False, True]","Rock, Paper, Scissors",91604,"Rock, Paper, Scissors"
20ankhzq,fuq7wxf8,"Rock, Paper, Scissors",1,1,"[1, 2, 1, 3, 2]","[True, False, True, False, False]","Rock, Paper, Scissors",91628,"Rock, Paper, Scissors"
20ankhzq,h01d3n7x,"Rock, Paper, Scissors",1,1,"[1, 3, 1, 1, 3]","[True, True, True, True, True]",DC-5 Lottery,91620,"Rock, Paper, Scissors"
20ankhzq,axvnkapx,Guessing the Paintings,0,0,"[1, 0, 0, 0, 1]","[False, False, True, False, False]",DC-5 Lottery,91645,Guessing the Paintings
20ankhzq,m4mn5cx6,"Rock, Paper, Scissors",1,1,"[2, 1, 3, 1, 3]","[True, True, False, True, True]","Rock, Paper, Scissors",91629,"Rock, Paper, Scissors"
20ankhzq,y4o7v2m6,Time,0,1,"[3, 4, 6, 2, 3]","[True, True, True, True, True]",DC-5 Lottery,91656,DC-5 Lottery
20ankhzq,5dddb0ii,"Rock, Paper, Scissors",0,1,"[1, 3, 1, 3, 1]","[False, True, True, True, True]",DC-5 Lottery,91637,DC-5 Lottery
20ankhzq,n9tktbfb,Time,1,0,"[0, 1, 2, 1, 3]","[True, False, False, True, False]",DC-5 Lottery,91737,Time
20ankhzq,1xglqy7j,"Rock, Paper, Scissors",0,0,"[1, 2, 3, 1, 1]","[True, False, True, False, False]","Rock, Paper, Scissors",91650,DC-5 Lottery
20ankhzq,bzv8cwxo,Time,1,1,"[1, 2, 6, 5, 2]","[False, True, True, False, False]",DC-5 Lottery,91755,DC-5 Lottery
20ankhzq,uhcdlgm0,Guessing the Paintings,1,1,"[0, 0, 0, 0, 1]","[True, True, False, True, True]",Guessing the Paintings,91800,DC-5 Lottery
20ankhzq,ezd8vchw,"Rock, Paper, Scissors",1,1,"[3, 1, 1, 3, 3]","[True, True, False, True, False]","Rock, Paper, Scissors",91704,"Rock, Paper, Scissors"
20ankhzq,mg81yq66,"Rock, Paper, Scissors",1,1,"[1, 3, 1, 2, 2]","[False, True, True, True, True]","Rock, Paper, Scissors",91657,"Rock, Paper, Scissors"
20ankhzq,jtie2cox,Time,1,0,"[5, 2, 0, 3, 0]","[False, False, True, False, True]",DC-5 Lottery,91656,Time
20ankhzq,4g78aba1,"Rock, Paper, Scissors",0,1,"[3, 3, 1, 1, 3]","[True, True, False, False, True]","Rock, Paper, Scissors",92037,DC-5 Lottery
20ankhzq,5ctmhqpe,"Rock, Paper, Scissors",1,0,"[3, 1, 2, 1, 2]","[True, True, False, True, True]","Rock, Paper, Scissors",91708,"Rock, Paper, Scissors"
20ankhzq,wluzqca9,"Rock, Paper, Scissors",1,1,"[2, 1, 3, 1, 1]","[True, False, False, False, True]","Rock, Paper, Scissors",91722,DC-5 Lottery
20ankhzq,4spj653c,Time,1,0,"[0, 2, 6, 3, 1]","[True, False, True, True, True]",DC-5 Lottery,91714,Time
20ankhzq,y6npe12w,"Rock, Paper, Scissors",0,1,"[3, 3, 3, 3, 3]","[True, True, False, False, False]",DC-5 Lottery,91914,DC-5 Lottery
20ankhzq,9te33iq9,"Rock, Paper, Scissors",0,1,"[3, 3, 3, 2, 1]","[True, True, False, False, False]",DC-5 Lottery,91724,DC-5 Lottery
20ankhzq,3xfnaicq,Guessing the Paintings,1,1,"[0, 1, 0, 1, 0]","[False, False, False, False, True]",DC-5 Lottery,91740,Guessing the Paintings
20ankhzq,dkvy6zo6,Guessing the Paintings,1,1,"[0, 1, 1, 0, 0]","[True, True, False, True, False]",Guessing the Paintings,91834,Guessing the Paintings
20ankhzq,rxfupnba,"Rock, Paper, Scissors",0,0,"[2, 3, 2, 2, 1]","[False, True, False, False, False]",DC-5 Lottery,91725,"Rock, Paper, Scissors"
20ankhzq,i494qsid,Time,0,0,,"[False, True, True, True, False]",,91731,
20ankhzq,bc3ladrf,Time,1,1,"[0, 2, 6, 3, 1]","[True, True, True, False, True]",Time,91730,DC-5 Lottery
20ankhzq,f6ewh4wo,Guessing the Paintings,0,0,"[1, 1, 0, 1, 1]","[True, True, False, False, True]",Guessing the Paintings,91745,DC-5 Lottery
20ankhzq,qvtz2j5e,Guessing the Paintings,0,0,"[0, 0, 1, 0, 1]","[True, True, False, True, False]",DC-5 Lottery,91817,Guessing the Paintings
20ankhzq,76bslie7,"Rock, Paper, Scissors",0,1,"[1, 1, 3, 3, 3]","[True, True, False, False, False]",DC-5 Lottery,91903,"Rock, Paper, Scissors"
20ankhzq,tdpt8cdy,"Rock, Paper, Scissors",0,0,"[2, 1, 3, 1, 1]","[True, False, True, True, True]","Rock, Paper, Scissors",91732,DC-5 Lottery
20ankhzq,j4z0t5o9,"Rock, Paper, Scissors",0,0,"[2, 1, 2, 1, 3]","[True, False, True, True, True]","Rock, Paper, Scissors",91743,DC-5 Lottery
20ankhzq,8o1tj83j,Guessing the Paintings,1,0,"[1, 0, 0, 0, 1]","[False, False, False, False, True]",Guessing the Paintings,91748,DC-5 Lottery
20ankhzq,m0jingp3,Guessing the Paintings,1,1,"[0, 0, 0, 0, 1]","[True, False, False, True, True]",DC-5 Lottery,91814,Guessing the Paintings
20ankhzq,eer4e0v9,Time,0,0,"[0, 2, 6, 3, 1]","[False, False, True, True, True]",DC-5 Lottery,91904,Time
20ankhzq,sa8sqkp0,Time,1,1,"[5, 4, 0, 1, 9]","[True, True, False, False, True]",DC-5 Lottery,91857,DC-5 Lottery
20ankhzq,ynn32hsq,Time,0,1,"[7, 2, 0, 1, 1]","[False, True, True, False, False]",Time,91851,Time
20ankhzq,21mt89zm,Guessing the Paintings,0,1,"[1, 1, 0, 1, 1]","[True, False, True, False, True]",DC-5 Lottery,91907,Guessing the Paintings
