participant_id_in_session,participant_code,participant_label,participant_is_bot,participant_index_in_pages,participant_max_page_index,participant_current_app_name,participant_current_page_name,participant_time_started,participant_visited,participant_payoff,participant_payoff_plus_participation_fee,session_code,session_label,session_experimenter_name,session_comment,session_is_demo,session_config_real_world_currency_per_point,session_config_participation_fee,survey_1_player_id_in_group,survey_1_player_age,survey_1_player_gender_rev,survey_1_player_gender,survey_1_player_employment,survey_1_player_region,survey_1_player_rps_round1,survey_1_player_rps_round2,survey_1_player_rps_round3,survey_1_player_rps_round4,survey_1_player_rps_round5,survey_1_player_start_time,survey_1_player_total_time,survey_1_player_probability,survey_1_player_score,survey_1_player_ct_round1,survey_1_player_ct_round2,survey_1_player_ct_round3,survey_1_player_ct_round4,survey_1_player_ct_round5,survey_1_player_rps_first,survey_1_player_mechanism_rev,survey_1_player_mechanism,survey_1_player_mechanism_winner,survey_1_player_rps_belief,survey_1_player_ct_belief,survey_1_player_rps_belief_first,survey_1_player_belief1_winner,survey_1_player_belief2_winner,survey_1_player_belief_example1,survey_1_player_belief_example2,survey_1_player_belief_example3,survey_1_player_reasons,survey_1_player_payoff,survey_1_group_id_in_subsession,survey_1_subsession_round_number
1,4nc9hasn,,0,8,8,survey,Feedback,2020-05-13 15:43:57.750061+00:00,1,0.0,0.4,2z15ak7z,,,,0,1,0.4,1,25-40,1,Male,Employed,USA,Rock,Rock,Paper,Scissors,Rock,1.5893846495808399e9,37,0.48,-0.1056,Tail,Tail,Head,Head,Head,1,0,"Rock, Paper, Scissors",0,1.28,0.57,1,0,0,3.73,-1.35,-0.58,I feel that it is less random than a coin toss.,0.0,1,1
2,djckiwe7,,0,7,8,survey,Demographics,2020-05-13 15:44:31.876678+00:00,1,0.05,0.45,2z15ak7z,,,,0,1,0.4,2,,0,,,,Rock,Paper,Rock,Rock,Scissors,1.5893846897306757e9,35,0.4652,-0.1212,Head,Tail,Head,Head,Tail,0,0,Coin Toss,0,2.0,0.0,1,0,1,1.84,-2.0,2.04,there is a 1/2 chance to win that game but the rock paper scissors game there is 1/3 chance to win.,0.05,1,1
3,hbkdtyxv,,0,8,8,survey,Feedback,2020-05-13 15:44:50.638154+00:00,1,0.05,0.45,2z15ak7z,,,,0,1,0.4,3,25-40,0,Male,Employed,United States,Rock,Rock,Rock,Rock,Rock,1.589384704170731e9,26,0.4612,-0.1284,Tail,Tail,Tail,Tail,Tail,1,0,"Rock, Paper, Scissors",0,0.0,0.0,0,1,0,3.88,-0.1,3.97,"Honestly, I just chose one because I liked it better",0.05,1,1
4,e6qwvauf,,0,8,8,survey,Feedback,2020-05-13 15:44:55.138945+00:00,1,0.4,0.8,2z15ak7z,,,,0,1,0.4,4,25-40,1,Male,Employed,USA,Paper,Paper,Scissors,Scissors,Rock,1.5893847042684002e9,11,0.5112,0.018,Head,Head,Head,Tail,Tail,0,0,"Rock, Paper, Scissors",1,1.2,2.0,0,0,0,1.54,-4.63,1.68,A gut feeling,0.4,1,1
5,sy5j6l2j,,0,7,8,survey,Demographics,2020-05-13 15:45:43.213044+00:00,1,0.0,0.4,2z15ak7z,,,,0,1,0.4,5,,1,,,,Paper,Rock,Paper,Paper,Rock,1.589384746608688e9,12,0.536,0.1308,Head,Tail,Head,Tail,Head,1,0,"Rock, Paper, Scissors",0,2.0,1.0,1,0,0,4.49,-1.37,4.52," If you get stuck on one question, move on to others and come back to the difficult question",0.0,1,1
6,d2hb6l3a,,0,3,8,survey,Mechanism,2020-05-13 15:45:45.904048+00:00,1,0.0,0.4,2z15ak7z,,,,0,1,0.4,6,,1,,,,Paper,Rock,Rock,Rock,Paper,1.589384759292232e9,80,0.542,0.0668,Head,Head,Tail,Head,Head,0,1,,0,,,0,0,0,4.1,-4.85,-4.66,,0.0,1,1
7,3bj4uahp,,0,8,8,survey,Feedback,2020-05-13 15:46:44.048149+00:00,1,0.4,0.8,2z15ak7z,,,,0,1,0.4,7,25-40,0,Male,Self-employed,Czech Republic,Rock,Scissors,Rock,Scissors,Paper,1.5893848351865134e9,80,0.4684,-0.1144,Head,Head,Head,Head,Tail,0,1,Coin Toss,1,1.0,2.0,0,0,0,0.66,-0.38,4.56,50 % chance to win,0.4,1,1
8,62rk16i9,,0,1,8,survey,Welcome,2020-05-13 15:48:46.169471+00:00,1,0.0,0.4,2z15ak7z,,,,0,1,0.4,8,,1,,,,,,,,,0.0,0,0.5,0.0,,,,,,0,0,,0,,,0,0,0,3.71,-0.92,-1.97,,0.0,1,1
9,euykr9mo,,0,8,8,survey,Feedback,2020-05-13 15:49:54.145204+00:00,1,0.4,0.8,2z15ak7z,,,,0,1,0.4,9,25-40,1,Female,Self-employed,Italy,Rock,Scissors,Paper,Rock,Scissors,1.5893850182456968e9,115,0.478,-0.04,Head,Head,Head,Tail,Tail,0,0,"Rock, Paper, Scissors",1,2.5,3.0,0,0,0,3.67,-0.46,-1.13,"I am more familiar with this game, it reminds me of when I was a child, such a sweet time it was.",0.4,1,1
10,hnmuh9vo,,0,8,8,survey,Feedback,2020-05-13 15:52:39.453133+00:00,1,0.4,0.8,2z15ak7z,,,,0,1,0.4,10,40-55,1,Female,Other,United States,Paper,Rock,Scissors,Paper,Rock,1.5893851736444442e9,51,0.5208,0.0724,Head,Head,Tail,Tail,Head,1,1,Coin Toss,1,0.43,1.34,0,0,0,1.51,-2.26,-0.63,I just felt like I had better odds.,0.4,1,1
11,pasehxei,,0,8,8,survey,Feedback,2020-05-13 15:58:46.752495+00:00,1,0.0,0.4,2z15ak7z,,,,0,1,0.4,11,25-40,0,Female,Employed,India,Rock,Rock,Rock,Rock,Scissors,1.5893855381544838e9,28,0.476,-0.1312,Head,Head,Head,Head,Tail,0,0,"Rock, Paper, Scissors",0,2.65,3.0,0,0,0,3.56,-4.25,-2.03,Most of the time all choose sissors,0.0,1,1
12,ntumqztk,,0,8,8,survey,Feedback,2020-05-13 15:58:47.984262+00:00,1,0.4,0.8,2z15ak7z,,,,0,1,0.4,12,25-40,1,Male,Employed,USA,Rock,Paper,Paper,Paper,Paper,1.5893855304026508e9,9,0.4784,-0.008,Tail,Head,Head,Head,Head,1,0,Coin Toss,1,1.0,1.0,1,0,0,1.28,-0.11,-2.41,not sure,0.4,1,1
13,b3gd8elb,,0,8,8,survey,Feedback,2020-05-13 15:59:19.257988+00:00,1,0.0,0.4,2z15ak7z,,,,0,1,0.4,13,<25,0,Male,Employed,USA,Scissors,Paper,Scissors,Rock,Paper,1.5893856032374024e9,66,0.5052,0.0096,Tail,Tail,Head,Tail,Head,1,0,Coin Toss,0,1.0,4.0,1,0,0,4.64,-4.18,-0.12,better odds if you ask me,0.0,1,1
14,wov081zy,,0,8,8,survey,Feedback,2020-05-13 16:00:46.142963+00:00,1,0.0,0.4,2z15ak7z,,,,0,1,0.4,14,25-40,0,Female,Self-employed,india,Scissors,Rock,Paper,Paper,Scissors,1.5893856502728038e9,649,0.5096,0.0576,Head,Tail,Head,Head,Tail,0,0,"Rock, Paper, Scissors",0,5.0,5.0,0,0,0,3.98,-2.55,0.59,interest,0.0,1,1
15,t9qelpls,,0,8,8,survey,Feedback,2020-05-13 16:08:37.894215+00:00,1,0.05,0.45,2z15ak7z,,,,0,1,0.4,15,25-40,1,Female,Employed,USA,Paper,Rock,Scissors,Paper,Scissors,1.589386132003227e9,44,0.526,0.0696,Head,Head,Head,Head,Head,0,1,Coin Toss,0,-1.0,0.0,1,0,1,4.53,-1.6,1.34,I thought I had a better chance with it,0.05,1,1
16,lpz6iumy,,0,8,8,survey,Feedback,2020-05-13 16:09:53.728938+00:00,1,0.4,0.8,2z15ak7z,,,,0,1,0.4,16,25-40,0,Male,Employed,USA,Paper,Rock,Rock,Scissors,Scissors,1.5893862194847348e9,149,0.514,0.002,Head,Head,Head,Tail,Head,0,0,Coin Toss,1,3.0,1.0,1,0,0,1.02,-0.08,-1.01,Just an educational guess,0.4,1,1
17,c2avqkdj,,0,8,8,survey,Feedback,2020-05-13 16:10:33.546097+00:00,1,0.0,0.4,2z15ak7z,,,,0,1,0.4,17,25-40,1,Male,Employed,USA,Rock,Paper,Rock,Paper,Paper,1.5893862404528608e9,27,0.4792,-0.0696,Head,Head,Head,Tail,Head,1,1,"Rock, Paper, Scissors",0,4.0,3.0,1,0,0,2.07,-1.48,-2.13,Because it is very benefit to me.,0.0,1,1
18,gx1rw95f,,0,6,8,survey,Decisions,2020-05-13 16:12:48.280885+00:00,1,0.4,0.8,2z15ak7z,,,,0,1,0.4,18,,0,,,,Paper,Scissors,Rock,Paper,Paper,1.589386379659766e9,5099,0.5232,0.122,Head,Tail,Head,Head,Head,0,1,"Rock, Paper, Scissors",1,4.0,3.2,1,0,0,4.03,-2.59,1.52,,0.4,1,1
19,0qc1e9ud,,0,8,8,survey,Feedback,2020-05-13 16:13:45.702096+00:00,1,0.4,0.8,2z15ak7z,,,,0,1,0.4,19,25-40,0,Male,Employed,USA,Rock,Scissors,Paper,Scissors,Rock,1.5893864394400568e9,328,0.48,-0.076,Tail,Tail,Tail,Tail,Tail,1,1,Coin Toss,1,1.0,3.0,0,0,0,3.99,-0.26,-3.74,Better odds for me,0.4,1,1
20,7llui7e9,,0,8,8,survey,Feedback,2020-05-13 16:23:42.575654+00:00,1,0.4,0.8,2z15ak7z,,,,0,1,0.4,20,25-40,0,Male,Employed,USA,Rock,Paper,Rock,Scissors,Rock,1.5893870262168329e9,41,0.4536,-0.1572,Tail,Tail,Tail,Tail,Tail,1,1,Coin Toss,1,-5.0,0.2,0,0,0,0.94,-1.53,4.43,There are better odds with the coin toss,0.4,1,1
21,y4z9bwqo,,0,8,8,survey,Feedback,2020-05-13 16:33:01.810962+00:00,1,0.05,0.45,2z15ak7z,,,,0,1,0.4,21,25-40,1,Male,Other,usa,Rock,Rock,Rock,Rock,Rock,1.5893875864642518e9,24,0.4612,-0.1284,Head,Head,Head,Head,Head,1,0,Coin Toss,0,0.0,0.0,1,0,1,4.89,-1.94,0.14,50/50 is greater chance than 1/3,0.05,1,1
22,19p96wtw,,0,8,8,survey,Feedback,2020-05-13 16:45:44.653621+00:00,1,0.0,0.4,2z15ak7z,,,,0,1,0.4,22,25-40,1,Male,Employed,India,Paper,Rock,Scissors,Rock,Paper,1.5893883942658215e9,156,0.5244,0.07,Head,Head,Tail,Head,Tail,1,0,"Rock, Paper, Scissors",0,3.0,3.5,0,0,0,4.54,-2.02,0.61,coin toss isn't any fun to play. RPS game brought me back to my childhood. I used to play it a lot. thats the main reason.,0.0,1,1
23,v88fje40,,0,1,8,survey,Welcome,2020-05-13 17:13:25.025233+00:00,1,0.0,0.4,2z15ak7z,,,,0,1,0.4,23,,1,,,,,,,,,0.0,0,0.5,0.0,,,,,,1,0,,0,,,1,0,0,0.79,-3.51,-1.23,,0.0,1,1
24,5f5ienvr,,0,8,8,survey,Feedback,2020-05-13 17:18:36.415611+00:00,1,0.0,0.4,2z15ak7z,,,,0,1,0.4,24,25-40,0,Male,Employed,United States,Scissors,Paper,Paper,Rock,Scissors,1.589390327661749e9,120,0.5152,0.042,Tail,Head,Head,Tail,Head,1,0,"Rock, Paper, Scissors",0,1.25,1.1,1,0,0,1.21,-1.99,3.41,"I chose Rock, Paper, Scissors to get my reward because I felt more confident I would earn more choosing this option.",0.0,1,1
25,vysarnwx,,0,8,8,survey,Feedback,2020-05-13 17:23:59.862507+00:00,1,0.05,0.45,2z15ak7z,,,,0,1,0.4,25,25-40,1,Male,Employed,USA,Scissors,Paper,Paper,Paper,Rock,1.5893906448251076e9,106,0.522,0.0704,Tail,Tail,Tail,Tail,Tail,1,0,Coin Toss,0,0.47,0.09,1,0,1,1.27,-0.66,2.89,I like choosing tails,0.05,1,1
26,szfrmoni,,0,8,8,survey,Feedback,2020-05-13 17:25:41.319991+00:00,1,0.4,0.8,2z15ak7z,,,,0,1,0.4,26,25-40,0,Female,Self-employed,usa,Rock,Rock,Paper,Paper,Scissors,1.5893907686051824e9,85,0.4756,-0.044,Head,Tail,Tail,Tail,Tail,1,1,"Rock, Paper, Scissors",1,5.0,2.0,0,0,0,1.22,-4.2,0.33,intuition,0.4,1,1
27,xpb9bptu,,0,8,8,survey,Feedback,2020-05-13 17:28:16.748329+00:00,1,0.0,0.4,2z15ak7z,,,,0,1,0.4,27,25-40,1,Male,Self-employed,India,Paper,Paper,Paper,Scissors,Paper,1.5893909270196102e9,59,0.524,0.0996,Head,Head,Head,Head,Tail,1,0,Coin Toss,0,2.03,1.24,0,0,0,3.64,-1.09,-3.97,I thought there is better chance in winning here. Playing with computer feels safer too.,0.0,1,1
28,lkyjywmu,,0,8,8,survey,Feedback,2020-05-13 17:28:17.746392+00:00,1,0.0,0.4,2z15ak7z,,,,0,1,0.4,28,25-40,0,Male,Employed,USA,Scissors,Paper,Rock,Paper,Scissors,1.5893909010929127e9,136,0.5164,0.006,Head,Tail,Head,Tail,Head,1,1,Coin Toss,0,4.0,2.0,0,0,0,0.86,-3.62,-1.65,"I think the Coin Toss gives me a better chance to earn more points because it relies on luck more than the Rock, Paper, Scissor game.",0.0,1,1
29,1r9ivv6r,,0,8,8,survey,Feedback,2020-05-13 17:28:27.717074+00:00,1,0.0,0.4,2z15ak7z,,,,0,1,0.4,29,>55,0,Male,Self-employed,california,Paper,Paper,Paper,Scissors,Rock,1.589390910698551e9,37,0.514,0.0764,Head,Tail,Tail,Tail,Tail,1,1,Coin Toss,0,3.0,5.0,0,0,0,4.56,-2.93,3.43,because i thought i can,0.0,1,1
30,cstjilqh,,0,8,8,survey,Feedback,2020-05-13 17:31:19.925586+00:00,1,0.0,0.4,2z15ak7z,,,,0,1,0.4,30,25-40,1,Male,Employed,EUA,Scissors,Paper,Scissors,Rock,Paper,1.5893911311535587e9,64,0.5052,0.0096,Tail,Head,Head,Head,Tail,1,1,"Rock, Paper, Scissors",0,3.0,2.0,1,0,0,1.52,-2.93,-4.74,for the odds the game offered me.,0.0,1,1
31,cypnbiio,,0,8,8,survey,Feedback,2020-05-13 17:42:24.655090+00:00,1,0.4,0.8,2z15ak7z,,,,0,1,0.4,31,25-40,1,Female,Employed,USA,Rock,Paper,Paper,Rock,Scissors,1.5893917942070026e9,131,0.4732,-0.0596,Head,Head,Tail,Head,Head,0,0,Coin Toss,1,3.0,3.5,0,0,0,2.73,-3.91,0.29,"it has only 2 options that is either head or tail, so selected coin toss to get the reward",0.4,1,1
32,uqy208uu,,0,8,8,survey,Feedback,2020-05-13 17:45:09.465904+00:00,1,0.0,0.4,2z15ak7z,,,,0,1,0.4,32,<25,0,Male,Student,USA,Rock,Paper,Paper,Scissors,Paper,1.5893919121661968e9,16,0.4808,-0.0724,Head,Head,Tail,Tail,Head,1,0,Coin Toss,0,1.2,2.0,0,0,0,1.89,-4.49,0.9,I think I have a better chance to win,0.0,1,1
33,ywklkltv,,0,8,8,survey,Feedback,2020-05-13 17:45:44.074322+00:00,1,0.0,0.4,2z15ak7z,,,,0,1,0.4,33,25-40,1,Male,Employed,Germany,Rock,Rock,Paper,Paper,Scissors,1.5893919839505296e9,122,0.4804,-0.044,Tail,Head,Tail,Head,Tail,1,0,Coin Toss,0,2.5,2.5,1,0,0,4.74,-2.65,2.03,I chose it because it has two outcomes and it is drawn randomly so I have an equal chance of winning.,0.0,1,1
34,zlmhlzp6,,0,8,8,survey,Feedback,2020-05-13 17:47:50.800309+00:00,1,0.4,0.8,2z15ak7z,,,,0,1,0.4,34,25-40,1,Male,Employed,United states,Paper,Rock,Scissors,Scissors,Rock,1.589392085456649e9,46,0.5136,0.008,Head,Head,Head,Tail,Head,0,1,Coin Toss,1,4.2,4.5,0,0,0,2.03,-0.13,0.0,I choose that out of mind decision,0.4,1,1
35,j21mn51q,,0,8,8,survey,Feedback,2020-05-13 17:49:20.319131+00:00,1,0.0,0.4,2z15ak7z,,,,0,1,0.4,35,25-40,0,Female,Employed,India,Rock,Rock,Scissors,Rock,Paper,1.5893921827204232e9,75,0.4568,-0.102,Head,Tail,Tail,Head,Head,1,1,Coin Toss,0,1.43,3.0,1,0,0,1.43,-1.02,-0.71,I like toss games,0.0,1,1
36,fqxg5jsd,,0,8,8,survey,Feedback,2020-05-13 17:56:42.581710+00:00,1,0.4,0.8,2z15ak7z,,,,0,1,0.4,36,25-40,1,Female,Self-employed,USA,Paper,Rock,Scissors,Paper,Rock,1.5893926358893843e9,52,0.5252,0.0724,Head,Tail,Tail,Head,Tail,0,0,"Rock, Paper, Scissors",1,2.0,3.0,0,0,0,4.03,-0.42,2.42,I just went with my gut feeling,0.4,1,1
37,t5u8zgm5,,0,8,8,survey,Feedback,2020-05-13 17:58:30.178707+00:00,1,0.0,0.4,2z15ak7z,,,,0,1,0.4,37,25-40,0,Male,Self-employed,UNITED STATE,Rock,Paper,Rock,Scissors,Rock,1.589392775099187e9,90,0.46,-0.1572,Head,Tail,Head,Head,Tail,0,1,"Rock, Paper, Scissors",0,4.0,5.0,1,0,0,4.71,-1.81,4.41,GOOD,0.0,1,1
38,cn4oafig,,0,8,8,survey,Feedback,2020-05-13 18:29:49.845574+00:00,1,0.4,0.8,2z15ak7z,,,,0,1,0.4,38,25-40,0,Female,Employed,USA,Rock,Paper,Rock,Rock,Paper,1.589394604741596e9,50,0.4836,-0.0952,Head,Head,Tail,Head,Head,1,0,Coin Toss,1,3.1,3.2,0,0,0,3.4,-4.79,-4.21,the coin toss will be happened for 5 times only and either head or tail is the option to know the result,0.4,1,1
39,lo850yrs,,0,8,8,survey,Feedback,2020-05-13 18:42:31.123501+00:00,1,0.4,0.8,2z15ak7z,,,,0,1,0.4,39,25-40,1,Female,Self-employed,india,Paper,Scissors,Rock,Paper,Scissors,1.589395404144752e9,1574,0.5296,0.096,Head,Tail,Head,Tail,Head,1,0,Coin Toss,1,4.0,3.0,1,0,0,2.98,-3.19,4.35,its an easy to win,0.4,1,1
40,zvao7lw1,,0,8,8,survey,Feedback,2020-05-13 19:12:16.724094+00:00,1,0.0,0.4,2z15ak7z,,,,0,1,0.4,40,25-40,0,Female,Employed,United States,Rock,Paper,Scissors,Rock,Scissors,1.5893971522444835e9,33,0.4672,-0.118,Head,Tail,Head,Tail,Head,0,1,Coin Toss,0,1.2,0.5,1,0,0,3.41,-3.6,3.94,"I figure it's more against my odds then even when it comes a coin toss, so I went a bit lower on my end just in case.",0.0,1,1
41,47mfbbr1,,0,8,8,survey,Feedback,2020-05-13 19:27:48.154099+00:00,1,0.4,0.8,2z15ak7z,,,,0,1,0.4,41,25-40,1,Male,Employed,USA,Rock,Rock,Rock,Rock,Rock,1.5893980881108499e9,70,0.4612,-0.1284,Head,Head,Head,Head,Head,1,0,Coin Toss,1,3.0,2.5,1,0,0,4.59,-3.61,0.44,"Because the chances are 50/50 where as RPS, the odds of winning are smaller.",0.4,1,1
42,znd9t3m3,,0,8,8,survey,Feedback,2020-05-13 19:46:16.485833+00:00,1,0.4,0.8,2z15ak7z,,,,0,1,0.4,42,25-40,0,Male,Self-employed,Brazil,Rock,Rock,Rock,Rock,Rock,1.5893991818579829e9,90,0.4612,-0.1284,Head,Head,Head,Head,Head,1,1,"Rock, Paper, Scissors",1,3.8,3.6,0,0,0,3.89,-0.81,-4.96,"More options, more chance to win.",0.4,1,1
43,ju585i80,,0,8,8,survey,Feedback,2020-05-13 19:49:41.224653+00:00,1,0.4,0.8,2z15ak7z,,,,0,1,0.4,43,25-40,0,Female,Employed,INDIA,Paper,Rock,Scissors,Rock,Paper,1.5893993864940462e9,36,0.5244,0.07,Head,Tail,Head,Tail,Head,1,1,"Rock, Paper, Scissors",1,2.0,4.0,0,0,0,0.57,-2.25,4.01,"Therefore, this is the best way to win at rock paper scissors: if you lose the first round, switch to the thing that beats the thing your opponent just played.",0.4,1,1
44,ez8eb8e7,,0,8,8,survey,Feedback,2020-05-13 20:13:54.860482+00:00,1,0.4,0.8,2z15ak7z,,,,0,1,0.4,44,<25,0,Male,Employed,USA,Rock,Rock,Paper,Scissors,Paper,1.5894008385343754e9,72,0.4716,-0.0824,Head,Head,Tail,Head,Tail,0,1,"Rock, Paper, Scissors",1,4.0,4.5,1,0,0,4.07,-3.02,1.53,BECAUSE IT WAS AN ENTERTAINMENT GAME,0.4,1,1
45,es86ldgi,,0,8,8,survey,Feedback,2020-05-13 21:56:50.243143+00:00,1,0.4,0.8,2z15ak7z,,,,0,1,0.4,45,<25,1,Female,Self-employed,United States,Paper,Rock,Rock,Scissors,Scissors,1.589407027812706e9,77,0.514,0.002,Tail,Tail,Head,Tail,Head,0,0,"Rock, Paper, Scissors",1,-1.05,-2.0,1,0,0,2.03,-0.45,4.59,I felt more secure choosing it.,0.4,1,1
1,13h5q1hq,,0,8,8,survey,Feedback,2020-05-14 13:06:17.716577+00:00,1,0.0,0.4,gzrz2gcd,,,,0,1,0.4,1,25-40,1,Male,Employed,United States,Rock,Rock,Rock,Rock,Paper,1.5894615801731973e9,27,0.4616,-0.1052,Head,Head,Head,Tail,Tail,1,1,Coin Toss,0,3.0,3.0,1,0,0,4.3,-0.43,1.5,I just prefer it and like odds better,0.0,1,1
2,2b2ngbr8,,0,8,8,survey,Feedback,2020-05-14 13:06:18.750628+00:00,1,0.0,0.4,gzrz2gcd,,,,0,1,0.4,2,25-40,0,Female,Employed,United States,Rock,Rock,Rock,Rock,Rock,1.589461581718468e9,29,0.454,-0.1284,Head,Head,Head,Head,Head,0,1,Coin Toss,0,1.0,2.0,0,0,0,0.28,-3.64,2.95,The odds were better since there are only 2 possible outcomes instead of 3.,0.0,1,1
3,ho1utmw0,,0,8,8,survey,Feedback,2020-05-14 13:06:23.348468+00:00,1,0.4,0.8,gzrz2gcd,,,,0,1,0.4,3,25-40,0,Female,Employed,usa,Rock,Paper,Scissors,Paper,Rock,1.589461671856965e9,24,0.474,-0.0896,Head,Tail,Tail,Head,Tail,1,1,Coin Toss,1,1.0,1.0,0,0,0,1.5,-1.5,-2.98,it has better probability,0.4,1,1
4,jnumc980,,0,8,8,survey,Feedback,2020-05-14 13:06:25.008447+00:00,1,0.4,0.8,gzrz2gcd,,,,0,1,0.4,4,25-40,0,Female,Student,USA,Scissors,Scissors,Paper,Rock,Paper,1.5894616041484065e9,79,0.5196,0.0876,Head,Tail,Head,Head,Tail,0,1,"Rock, Paper, Scissors",1,1.0,3.0,1,0,0,4.27,-1.27,-0.31,"It feels like less is left up to chance like the coin toss. However, I think I regret my decision and should've gone with the coin toss.",0.4,1,1
5,j44t2mn4,,0,8,8,survey,Feedback,2020-05-14 13:06:38.119879+00:00,1,0.4,0.8,gzrz2gcd,,,,0,1,0.4,5,25-40,0,Male,Employed,india,Rock,Scissors,Paper,Paper,Paper,1.5894616022643328e9,62,0.4936,0.0116,Head,Tail,Head,Tail,Head,1,1,"Rock, Paper, Scissors",1,5.0,5.0,1,0,0,0.56,-4.42,-2.07,get reward,0.4,1,1
6,2gy419mo,,0,8,8,survey,Feedback,2020-05-14 13:06:40.038390+00:00,1,0.0,0.4,gzrz2gcd,,,,0,1,0.4,6,25-40,0,Male,Employed,ca,Rock,Paper,Scissors,Rock,Rock,1.5894616030661068e9,42,0.4692,-0.1152,Head,Head,Head,Head,Tail,1,0,"Rock, Paper, Scissors",0,5.0,5.0,1,0,0,2.24,-2.56,-2.77,its interest game,0.0,1,1
7,x8o9oo9t,,0,8,8,survey,Feedback,2020-05-14 13:06:44.011131+00:00,1,0.4,0.8,gzrz2gcd,,,,0,1,0.4,7,25-40,0,Male,Employed,Italy,Rock,Scissors,Rock,Rock,Paper,1.5894616275328605e9,94,0.4808,-0.0756,Head,Head,Head,Tail,Head,1,0,"Rock, Paper, Scissors",1,2.58,3.1,0,0,0,3.84,-4.2,-4.27,"Because I think I have more chances, the rounds were greater than the other game",0.4,1,1
8,0161xt6g,,0,8,8,survey,Feedback,2020-05-14 13:06:45.465605+00:00,1,0.0,0.4,gzrz2gcd,,,,0,1,0.4,8,25-40,0,Male,Student,Brazil,Rock,Scissors,Paper,Rock,Paper,1.5894616338524203e9,176,0.4928,-0.014,Head,Head,Head,Head,Head,1,1,"Rock, Paper, Scissors",0,0.13,-0.33,1,0,0,3.78,-4.46,-2.08,"I was foolish, and at first thought that wouldn't make any difference. But later, I realized the coin toss would give a better chance of guessing the outcomes.",0.0,1,1
9,d4sl9f2m,,0,8,8,survey,Feedback,2020-05-14 13:06:45.957806+00:00,1,0.4,0.8,gzrz2gcd,,,,0,1,0.4,9,25-40,1,Male,Employed,Pakistan,Paper,Scissors,Rock,Paper,Rock,1.5894616174903586e9,44,0.5224,0.0988,Head,Tail,Head,Head,Head,1,0,"Rock, Paper, Scissors",1,3.0,3.0,1,0,0,4.7,-1.96,2.82,Its seems to be more accurate one that is why i selected,0.4,1,1
10,lm269y6h,,0,8,8,survey,Feedback,2020-05-14 13:06:49.202712+00:00,1,0.0,0.4,gzrz2gcd,,,,0,1,0.4,10,25-40,0,Female,Employed,Zimbabwe,Rock,Paper,Scissors,Paper,Rock,1.5894616206139262e9,47,0.466,-0.0896,Head,Head,Tail,Head,Tail,1,0,"Rock, Paper, Scissors",0,1.3,3.0,0,0,0,1.61,-2.09,2.88,I just chose it because I'm fond of the game.,0.0,1,1
11,dz1daq5h,,0,8,8,survey,Feedback,2020-05-14 13:06:50.331345+00:00,1,0.0,0.4,gzrz2gcd,,,,0,1,0.4,11,25-40,0,Female,Employed,usa,Rock,Paper,Rock,Scissors,Rock,1.58946163572471e9,92,0.46,-0.1572,Head,Tail,Tail,Head,Tail,1,1,Coin Toss,0,-2.45,1.25,1,0,0,4.03,-0.38,2.64,"I thought it would be easier and I would have a better chance to win.  The choices would be either head or tails, whereas the choices for the other game were rock, paper, or scissors, I felt I had less of a chance in getting it right.",0.0,1,1
12,ll1fpm4a,,0,8,8,survey,Feedback,2020-05-14 13:06:59.980571+00:00,1,0.4,0.8,gzrz2gcd,,,,0,1,0.4,12,25-40,1,Female,Employed,95823,Paper,Paper,Rock,Rock,Scissors,1.5894623758237534e9,178,0.5156,0.0508,Head,Tail,Head,Tail,Head,0,1,Coin Toss,1,3.74,2.71,0,0,0,3.71,-2.06,-3.85,minimum to amount win easily,0.4,1,1
13,rm2fcf39,,0,8,8,survey,Feedback,2020-05-14 13:07:02.812792+00:00,1,0.0,0.4,gzrz2gcd,,,,0,1,0.4,13,>55,0,Female,Other,USA,Rock,Paper,Scissors,Rock,Scissors,1.5894616393721254e9,115,0.4672,-0.118,Head,Head,Tail,Head,Tail,1,0,Coin Toss,0,2.9,3.6,1,0,0,4.77,-0.87,-3.59,I thought the odds were a little better than the RPS game.,0.0,1,1
14,daeddhxi,,0,8,8,survey,Feedback,2020-05-14 13:07:16.520213+00:00,1,0.4,0.8,gzrz2gcd,,,,0,1,0.4,14,25-40,1,Male,Employed,US,Paper,Scissors,Rock,Rock,Paper,1.589461652515562e9,59,0.514,0.0964,Head,Tail,Head,Head,Tail,1,0,"Rock, Paper, Scissors",1,2.45,3.0,0,0,0,4.27,-3.31,1.65,Thought I had a better chance,0.4,1,1
15,i3xvu0z4,,0,8,8,survey,Feedback,2020-05-14 13:07:43.916538+00:00,1,0.4,0.8,gzrz2gcd,,,,0,1,0.4,15,25-40,0,Male,Employed,india,Paper,Paper,Rock,Paper,Rock,1.5894616881716845e9,58,0.5228,0.0792,Tail,Tail,Head,Tail,Tail,0,1,Coin Toss,1,2.9,2.7,0,0,0,2.7,-1.25,-2.9,very simple,0.4,1,1
16,u1qxfz57,,0,8,8,survey,Feedback,2020-05-14 13:07:44.687956+00:00,1,0.0,0.4,gzrz2gcd,,,,0,1,0.4,16,40-55,0,Male,Employed,USA,Rock,Rock,Paper,Paper,Scissors,1.5894618986273267e9,74,0.4804,-0.044,Head,Tail,Head,Tail,Head,0,0,Coin Toss,0,5.0,4.0,1,0,0,0.05,-0.35,1.07,I feel it will favor me,0.0,1,1
17,8avsvp7h,,0,8,8,survey,Feedback,2020-05-14 13:08:00.955779+00:00,1,0.4,0.8,gzrz2gcd,,,,0,1,0.4,17,25-40,1,Male,Employed,united states,Rock,Paper,Rock,Rock,Scissors,1.5894617041415467e9,60,0.4684,-0.1212,Head,Tail,Head,Head,Head,0,0,"Rock, Paper, Scissors",1,5.0,4.0,1,0,0,0.18,-0.46,-0.51,rock will used to rotate the coin,0.4,1,1
18,fnytaowd,,0,8,8,survey,Feedback,2020-05-14 13:11:09.246656+00:00,1,0.4,0.8,gzrz2gcd,,,,0,1,0.4,18,25-40,1,Male,Employed,USA,Scissors,Paper,Paper,Rock,Rock,1.5894620979986534e9,15,0.5072,0.0448,Head,Head,Tail,Tail,Tail,1,0,Coin Toss,1,2.0,3.0,0,0,0,4.36,-4.89,1.37,Its a 50/50 rather than a 33% chance,0.4,1,1
19,1x66k5wc,,0,8,8,survey,Feedback,2020-05-14 13:12:55.249590+00:00,1,0.4,0.8,gzrz2gcd,,,,0,1,0.4,19,25-40,1,Male,Employed,United States,Rock,Rock,Rock,Rock,Rock,1.589461977939762e9,50,0.4612,-0.1284,Tail,Tail,Tail,Tail,Tail,0,0,Coin Toss,1,-0.25,1.0,0,0,0,4.01,-0.25,-3.39,"The odds of the coin toss are 50% where the odds of winning the rock, paper, scissor is lower at around 33%. If I am looking to increase my chances of winning I must go with the greater odds.",0.4,1,1
20,jp5d6sbw,,0,8,8,survey,Feedback,2020-05-14 13:15:36.047006+00:00,1,0.0,0.4,gzrz2gcd,,,,0,1,0.4,20,25-40,1,Female,Employed,India,Rock,Paper,Paper,Scissors,Rock,1.5894621446937623e9,33,0.4668,-0.0956,Head,Head,Tail,Head,Tail,0,0,"Rock, Paper, Scissors",0,5.0,4.0,0,0,0,0.06,-4.71,4.89,I am like,0.0,1,1
21,kp4pf9jf,,0,8,8,survey,Feedback,2020-05-14 13:15:56.584360+00:00,1,0.4,0.8,gzrz2gcd,,,,0,1,0.4,21,25-40,1,Female,Employed,United States,Rock,Rock,Paper,Paper,Scissors,1.5894621594763768e9,19,0.4756,-0.044,Head,Head,Head,Tail,Tail,0,0,Coin Toss,1,2.5,5.0,1,0,0,2.2,-1.39,-4.45,I thought it would be more fun,0.4,1,1
22,m3nhcn80,,0,8,8,survey,Feedback,2020-05-14 13:17:38.696453+00:00,1,0.4,0.8,gzrz2gcd,,,,0,1,0.4,22,40-55,1,Male,Employed,USA,Rock,Paper,Rock,Rock,Rock,1.5894623208539627e9,86,0.4716,-0.1184,Head,Head,Tail,Head,Tail,1,0,"Rock, Paper, Scissors",1,3.68,4.0,1,0,0,3.43,-0.87,0.32,Because it's standout,0.4,1,1
23,4o0vsfz3,,0,8,8,survey,Feedback,2020-05-14 13:18:38.085016+00:00,1,0.4,0.8,gzrz2gcd,,,,0,1,0.4,23,25-40,1,Female,Employed,usa,Paper,Rock,Scissors,Paper,Rock,1.5894623208300881e9,39,0.5208,0.0724,Head,Head,Head,Head,Head,0,0,Coin Toss,1,2.0,2.0,1,0,0,4.75,-4.6,-2.64,It seems lower risk.,0.4,1,1
24,opb07aid,,0,2,8,survey,RPS,2020-05-14 13:20:05.773809+00:00,1,0.0,0.4,gzrz2gcd,,,,0,1,0.4,24,,1,,,,,,,,,1.5894624109483826e9,0,0.5,0.0,,,,,,0,1,,0,,,0,0,0,0.04,-3.54,3.51,,0.0,1,1
25,v7401j2q,,0,8,8,survey,Feedback,2020-05-14 13:20:34.981510+00:00,1,0.0,0.4,gzrz2gcd,,,,0,1,0.4,25,25-40,0,Male,Employed,USA,Rock,Rock,Paper,Rock,Paper,1.5894628965714984e9,32,0.4888,-0.0436,Head,Head,Tail,Head,Tail,1,0,"Rock, Paper, Scissors",0,3.7,3.5,0,0,0,4.11,-3.72,-4.82,it seems easier,0.0,1,1
26,6tdflj6q,,0,8,8,survey,Feedback,2020-05-14 13:21:35.140347+00:00,1,0.4,0.8,gzrz2gcd,,,,0,1,0.4,26,25-40,0,Male,Self-employed,India,Rock,Paper,Scissors,Rock,Rock,1.5894625472062948e9,147,0.4644,-0.1152,Head,Tail,Head,Tail,Tail,1,1,Coin Toss,1,3.95,4.0,1,0,0,1.52,-4.89,2.81,"I have more interest in playing coin toss other than rock, paper & scissors.",0.4,1,1
27,n0nusho2,,0,2,8,survey,RPS,2020-05-14 13:22:09.459381+00:00,1,0.0,0.4,gzrz2gcd,,,,0,1,0.4,27,,1,,,,,,,,,1.589462533320451e9,0,0.5,0.0,,,,,,0,1,,0,,,1,0,0,2.41,-3.62,0.55,,0.0,1,1
28,wkvgsey8,,0,8,8,survey,Feedback,2020-05-14 13:22:13.548911+00:00,1,0.4,0.8,gzrz2gcd,,,,0,1,0.4,28,25-40,0,Female,Employed,USA,Rock,Scissors,Scissors,Scissors,Rock,1.5894625429202092e9,40,0.4728,-0.1344,Head,Head,Tail,Head,Head,1,1,Coin Toss,1,0.1,1.0,1,0,0,0.15,-3.33,1.02,I felt that my odds were better.,0.4,1,1
29,mvvojvwv,,0,8,8,survey,Feedback,2020-05-14 13:23:10.950555+00:00,1,0.4,0.8,gzrz2gcd,,,,0,1,0.4,29,25-40,0,Female,Employed,usa,Paper,Rock,Rock,Paper,Rock,1.5894626126092691e9,76,0.5244,0.0692,Tail,Head,Head,Tail,Tail,0,1,Coin Toss,1,3.0,2.0,1,0,0,4.41,-4.42,-2.4,Would not feel bad if i lost.,0.4,1,1
30,7qt4cysf,,0,8,8,survey,Feedback,2020-05-14 13:23:44.206681+00:00,1,0.0,0.4,gzrz2gcd,,,,0,1,0.4,30,25-40,1,Female,Self-employed,india,Rock,Scissors,Rock,Paper,Rock,1.5894626306827843e9,111,0.4764,-0.0732,Head,Tail,Head,Head,Head,0,0,Coin Toss,0,3.1,2.4,1,0,0,0.05,-1.86,2.7,depends upon coin choice,0.0,1,1
31,pws30f7i,,0,2,8,survey,RPS,2020-05-14 13:24:24.594377+00:00,1,0.0,0.4,gzrz2gcd,,,,0,1,0.4,31,,0,,,,,,,,,1.5894626691451514e9,0,0.5,0.0,,,,,,0,0,,0,,,1,0,0,3.32,-1.83,2.97,,0.0,1,1
32,maq6cj5t,,0,6,8,survey,Decisions,2020-05-14 13:24:33.115436+00:00,1,0.0,0.4,gzrz2gcd,,,,0,1,0.4,32,,1,,,,Paper,Rock,Rock,Scissors,Scissors,1.5894627350163405e9,262,0.5172,0.002,Head,Head,Tail,Head,Tail,0,1,"Rock, Paper, Scissors",0,3.9,4.5,0,0,0,3.32,-3.99,0.38,,0.0,1,1
33,xzw4gr4g,,0,8,8,survey,Feedback,2020-05-14 13:27:15.118520+00:00,1,0.4,0.8,gzrz2gcd,,,,0,1,0.4,33,40-55,1,Male,Employed,USA,Scissors,Paper,Paper,Rock,Scissors,1.5894633120591142e9,90,0.5152,0.042,Head,Tail,Tail,Tail,Head,0,0,"Rock, Paper, Scissors",1,2.0,3.0,1,0,0,3.56,-2.86,-2.59,I always had a luck in this game,0.4,1,1
34,hchza825,,0,2,8,survey,RPS,2020-05-14 13:31:53.122116+00:00,1,0.0,0.4,gzrz2gcd,,,,0,1,0.4,34,,1,,,,,,,,,1.5894631192001677e9,0,0.5,0.0,,,,,,0,1,,0,,,0,0,0,2.16,-3.55,0.46,,0.0,1,1
35,48mftz8y,,0,8,8,survey,Feedback,2020-05-14 13:32:53.771719+00:00,1,0.4,0.8,gzrz2gcd,,,,0,1,0.4,35,25-40,1,Male,Employed,Brazil,Paper,Rock,Rock,Paper,Rock,1.589463217324601e9,38,0.5244,0.0692,Head,Tail,Tail,Head,Head,0,0,"Rock, Paper, Scissors",1,5.0,5.0,0,0,0,2.51,-4.2,-4.54,easier,0.4,1,1
36,j8of2auj,,0,8,8,survey,Feedback,2020-05-14 13:33:36.930559+00:00,1,0.0,0.4,gzrz2gcd,,,,0,1,0.4,36,40-55,0,Female,Employed,us,Rock,Paper,Scissors,Rock,Rock,1.5894655261450343e9,59,0.4644,-0.1152,Head,Head,Tail,Tail,Head,1,1,Coin Toss,0,0.56,0.78,1,0,0,3.34,-1.96,0.56,because heads or tails are only see,0.0,1,1
37,lkpeyant,,0,8,8,survey,Feedback,2020-05-14 13:35:24.942295+00:00,1,0.4,0.8,gzrz2gcd,,,,0,1,0.4,37,40-55,1,Female,Employed,USA,Paper,Rock,Scissors,Paper,Rock,1.5894633315192766e9,30,0.5252,0.0724,Head,Tail,Head,Head,Tail,1,0,Coin Toss,1,3.76,5.0,0,0,0,0.05,-2.87,3.76,coin toss was interesting,0.4,1,1
38,fjd8ruy6,,0,8,8,survey,Feedback,2020-05-14 13:35:45.053373+00:00,1,0.4,0.8,gzrz2gcd,,,,0,1,0.4,38,25-40,1,Female,Employed,USA,Paper,Rock,Scissors,Rock,Paper,1.589463362838051e9,72,0.5244,0.07,Tail,Head,Head,Head,Head,1,1,Coin Toss,1,4.77,5.0,1,0,0,1.09,-1.5,4.77,luck,0.4,1,1
39,5spfva8b,,0,8,8,survey,Feedback,2020-05-14 13:36:39.946694+00:00,1,0.4,0.8,gzrz2gcd,,,,0,1,0.4,39,<25,1,Female,Employed,United States of America,Rock,Paper,Scissors,Paper,Scissors,1.5894634609326687e9,60,0.47,-0.0924,Head,Tail,Head,Tail,Tail,0,0,Coin Toss,1,3.0,3.0,0,0,0,4.39,-4.61,0.68,Because there are only two possibilities. In the other game there are three.,0.4,1,1
40,0sepyc6s,,0,8,8,survey,Feedback,2020-05-14 13:37:15.501381+00:00,1,0.0,0.4,gzrz2gcd,,,,0,1,0.4,40,25-40,0,Female,Employed,USA,Paper,Scissors,Rock,Paper,Scissors,1.5894634398899088e9,39,0.5232,0.096,Head,Tail,Tail,Head,Tail,0,1,Coin Toss,0,1.2,2.4,0,0,0,3.2,-3.62,-1.62,I felt the coin toss was a more straightforward scenario.,0.0,1,1
41,q89ebxvr,,0,8,8,survey,Feedback,2020-05-14 13:47:05.403957+00:00,1,0.0,0.4,gzrz2gcd,,,,0,1,0.4,41,40-55,0,Female,Employed,USA,Scissors,Rock,Paper,Scissors,Rock,1.589464137280105e9,515,0.4964,-0.004,Head,Tail,Tail,Head,Head,1,0,"Rock, Paper, Scissors",0,3.0,4.0,0,0,0,3.62,-0.26,3.68,Well I chose it because we are the winners ... let's judge.,0.0,1,1
42,a70t1ds6,,0,8,8,survey,Feedback,2020-05-14 13:54:43.584606+00:00,1,0.4,0.8,gzrz2gcd,,,,0,1,0.4,42,>55,0,Female,Employed,usa,Rock,Rock,Rock,Paper,Rock,1.5894644982265706e9,58,0.4748,-0.1028,Head,Head,Head,Head,Head,0,1,"Rock, Paper, Scissors",1,3.0,2.0,1,0,0,2.4,-4.03,-4.02,i will think for only,0.4,1,1
43,3dtlb4eo,,0,8,8,survey,Feedback,2020-05-14 13:56:30.395699+00:00,1,0.4,0.8,gzrz2gcd,,,,0,1,0.4,43,25-40,0,Female,Employed,America,Paper,Paper,Scissors,Rock,Paper,1.5894646139678044e9,35,0.526,0.08,Head,Head,Head,Head,Head,0,1,Coin Toss,1,2.0,5.0,0,0,0,3.04,-4.6,-3.36,Because I always have some principle to play and which gives most of times success.,0.4,1,1
44,pdtkfdzh,,0,8,8,survey,Feedback,2020-05-14 14:04:12.421608+00:00,1,0.0,0.4,gzrz2gcd,,,,0,1,0.4,44,25-40,0,Female,Employed,united states,Rock,Paper,Scissors,Rock,Rock,1.5894651040697186e9,37,0.4644,-0.1152,Head,Head,Tail,Head,Head,1,1,"Rock, Paper, Scissors",0,4.0,4.0,1,0,0,3.69,-4.88,4.97,it is a best game and easy to play and win rewards.,0.0,1,1
45,vxr00tq3,,0,8,8,survey,Feedback,2020-05-14 14:08:02.863529+00:00,1,0.0,0.4,gzrz2gcd,,,,0,1,0.4,45,40-55,0,Female,Employed,la,Rock,Paper,Scissors,Scissors,Paper,1.5894652999969776e9,132,0.4592,-0.1308,Head,Tail,Head,Head,Tail,1,0,Coin Toss,0,1.62,4.6,0,0,0,1.81,-1.98,4.23,because i think its amazing,0.0,1,1
46,9c8jkcy8,,0,8,8,survey,Feedback,2020-05-14 14:09:03.773780+00:00,1,0.0,0.4,gzrz2gcd,,,,0,1,0.4,46,25-40,1,Female,Employed,usa,Scissors,Paper,Scissors,Paper,Scissors,1.5894653461099668e9,10,0.5096,0.0092,Tail,Head,Tail,Head,Tail,1,1,Coin Toss,0,3.0,4.0,1,0,0,4.59,-0.35,-3.05,its more safe for me,0.0,1,1
47,ote5j2io,,0,8,8,survey,Feedback,2020-05-14 14:09:31.766986+00:00,1,0.4,0.8,gzrz2gcd,,,,0,1,0.4,47,25-40,1,Male,Employed,USA,Paper,Scissors,Rock,Paper,Scissors,1.5894654155098414e9,128,0.5296,0.096,Head,Tail,Head,Head,Tail,0,1,Coin Toss,1,4.0,3.0,0,0,0,2.06,-3.29,-1.87,Feel comfortable,0.4,1,1
48,9mggc5x9,,0,8,8,survey,Feedback,2020-05-14 14:15:35.956825+00:00,1,0.0,0.4,gzrz2gcd,,,,0,1,0.4,48,>55,1,Female,Retired,USA,Paper,Rock,Scissors,Paper,Paper,1.589465765086779e9,83,0.5348,0.0956,Head,Head,Head,Head,Head,1,0,"Rock, Paper, Scissors",0,2.0,3.0,0,0,0,1.55,-1.81,-2.49,It just felt as if it were more fun. The other option was a straightforward 50/50 chance.,0.0,1,1
49,te92bb3s,,0,8,8,survey,Feedback,2020-05-14 14:23:41.773988+00:00,1,0.0,0.4,gzrz2gcd,,,,0,1,0.4,49,25-40,0,Male,Employed,India,Rock,Paper,Scissors,Paper,Rock,1.5894662520970778e9,102,0.474,-0.0896,Head,Head,Head,Tail,Tail,1,0,Coin Toss,0,4.5,4.0,0,0,0,3.56,-0.39,-2.49,it is easier to play,0.0,1,1
50,b5auhksz,,0,8,8,survey,Feedback,2020-05-14 14:24:54.583956+00:00,1,0.1,0.5,gzrz2gcd,,,,0,1,0.4,50,40-55,1,Female,Employed,United States,Rock,Scissors,Paper,Rock,Paper,1.5894663077609475e9,42,0.4928,-0.014,Head,Head,Head,Head,Head,0,1,Coin Toss,0,0.0,0.0,0,1,1,0.49,-1.99,-3.64,"It's all the same, really, so it's 50-50. But I really don't like Rock, Paper, Scissors but I do like coins, so I lean in that direction.",0.1,1,1
51,r0dfeqnh,,0,8,8,survey,Feedback,2020-05-14 14:36:29.147066+00:00,1,0.4,0.8,gzrz2gcd,,,,0,1,0.4,51,25-40,1,Male,Employed,USA,Rock,Rock,Rock,Rock,Rock,1.5894670055368285e9,85,0.454,-0.1284,Head,Head,Head,Head,Head,0,0,Coin Toss,1,2.0,2.0,1,0,0,4.83,-1.62,2.58,I felt like it was a higher odd.,0.4,1,1
52,6v5zshjw,,0,8,8,survey,Feedback,2020-05-14 14:44:32.374127+00:00,1,0.0,0.4,gzrz2gcd,,,,0,1,0.4,52,40-55,0,Male,Employed,United states of America,Paper,Rock,Paper,Rock,Scissors,1.5894674779117796e9,21,0.532,0.1024,Head,Head,Tail,Head,Head,1,1,Coin Toss,0,3.0,5.0,1,0,0,3.86,-3.73,-2.69,I have more odds that way,0.0,1,1
53,nstvoktz,,0,8,8,survey,Feedback,2020-05-14 14:45:42.300737+00:00,1,0.4,0.8,gzrz2gcd,,,,0,1,0.4,53,25-40,1,Female,Employed,usa,Paper,Rock,Scissors,Paper,Rock,1.5894675442373312e9,28,0.5252,0.0724,Head,Head,Tail,Tail,Head,1,0,"Rock, Paper, Scissors",1,2.0,3.0,1,0,0,0.0,-4.6,4.04,i thought there was more of a fair chance,0.4,1,1
54,si3aeday,,0,2,8,survey,RPS,2020-05-14 15:15:38.227857+00:00,1,0.0,0.4,gzrz2gcd,,,,0,1,0.4,54,,1,,,,,,,,,1.5894693456494348e9,0,0.5,0.0,,,,,,0,1,,0,,,1,0,0,4.53,-3.44,2.47,,0.0,1,1
55,jgpczq5f,,0,8,8,survey,Feedback,2020-05-14 15:16:52.999453+00:00,1,0.4,0.8,gzrz2gcd,,,,0,1,0.4,55,25-40,1,Male,Employed,india,Rock,Paper,Paper,Scissors,Rock,1.5894694375681996e9,56,0.472,-0.0956,Head,Tail,Head,Head,Head,0,0,"Rock, Paper, Scissors",1,2.65,4.0,1,0,0,2.03,-2.95,-2.03,the best calculations for my choice..,0.4,1,1
56,r8pq9m2i,,0,8,8,survey,Feedback,2020-05-14 16:14:05.512556+00:00,1,0.4,0.8,gzrz2gcd,,,,0,1,0.4,56,40-55,1,Female,Self-employed,USA,Paper,Rock,Scissors,Paper,Rock,1.58947287140939e9,20,0.5252,0.0724,Head,Head,Tail,Head,Head,0,1,"Rock, Paper, Scissors",1,2.75,3.53,0,0,0,1.25,-0.75,-3.53,It makes reward,0.4,1,1
