session_id,participant__id_in_session,participant__code,page_index,app_name,page_name,epoch_time,seconds_on_page,subsession_pk,auto_submitted
1,1,4nc9hasn,1,survey,Welcome,1589384649,12,1,False
1,1,4nc9hasn,2,survey,RPS,1589384686,37,1,False
1,1,4nc9hasn,3,survey,Mechanism,1589384709,23,1,False
1,1,4nc9hasn,4,survey,Belief1,1589384722,13,1,False
1,1,4nc9hasn,5,survey,Belief2,1589384732,10,1,False
1,1,4nc9hasn,6,survey,Decisions,1589384750,18,1,False
1,1,4nc9hasn,7,survey,Demographics,1589384756,6,1,False
1,2,djckiwe7,1,survey,Welcome,1589384689,18,1,False
1,2,djckiwe7,2,survey,RPS,1589384724,35,1,False
1,2,djckiwe7,3,survey,Mechanism,1589384738,14,1,False
1,2,djckiwe7,4,survey,Belief1,1589384795,57,1,False
1,2,djckiwe7,5,survey,Belief2,1589384806,11,1,False
1,2,djckiwe7,6,survey,Decisions,1589384843,37,1,False
1,3,hbkdtyxv,1,survey,Welcome,1589384703,13,1,False
1,3,hbkdtyxv,2,survey,RPS,1589384729,26,1,False
1,3,hbkdtyxv,3,survey,Mechanism,1589384748,19,1,False
1,3,hbkdtyxv,4,survey,Belief1,1589384753,5,1,False
1,3,hbkdtyxv,5,survey,Belief2,1589384757,4,1,False
1,3,hbkdtyxv,6,survey,Decisions,1589384771,14,1,False
1,3,hbkdtyxv,7,survey,Demographics,1589384782,11,1,False
1,4,e6qwvauf,1,survey,Welcome,1589384703,8,1,False
1,4,e6qwvauf,2,survey,RPS,1589384715,12,1,False
1,4,e6qwvauf,3,survey,Mechanism,1589384722,7,1,False
1,4,e6qwvauf,4,survey,Belief1,1589384728,6,1,False
1,4,e6qwvauf,5,survey,Belief2,1589384737,9,1,False
1,4,e6qwvauf,6,survey,Decisions,1589384742,5,1,False
1,4,e6qwvauf,7,survey,Demographics,1589384747,5,1,False
1,5,sy5j6l2j,1,survey,Welcome,1589384746,3,1,False
1,5,sy5j6l2j,2,survey,RPS,1589384759,13,1,False
1,5,sy5j6l2j,3,survey,Mechanism,1589384762,3,1,False
1,5,sy5j6l2j,4,survey,Belief1,1589384790,28,1,False
1,5,sy5j6l2j,5,survey,Belief2,1589384794,4,1,False
1,5,sy5j6l2j,6,survey,Decisions,1589384816,22,1,False
1,6,d2hb6l3a,1,survey,Welcome,1589384758,13,1,False
1,6,d2hb6l3a,2,survey,RPS,1589384838,80,1,False
1,7,3bj4uahp,1,survey,Welcome,1589384825,21,1,False
1,7,3bj4uahp,2,survey,RPS,1589384914,89,1,False
1,7,3bj4uahp,3,survey,Mechanism,1589384976,62,1,False
1,7,3bj4uahp,4,survey,Belief1,1589384996,20,1,False
1,7,3bj4uahp,5,survey,Belief2,1589385002,6,1,False
1,7,3bj4uahp,6,survey,Decisions,1589385034,32,1,False
1,7,3bj4uahp,7,survey,Demographics,1589385048,14,1,False
1,9,euykr9mo,1,survey,Welcome,1589385017,23,1,False
1,9,euykr9mo,2,survey,RPS,1589385133,116,1,False
1,9,euykr9mo,3,survey,Mechanism,1589385175,42,1,False
1,9,euykr9mo,4,survey,Belief1,1589385208,33,1,False
1,9,euykr9mo,5,survey,Belief2,1589385222,14,1,False
1,9,euykr9mo,6,survey,Decisions,1589385304,82,1,False
1,9,euykr9mo,7,survey,Demographics,1589385316,12,1,False
1,10,hnmuh9vo,1,survey,Welcome,1589385173,14,1,False
1,10,hnmuh9vo,2,survey,RPS,1589385224,51,1,False
1,10,hnmuh9vo,3,survey,Mechanism,1589385251,27,1,False
1,10,hnmuh9vo,4,survey,Belief1,1589385288,37,1,False
1,10,hnmuh9vo,5,survey,Belief2,1589385304,16,1,False
1,10,hnmuh9vo,6,survey,Decisions,1589385317,13,1,False
1,10,hnmuh9vo,7,survey,Demographics,1589385331,14,1,False
1,11,pasehxei,1,survey,Welcome,1589385537,11,1,False
1,11,pasehxei,2,survey,RPS,1589385566,29,1,False
1,11,pasehxei,3,survey,Mechanism,1589385581,15,1,False
1,11,pasehxei,4,survey,Belief1,1589385612,31,1,False
1,11,pasehxei,5,survey,Belief2,1589385626,14,1,False
1,11,pasehxei,6,survey,Decisions,1589385648,22,1,False
1,11,pasehxei,7,survey,Demographics,1589385661,13,1,False
1,12,ntumqztk,1,survey,Welcome,1589385530,3,1,False
1,12,ntumqztk,2,survey,RPS,1589385539,9,1,False
1,12,ntumqztk,3,survey,Mechanism,1589385543,4,1,False
1,12,ntumqztk,4,survey,Belief1,1589385551,8,1,False
1,12,ntumqztk,5,survey,Belief2,1589385553,2,1,False
1,12,ntumqztk,6,survey,Decisions,1589385556,3,1,False
1,12,ntumqztk,7,survey,Demographics,1589385561,5,1,False
1,13,b3gd8elb,1,survey,Welcome,1589385603,44,1,False
1,13,b3gd8elb,2,survey,RPS,1589385669,66,1,False
1,13,b3gd8elb,3,survey,Mechanism,1589385690,21,1,False
1,13,b3gd8elb,4,survey,Belief1,1589385707,17,1,False
1,13,b3gd8elb,5,survey,Belief2,1589385711,4,1,False
1,13,b3gd8elb,6,survey,Decisions,1589385721,10,1,False
1,13,b3gd8elb,7,survey,Demographics,1589385731,10,1,False
1,14,wov081zy,1,survey,Welcome,1589385649,3,1,False
1,14,wov081zy,2,survey,RPS,1589386299,650,1,False
1,14,wov081zy,3,survey,Mechanism,1589386480,181,1,False
1,14,wov081zy,4,survey,Belief1,1589386488,8,1,False
1,14,wov081zy,5,survey,Belief2,1589386492,4,1,False
1,14,wov081zy,6,survey,Decisions,1589386499,7,1,False
1,14,wov081zy,7,survey,Demographics,1589386512,13,1,False
1,15,t9qelpls,1,survey,Welcome,1589386131,14,1,False
1,15,t9qelpls,2,survey,RPS,1589386175,44,1,False
1,15,t9qelpls,3,survey,Mechanism,1589386196,21,1,False
1,15,t9qelpls,4,survey,Belief1,1589386216,20,1,False
1,15,t9qelpls,5,survey,Belief2,1589386221,5,1,False
1,15,t9qelpls,6,survey,Decisions,1589386239,18,1,False
1,15,t9qelpls,7,survey,Demographics,1589386245,6,1,False
1,16,lpz6iumy,1,survey,Welcome,1589386218,25,1,False
1,16,lpz6iumy,2,survey,RPS,1589386368,150,1,False
1,16,lpz6iumy,3,survey,Mechanism,1589386378,10,1,False
1,16,lpz6iumy,4,survey,Belief1,1589386506,128,1,False
1,16,lpz6iumy,5,survey,Belief2,1589386514,8,1,False
1,16,lpz6iumy,6,survey,Decisions,1589386571,57,1,False
1,16,lpz6iumy,7,survey,Demographics,1589386585,14,1,False
1,17,c2avqkdj,1,survey,Welcome,1589386240,7,1,False
1,17,c2avqkdj,2,survey,RPS,1589386267,27,1,False
1,17,c2avqkdj,3,survey,Mechanism,1589386276,9,1,False
1,17,c2avqkdj,4,survey,Belief1,1589386289,13,1,False
1,17,c2avqkdj,5,survey,Belief2,1589386294,5,1,False
1,17,c2avqkdj,6,survey,Decisions,1589386315,21,1,False
1,17,c2avqkdj,7,survey,Demographics,1589386328,13,1,False
1,18,gx1rw95f,1,survey,Welcome,1589386379,11,1,False
1,18,gx1rw95f,2,survey,RPS,1589391478,5099,1,False
1,18,gx1rw95f,3,survey,Mechanism,1589391484,6,1,False
1,18,gx1rw95f,4,survey,Belief1,1589391491,7,1,False
1,18,gx1rw95f,5,survey,Belief2,1589391499,8,1,False
1,19,0qc1e9ud,1,survey,Welcome,1589386439,14,1,False
1,19,0qc1e9ud,2,survey,RPS,1589386767,328,1,False
1,19,0qc1e9ud,3,survey,Mechanism,1589386778,11,1,False
1,19,0qc1e9ud,4,survey,Belief1,1589387058,280,1,False
1,19,0qc1e9ud,5,survey,Belief2,1589387066,8,1,False
1,19,0qc1e9ud,6,survey,Decisions,1589387073,7,1,False
1,19,0qc1e9ud,7,survey,Demographics,1589387081,8,1,False
1,20,7llui7e9,1,survey,Welcome,1589387026,4,1,False
1,20,7llui7e9,2,survey,RPS,1589387067,41,1,False
1,20,7llui7e9,3,survey,Mechanism,1589387086,19,1,False
1,20,7llui7e9,4,survey,Belief1,1589387104,18,1,False
1,20,7llui7e9,5,survey,Belief2,1589387142,38,1,False
1,20,7llui7e9,6,survey,Decisions,1589387151,9,1,False
1,20,7llui7e9,7,survey,Demographics,1589387159,8,1,False
1,21,y4z9bwqo,1,survey,Welcome,1589387586,5,1,False
1,21,y4z9bwqo,2,survey,RPS,1589387610,24,1,False
1,21,y4z9bwqo,3,survey,Mechanism,1589387619,9,1,False
1,21,y4z9bwqo,4,survey,Belief1,1589387635,16,1,False
1,21,y4z9bwqo,5,survey,Belief2,1589387640,5,1,False
1,21,y4z9bwqo,6,survey,Decisions,1589387654,14,1,False
1,21,y4z9bwqo,7,survey,Demographics,1589387666,12,1,False
1,22,19p96wtw,1,survey,Welcome,1589388393,49,1,False
1,22,19p96wtw,2,survey,RPS,1589388550,157,1,False
1,22,19p96wtw,3,survey,Mechanism,1589388600,50,1,False
1,22,19p96wtw,4,survey,Belief1,1589388651,51,1,False
1,22,19p96wtw,5,survey,Belief2,1589388691,40,1,False
1,22,19p96wtw,6,survey,Decisions,1589388736,45,1,False
1,22,19p96wtw,7,survey,Demographics,1589388804,68,1,False
1,24,5f5ienvr,1,survey,Welcome,1589390327,11,1,False
1,24,5f5ienvr,2,survey,RPS,1589390447,120,1,False
1,24,5f5ienvr,3,survey,Mechanism,1589390462,15,1,False
1,24,5f5ienvr,4,survey,Belief1,1589390483,21,1,False
1,24,5f5ienvr,5,survey,Belief2,1589390493,10,1,False
1,24,5f5ienvr,6,survey,Decisions,1589390522,29,1,False
1,24,5f5ienvr,7,survey,Demographics,1589390531,9,1,False
1,25,vysarnwx,1,survey,Welcome,1589390644,5,1,False
1,25,vysarnwx,2,survey,RPS,1589390750,106,1,False
1,25,vysarnwx,3,survey,Mechanism,1589390760,10,1,False
1,25,vysarnwx,4,survey,Belief1,1589390789,29,1,False
1,25,vysarnwx,5,survey,Belief2,1589390797,8,1,False
1,25,vysarnwx,6,survey,Decisions,1589390805,8,1,False
1,25,vysarnwx,7,survey,Demographics,1589390811,6,1,False
1,26,szfrmoni,1,survey,Welcome,1589390768,27,1,False
1,26,szfrmoni,2,survey,RPS,1589390853,85,1,False
1,26,szfrmoni,3,survey,Mechanism,1589390856,3,1,False
1,26,szfrmoni,4,survey,Belief1,1589390861,5,1,False
1,26,szfrmoni,5,survey,Belief2,1589390864,3,1,False
1,26,szfrmoni,6,survey,Decisions,1589390870,6,1,False
1,26,szfrmoni,7,survey,Demographics,1589390878,8,1,False
1,27,xpb9bptu,1,survey,Welcome,1589390926,30,1,False
1,27,xpb9bptu,2,survey,RPS,1589390986,60,1,False
1,27,xpb9bptu,3,survey,Mechanism,1589391009,23,1,False
1,27,xpb9bptu,4,survey,Belief1,1589391082,73,1,False
1,27,xpb9bptu,5,survey,Belief2,1589391095,13,1,False
1,27,xpb9bptu,6,survey,Decisions,1589391173,78,1,False
1,27,xpb9bptu,7,survey,Demographics,1589391183,10,1,False
1,28,lkyjywmu,1,survey,Welcome,1589390900,3,1,False
1,28,lkyjywmu,2,survey,RPS,1589391036,136,1,False
1,28,lkyjywmu,3,survey,Mechanism,1589391054,18,1,False
1,28,lkyjywmu,4,survey,Belief1,1589391079,25,1,False
1,28,lkyjywmu,5,survey,Belief2,1589391085,6,1,False
1,28,lkyjywmu,6,survey,Decisions,1589391170,85,1,False
1,28,lkyjywmu,7,survey,Demographics,1589391182,12,1,False
1,29,1r9ivv6r,1,survey,Welcome,1589390910,3,1,False
1,29,1r9ivv6r,2,survey,RPS,1589390947,37,1,False
1,29,1r9ivv6r,3,survey,Mechanism,1589390951,4,1,False
1,29,1r9ivv6r,4,survey,Belief1,1589390956,5,1,False
1,29,1r9ivv6r,5,survey,Belief2,1589390959,3,1,False
1,29,1r9ivv6r,6,survey,Decisions,1589390976,17,1,False
1,29,1r9ivv6r,7,survey,Demographics,1589390992,16,1,False
1,30,cstjilqh,1,survey,Welcome,1589391130,51,1,False
1,30,cstjilqh,2,survey,RPS,1589391195,65,1,False
1,30,cstjilqh,3,survey,Mechanism,1589391215,20,1,False
1,30,cstjilqh,4,survey,Belief1,1589391239,24,1,False
1,30,cstjilqh,5,survey,Belief2,1589391249,10,1,False
1,30,cstjilqh,6,survey,Decisions,1589391284,35,1,False
1,30,cstjilqh,7,survey,Demographics,1589391299,15,1,False
1,31,cypnbiio,1,survey,Welcome,1589391793,49,1,False
1,31,cypnbiio,2,survey,RPS,1589391925,132,1,False
1,31,cypnbiio,3,survey,Mechanism,1589392003,78,1,False
1,31,cypnbiio,4,survey,Belief1,1589392086,83,1,False
1,31,cypnbiio,5,survey,Belief2,1589392099,13,1,False
1,31,cypnbiio,6,survey,Decisions,1589392175,76,1,False
1,31,cypnbiio,7,survey,Demographics,1589392188,13,1,False
1,32,uqy208uu,1,survey,Welcome,1589391912,3,1,False
1,32,uqy208uu,2,survey,RPS,1589391928,16,1,False
1,32,uqy208uu,3,survey,Mechanism,1589391937,9,1,False
1,32,uqy208uu,4,survey,Belief1,1589391944,7,1,False
1,32,uqy208uu,5,survey,Belief2,1589391952,8,1,False
1,32,uqy208uu,6,survey,Decisions,1589391963,11,1,False
1,32,uqy208uu,7,survey,Demographics,1589391969,6,1,False
1,33,ywklkltv,1,survey,Welcome,1589391983,39,1,False
1,33,ywklkltv,2,survey,RPS,1589392105,122,1,False
1,33,ywklkltv,3,survey,Mechanism,1589392199,94,1,False
1,33,ywklkltv,4,survey,Belief1,1589392242,43,1,False
1,33,ywklkltv,5,survey,Belief2,1589392259,17,1,False
1,33,ywklkltv,6,survey,Decisions,1589392324,65,1,False
1,33,ywklkltv,7,survey,Demographics,1589392339,15,1,False
1,34,zlmhlzp6,1,survey,Welcome,1589392085,15,1,False
1,34,zlmhlzp6,2,survey,RPS,1589392131,46,1,False
1,34,zlmhlzp6,3,survey,Mechanism,1589392150,19,1,False
1,34,zlmhlzp6,4,survey,Belief1,1589392177,27,1,False
1,34,zlmhlzp6,5,survey,Belief2,1589392189,12,1,False
1,34,zlmhlzp6,6,survey,Decisions,1589392211,22,1,False
1,34,zlmhlzp6,7,survey,Demographics,1589392235,24,1,False
1,35,j21mn51q,1,survey,Welcome,1589392182,22,1,False
1,35,j21mn51q,2,survey,RPS,1589392257,75,1,False
1,35,j21mn51q,3,survey,Mechanism,1589392295,38,1,False
1,35,j21mn51q,4,survey,Belief1,1589392414,119,1,False
1,35,j21mn51q,5,survey,Belief2,1589392446,32,1,False
1,35,j21mn51q,6,survey,Decisions,1589392467,21,1,False
1,35,j21mn51q,7,survey,Demographics,1589392483,16,1,False
1,36,fqxg5jsd,1,survey,Welcome,1589392635,33,1,False
1,36,fqxg5jsd,2,survey,RPS,1589392687,52,1,False
1,36,fqxg5jsd,3,survey,Mechanism,1589392702,15,1,False
1,36,fqxg5jsd,4,survey,Belief1,1589392715,13,1,False
1,36,fqxg5jsd,5,survey,Belief2,1589392723,8,1,False
1,36,fqxg5jsd,6,survey,Decisions,1589392730,7,1,False
1,36,fqxg5jsd,7,survey,Demographics,1589392738,8,1,False
1,37,t5u8zgm5,1,survey,Welcome,1589392774,64,1,False
1,37,t5u8zgm5,2,survey,RPS,1589392865,91,1,False
1,37,t5u8zgm5,3,survey,Mechanism,1589392876,11,1,False
1,37,t5u8zgm5,4,survey,Belief1,1589392890,14,1,False
1,37,t5u8zgm5,5,survey,Belief2,1589392898,8,1,False
1,37,t5u8zgm5,6,survey,Decisions,1589392912,14,1,False
1,37,t5u8zgm5,7,survey,Demographics,1589392930,18,1,False
1,38,cn4oafig,1,survey,Welcome,1589394604,15,1,False
1,38,cn4oafig,2,survey,RPS,1589394654,50,1,False
1,38,cn4oafig,3,survey,Mechanism,1589394693,39,1,False
1,38,cn4oafig,4,survey,Belief1,1589394873,180,1,False
1,38,cn4oafig,5,survey,Belief2,1589394883,10,1,False
1,38,cn4oafig,6,survey,Decisions,1589394928,45,1,False
1,38,cn4oafig,7,survey,Demographics,1589394940,12,1,False
1,39,lo850yrs,1,survey,Welcome,1589395403,52,1,False
1,39,lo850yrs,2,survey,RPS,1589396978,1575,1,False
1,39,lo850yrs,3,survey,Mechanism,1589396996,18,1,False
1,39,lo850yrs,4,survey,Belief1,1589397012,16,1,False
1,39,lo850yrs,5,survey,Belief2,1589397029,17,1,False
1,39,lo850yrs,6,survey,Decisions,1589397042,13,1,False
1,39,lo850yrs,7,survey,Demographics,1589397053,11,1,False
1,40,zvao7lw1,1,survey,Welcome,1589397151,15,1,False
1,40,zvao7lw1,2,survey,RPS,1589397185,34,1,False
1,40,zvao7lw1,3,survey,Mechanism,1589397195,10,1,False
1,40,zvao7lw1,4,survey,Belief1,1589397216,21,1,False
1,40,zvao7lw1,5,survey,Belief2,1589397223,7,1,False
1,40,zvao7lw1,6,survey,Decisions,1589397253,30,1,False
1,40,zvao7lw1,7,survey,Demographics,1589397265,12,1,False
1,41,47mfbbr1,1,survey,Welcome,1589398087,19,1,False
1,41,47mfbbr1,2,survey,RPS,1589398158,71,1,False
1,41,47mfbbr1,3,survey,Mechanism,1589398187,29,1,False
1,41,47mfbbr1,4,survey,Belief1,1589398227,40,1,False
1,41,47mfbbr1,5,survey,Belief2,1589398245,18,1,False
1,41,47mfbbr1,6,survey,Decisions,1589398265,20,1,False
1,41,47mfbbr1,7,survey,Demographics,1589398275,10,1,False
1,42,znd9t3m3,1,survey,Welcome,1589399181,5,1,False
1,42,znd9t3m3,2,survey,RPS,1589399271,90,1,False
1,42,znd9t3m3,3,survey,Mechanism,1589399289,18,1,False
1,42,znd9t3m3,4,survey,Belief1,1589399315,26,1,False
1,42,znd9t3m3,5,survey,Belief2,1589399325,10,1,False
1,42,znd9t3m3,6,survey,Decisions,1589399339,14,1,False
1,42,znd9t3m3,7,survey,Demographics,1589399353,14,1,False
1,43,ju585i80,1,survey,Welcome,1589399384,3,1,False
1,43,ju585i80,2,survey,RPS,1589399422,38,1,False
1,43,ju585i80,3,survey,Mechanism,1589399427,5,1,False
1,43,ju585i80,4,survey,Belief1,1589399439,12,1,False
1,43,ju585i80,5,survey,Belief2,1589399444,5,1,False
1,43,ju585i80,6,survey,Decisions,1589399557,113,1,False
1,43,ju585i80,7,survey,Demographics,1589399569,12,1,False
1,44,ez8eb8e7,1,survey,Welcome,1589400838,4,1,False
1,44,ez8eb8e7,2,survey,RPS,1589400910,72,1,False
1,44,ez8eb8e7,3,survey,Mechanism,1589400923,13,1,False
1,44,ez8eb8e7,4,survey,Belief1,1589400939,16,1,False
1,44,ez8eb8e7,5,survey,Belief2,1589400948,9,1,False
1,44,ez8eb8e7,6,survey,Decisions,1589400973,25,1,False
1,44,ez8eb8e7,7,survey,Demographics,1589400986,13,1,False
1,45,es86ldgi,1,survey,Welcome,1589407027,17,1,False
1,45,es86ldgi,2,survey,RPS,1589407104,77,1,False
1,45,es86ldgi,3,survey,Mechanism,1589407125,21,1,False
1,45,es86ldgi,4,survey,Belief1,1589407159,34,1,False
1,45,es86ldgi,5,survey,Belief2,1589407170,11,1,False
1,45,es86ldgi,6,survey,Decisions,1589407212,42,1,False
1,45,es86ldgi,7,survey,Demographics,1589407225,13,1,False
4,1,13h5q1hq,1,survey,Welcome,1589461579,2,4,False
4,1,13h5q1hq,2,survey,RPS,1589461606,27,4,False
4,1,13h5q1hq,3,survey,Mechanism,1589461614,8,4,False
4,1,13h5q1hq,4,survey,Belief1,1589461634,20,4,False
4,1,13h5q1hq,5,survey,Belief2,1589461637,3,4,False
4,1,13h5q1hq,6,survey,Decisions,1589461655,18,4,False
4,1,13h5q1hq,7,survey,Demographics,1589461665,10,4,False
4,2,2b2ngbr8,1,survey,Welcome,1589461581,3,4,False
4,2,2b2ngbr8,2,survey,RPS,1589461610,29,4,False
4,2,2b2ngbr8,3,survey,Mechanism,1589461618,8,4,False
4,2,2b2ngbr8,4,survey,Belief1,1589461635,17,4,False
4,2,2b2ngbr8,5,survey,Belief2,1589461639,4,4,False
4,2,2b2ngbr8,6,survey,Decisions,1589461655,16,4,False
4,2,2b2ngbr8,7,survey,Demographics,1589461665,10,4,False
4,3,ho1utmw0,1,survey,Welcome,1589461671,88,4,False
4,3,ho1utmw0,2,survey,RPS,1589461696,25,4,False
4,3,ho1utmw0,3,survey,Mechanism,1589461701,5,4,False
4,3,ho1utmw0,4,survey,Belief1,1589461707,6,4,False
4,3,ho1utmw0,5,survey,Belief2,1589461711,4,4,False
4,3,ho1utmw0,6,survey,Decisions,1589461725,14,4,False
4,3,ho1utmw0,7,survey,Demographics,1589461737,12,4,False
4,4,jnumc980,1,survey,Welcome,1589461603,18,4,False
4,4,jnumc980,2,survey,RPS,1589461683,80,4,False
4,4,jnumc980,3,survey,Mechanism,1589461696,13,4,False
4,4,jnumc980,4,survey,Belief1,1589461718,22,4,False
4,4,jnumc980,5,survey,Belief2,1589461733,15,4,False
4,4,jnumc980,6,survey,Decisions,1589461767,34,4,False
4,4,jnumc980,7,survey,Demographics,1589461774,7,4,False
4,5,j44t2mn4,1,survey,Welcome,1589461601,3,4,False
4,5,j44t2mn4,2,survey,RPS,1589461664,63,4,False
4,5,j44t2mn4,3,survey,Mechanism,1589461672,8,4,False
4,5,j44t2mn4,4,survey,Belief1,1589461680,8,4,False
4,5,j44t2mn4,5,survey,Belief2,1589461684,4,4,False
4,5,j44t2mn4,6,survey,Decisions,1589461708,24,4,False
4,5,j44t2mn4,7,survey,Demographics,1589461720,12,4,False
4,6,2gy419mo,1,survey,Welcome,1589461602,2,4,False
4,6,2gy419mo,2,survey,RPS,1589461645,43,4,False
4,6,2gy419mo,3,survey,Mechanism,1589461649,4,4,False
4,6,2gy419mo,4,survey,Belief1,1589461661,12,4,False
4,6,2gy419mo,5,survey,Belief2,1589461665,4,4,False
4,6,2gy419mo,6,survey,Decisions,1589461688,23,4,False
4,6,2gy419mo,7,survey,Demographics,1589461717,29,4,False
4,7,x8o9oo9t,1,survey,Welcome,1589461627,23,4,False
4,7,x8o9oo9t,2,survey,RPS,1589461721,94,4,False
4,7,x8o9oo9t,3,survey,Mechanism,1589461747,26,4,False
4,7,x8o9oo9t,4,survey,Belief1,1589461789,42,4,False
4,7,x8o9oo9t,5,survey,Belief2,1589461806,17,4,False
4,7,x8o9oo9t,6,survey,Decisions,1589461852,46,4,False
4,7,x8o9oo9t,7,survey,Demographics,1589461863,11,4,False
4,8,0161xt6g,1,survey,Welcome,1589461633,28,4,False
4,8,0161xt6g,2,survey,RPS,1589461809,176,4,False
4,8,0161xt6g,3,survey,Mechanism,1589461863,54,4,False
4,8,0161xt6g,4,survey,Belief1,1589461983,120,4,False
4,8,0161xt6g,5,survey,Belief2,1589462032,49,4,False
4,8,0161xt6g,6,survey,Decisions,1589462165,133,4,False
4,8,0161xt6g,7,survey,Demographics,1589462181,16,4,False
4,9,d4sl9f2m,1,survey,Welcome,1589461617,12,4,False
4,9,d4sl9f2m,2,survey,RPS,1589461661,44,4,False
4,9,d4sl9f2m,3,survey,Mechanism,1589461666,5,4,False
4,9,d4sl9f2m,4,survey,Belief1,1589461677,11,4,False
4,9,d4sl9f2m,5,survey,Belief2,1589461681,4,4,False
4,9,d4sl9f2m,6,survey,Decisions,1589461704,23,4,False
4,9,d4sl9f2m,7,survey,Demographics,1589461716,12,4,False
4,10,lm269y6h,1,survey,Welcome,1589461620,11,4,False
4,10,lm269y6h,2,survey,RPS,1589461667,47,4,False
4,10,lm269y6h,3,survey,Mechanism,1589461677,10,4,False
4,10,lm269y6h,4,survey,Belief1,1589461691,14,4,False
4,10,lm269y6h,5,survey,Belief2,1589461702,11,4,False
4,10,lm269y6h,6,survey,Decisions,1589461727,25,4,False
4,10,lm269y6h,7,survey,Demographics,1589461741,14,4,False
4,11,dz1daq5h,1,survey,Welcome,1589461635,25,4,False
4,11,dz1daq5h,2,survey,RPS,1589461728,93,4,False
4,11,dz1daq5h,3,survey,Mechanism,1589461752,24,4,False
4,11,dz1daq5h,4,survey,Belief1,1589461820,68,4,False
4,11,dz1daq5h,5,survey,Belief2,1589461862,42,4,False
4,11,dz1daq5h,6,survey,Decisions,1589461956,94,4,False
4,11,dz1daq5h,7,survey,Demographics,1589461966,10,4,False
4,12,ll1fpm4a,1,survey,Welcome,1589462375,756,4,False
4,12,ll1fpm4a,2,survey,RPS,1589462553,178,4,False
4,12,ll1fpm4a,3,survey,Mechanism,1589462576,23,4,False
4,12,ll1fpm4a,4,survey,Belief1,1589462606,30,4,False
4,12,ll1fpm4a,5,survey,Belief2,1589462618,12,4,False
4,12,ll1fpm4a,6,survey,Decisions,1589462703,85,4,False
4,12,ll1fpm4a,7,survey,Demographics,1589462725,22,4,False
4,13,rm2fcf39,1,survey,Welcome,1589461639,17,4,False
4,13,rm2fcf39,2,survey,RPS,1589461754,115,4,False
4,13,rm2fcf39,3,survey,Mechanism,1589461778,24,4,False
4,13,rm2fcf39,4,survey,Belief1,1589461805,27,4,False
4,13,rm2fcf39,5,survey,Belief2,1589461820,15,4,False
4,13,rm2fcf39,6,survey,Decisions,1589461851,31,4,False
4,13,rm2fcf39,7,survey,Demographics,1589461864,13,4,False
4,14,daeddhxi,1,survey,Welcome,1589461652,16,4,False
4,14,daeddhxi,2,survey,RPS,1589461711,59,4,False
4,14,daeddhxi,3,survey,Mechanism,1589461731,20,4,False
4,14,daeddhxi,4,survey,Belief1,1589461748,17,4,False
4,14,daeddhxi,5,survey,Belief2,1589461761,13,4,False
4,14,daeddhxi,6,survey,Decisions,1589461777,16,4,False
4,14,daeddhxi,7,survey,Demographics,1589461784,7,4,False
4,15,i3xvu0z4,1,survey,Welcome,1589461687,24,4,False
4,15,i3xvu0z4,2,survey,RPS,1589461745,58,4,False
4,15,i3xvu0z4,3,survey,Mechanism,1589461763,18,4,False
4,15,i3xvu0z4,4,survey,Belief1,1589461814,51,4,False
4,15,i3xvu0z4,5,survey,Belief2,1589461822,8,4,False
4,15,i3xvu0z4,6,survey,Decisions,1589461840,18,4,False
4,15,i3xvu0z4,7,survey,Demographics,1589462176,336,4,False
4,16,u1qxfz57,1,survey,Welcome,1589461897,233,4,False
4,16,u1qxfz57,2,survey,RPS,1589461972,75,4,False
4,16,u1qxfz57,3,survey,Mechanism,1589462027,55,4,False
4,16,u1qxfz57,4,survey,Belief1,1589462054,27,4,False
4,16,u1qxfz57,5,survey,Belief2,1589462063,9,4,False
4,16,u1qxfz57,6,survey,Decisions,1589462103,40,4,False
4,16,u1qxfz57,7,survey,Demographics,1589462121,18,4,False
4,17,8avsvp7h,1,survey,Welcome,1589461703,23,4,False
4,17,8avsvp7h,2,survey,RPS,1589461764,61,4,False
4,17,8avsvp7h,3,survey,Mechanism,1589461787,23,4,False
4,17,8avsvp7h,4,survey,Belief1,1589461804,17,4,False
4,17,8avsvp7h,5,survey,Belief2,1589461811,7,4,False
4,17,8avsvp7h,6,survey,Decisions,1589461855,44,4,False
4,17,8avsvp7h,7,survey,Demographics,1589461883,28,4,False
4,18,fnytaowd,1,survey,Welcome,1589462097,228,4,False
4,18,fnytaowd,2,survey,RPS,1589462113,16,4,False
4,18,fnytaowd,3,survey,Mechanism,1589462122,9,4,False
4,18,fnytaowd,4,survey,Belief1,1589462129,7,4,False
4,18,fnytaowd,5,survey,Belief2,1589462133,4,4,False
4,18,fnytaowd,6,survey,Decisions,1589462147,14,4,False
4,18,fnytaowd,7,survey,Demographics,1589462153,6,4,False
4,19,1x66k5wc,1,survey,Welcome,1589461977,2,4,False
4,19,1x66k5wc,2,survey,RPS,1589462028,51,4,False
4,19,1x66k5wc,3,survey,Mechanism,1589462084,56,4,False
4,19,1x66k5wc,4,survey,Belief1,1589462119,35,4,False
4,19,1x66k5wc,5,survey,Belief2,1589462132,13,4,False
4,19,1x66k5wc,6,survey,Decisions,1589462176,44,4,False
4,19,1x66k5wc,7,survey,Demographics,1589462186,10,4,False
4,20,jp5d6sbw,1,survey,Welcome,1589462143,7,4,False
4,20,jp5d6sbw,2,survey,RPS,1589462177,34,4,False
4,20,jp5d6sbw,3,survey,Mechanism,1589462183,6,4,False
4,20,jp5d6sbw,4,survey,Belief1,1589462203,20,4,False
4,20,jp5d6sbw,5,survey,Belief2,1589462209,6,4,False
4,20,jp5d6sbw,6,survey,Decisions,1589462231,22,4,False
4,20,jp5d6sbw,7,survey,Demographics,1589462243,12,4,False
4,21,kp4pf9jf,1,survey,Welcome,1589462159,3,4,False
4,21,kp4pf9jf,2,survey,RPS,1589462178,19,4,False
4,21,kp4pf9jf,3,survey,Mechanism,1589462186,8,4,False
4,21,kp4pf9jf,4,survey,Belief1,1589462192,6,4,False
4,21,kp4pf9jf,5,survey,Belief2,1589462200,8,4,False
4,21,kp4pf9jf,6,survey,Decisions,1589462207,7,4,False
4,21,kp4pf9jf,7,survey,Demographics,1589462216,9,4,False
4,22,m3nhcn80,1,survey,Welcome,1589462320,62,4,False
4,22,m3nhcn80,2,survey,RPS,1589462407,87,4,False
4,22,m3nhcn80,3,survey,Mechanism,1589462448,41,4,False
4,22,m3nhcn80,4,survey,Belief1,1589462513,65,4,False
4,22,m3nhcn80,5,survey,Belief2,1589462526,13,4,False
4,22,m3nhcn80,6,survey,Decisions,1589462557,31,4,False
4,22,m3nhcn80,7,survey,Demographics,1589462582,25,4,False
4,23,4o0vsfz3,1,survey,Welcome,1589462320,2,4,False
4,23,4o0vsfz3,2,survey,RPS,1589462359,39,4,False
4,23,4o0vsfz3,3,survey,Mechanism,1589462375,16,4,False
4,23,4o0vsfz3,4,survey,Belief1,1589462385,10,4,False
4,23,4o0vsfz3,5,survey,Belief2,1589462394,9,4,False
4,23,4o0vsfz3,6,survey,Decisions,1589462446,52,4,False
4,23,4o0vsfz3,7,survey,Demographics,1589462474,28,4,False
4,24,opb07aid,1,survey,Welcome,1589462410,5,4,False
4,25,v7401j2q,1,survey,Welcome,1589462895,461,4,False
4,25,v7401j2q,2,survey,RPS,1589462928,33,4,False
4,25,v7401j2q,3,survey,Mechanism,1589462965,37,4,False
4,25,v7401j2q,4,survey,Belief1,1589462980,15,4,False
4,25,v7401j2q,5,survey,Belief2,1589463148,168,4,False
4,25,v7401j2q,6,survey,Decisions,1589463169,21,4,False
4,25,v7401j2q,7,survey,Demographics,1589463193,24,4,False
4,26,6tdflj6q,1,survey,Welcome,1589462546,51,4,False
4,26,6tdflj6q,2,survey,RPS,1589462694,148,4,False
4,26,6tdflj6q,3,survey,Mechanism,1589462744,50,4,False
4,26,6tdflj6q,4,survey,Belief1,1589462788,44,4,False
4,26,6tdflj6q,5,survey,Belief2,1589462806,18,4,False
4,26,6tdflj6q,6,survey,Decisions,1589462934,128,4,False
4,26,6tdflj6q,7,survey,Demographics,1589462976,42,4,False
4,27,n0nusho2,1,survey,Welcome,1589462533,4,4,False
4,28,wkvgsey8,1,survey,Welcome,1589462542,9,4,False
4,28,wkvgsey8,2,survey,RPS,1589462582,40,4,False
4,28,wkvgsey8,3,survey,Mechanism,1589462590,8,4,False
4,28,wkvgsey8,4,survey,Belief1,1589462605,15,4,False
4,28,wkvgsey8,5,survey,Belief2,1589462610,5,4,False
4,28,wkvgsey8,6,survey,Decisions,1589462617,7,4,False
4,28,wkvgsey8,7,survey,Demographics,1589462629,12,4,False
4,29,mvvojvwv,1,survey,Welcome,1589462612,22,4,False
4,29,mvvojvwv,2,survey,RPS,1589462688,76,4,False
4,29,mvvojvwv,3,survey,Mechanism,1589462698,10,4,False
4,29,mvvojvwv,4,survey,Belief1,1589462718,20,4,False
4,29,mvvojvwv,5,survey,Belief2,1589462725,7,4,False
4,29,mvvojvwv,6,survey,Decisions,1589462737,12,4,False
4,29,mvvojvwv,7,survey,Demographics,1589462745,8,4,False
4,30,7qt4cysf,1,survey,Welcome,1589462630,6,4,False
4,30,7qt4cysf,2,survey,RPS,1589462741,111,4,False
4,30,7qt4cysf,3,survey,Mechanism,1589462745,4,4,False
4,30,7qt4cysf,4,survey,Belief1,1589462753,8,4,False
4,30,7qt4cysf,5,survey,Belief2,1589462760,7,4,False
4,30,7qt4cysf,6,survey,Decisions,1589462789,29,4,False
4,30,7qt4cysf,7,survey,Demographics,1589462801,12,4,False
4,31,pws30f7i,1,survey,Welcome,1589462668,4,4,False
4,32,maq6cj5t,1,survey,Welcome,1589462734,61,4,False
4,32,maq6cj5t,2,survey,RPS,1589462997,263,4,False
4,32,maq6cj5t,3,survey,Mechanism,1589463125,128,4,False
4,32,maq6cj5t,4,survey,Belief1,1589463168,43,4,False
4,32,maq6cj5t,5,survey,Belief2,1589463182,14,4,False
4,33,xzw4gr4g,1,survey,Welcome,1589463311,476,4,False
4,33,xzw4gr4g,2,survey,RPS,1589463402,91,4,False
4,33,xzw4gr4g,3,survey,Mechanism,1589463419,17,4,False
4,33,xzw4gr4g,4,survey,Belief1,1589463457,38,4,False
4,33,xzw4gr4g,5,survey,Belief2,1589463468,11,4,False
4,33,xzw4gr4g,6,survey,Decisions,1589463500,32,4,False
4,33,xzw4gr4g,7,survey,Demographics,1589463517,17,4,False
4,34,hchza825,1,survey,Welcome,1589463118,5,4,False
4,35,48mftz8y,1,survey,Welcome,1589463217,44,4,False
4,35,48mftz8y,2,survey,RPS,1589463255,38,4,False
4,35,48mftz8y,3,survey,Mechanism,1589463287,32,4,False
4,35,48mftz8y,4,survey,Belief1,1589463305,18,4,False
4,35,48mftz8y,5,survey,Belief2,1589463314,9,4,False
4,35,48mftz8y,6,survey,Decisions,1589463333,19,4,False
4,35,48mftz8y,7,survey,Demographics,1589463346,13,4,False
4,36,j8of2auj,1,survey,Welcome,1589465525,2309,4,False
4,36,j8of2auj,2,survey,RPS,1589465584,59,4,False
4,36,j8of2auj,3,survey,Mechanism,1589465616,32,4,False
4,36,j8of2auj,4,survey,Belief1,1589465649,33,4,False
4,36,j8of2auj,5,survey,Belief2,1589465662,13,4,False
4,36,j8of2auj,6,survey,Decisions,1589465699,37,4,False
4,36,j8of2auj,7,survey,Demographics,1589465766,67,4,False
4,37,lkpeyant,1,survey,Welcome,1589463330,6,4,False
4,37,lkpeyant,2,survey,RPS,1589463361,31,4,False
4,37,lkpeyant,3,survey,Mechanism,1589463372,11,4,False
4,37,lkpeyant,4,survey,Belief1,1589463379,7,4,False
4,37,lkpeyant,5,survey,Belief2,1589463389,10,4,False
4,37,lkpeyant,6,survey,Decisions,1589463412,23,4,False
4,37,lkpeyant,7,survey,Demographics,1589463454,42,4,False
4,38,fjd8ruy6,1,survey,Welcome,1589463362,17,4,False
4,38,fjd8ruy6,2,survey,RPS,1589463434,72,4,False
4,38,fjd8ruy6,3,survey,Mechanism,1589463444,10,4,False
4,38,fjd8ruy6,4,survey,Belief1,1589463458,14,4,False
4,38,fjd8ruy6,5,survey,Belief2,1589463485,27,4,False
4,38,fjd8ruy6,6,survey,Decisions,1589463513,28,4,False
4,38,fjd8ruy6,7,survey,Demographics,1589463533,20,4,False
4,39,5spfva8b,1,survey,Welcome,1589463460,61,4,False
4,39,5spfva8b,2,survey,RPS,1589463521,61,4,False
4,39,5spfva8b,3,survey,Mechanism,1589463543,22,4,False
4,39,5spfva8b,4,survey,Belief1,1589463560,17,4,False
4,39,5spfva8b,5,survey,Belief2,1589463567,7,4,False
4,39,5spfva8b,6,survey,Decisions,1589463607,40,4,False
4,39,5spfva8b,7,survey,Demographics,1589463649,42,4,False
4,40,0sepyc6s,1,survey,Welcome,1589463439,4,4,False
4,40,0sepyc6s,2,survey,RPS,1589463478,39,4,False
4,40,0sepyc6s,3,survey,Mechanism,1589463499,21,4,False
4,40,0sepyc6s,4,survey,Belief1,1589463527,28,4,False
4,40,0sepyc6s,5,survey,Belief2,1589463535,8,4,False
4,40,0sepyc6s,6,survey,Decisions,1589463546,11,4,False
4,40,0sepyc6s,7,survey,Demographics,1589463551,5,4,False
4,41,q89ebxvr,1,survey,Welcome,1589464137,112,4,False
4,41,q89ebxvr,2,survey,RPS,1589464652,515,4,False
4,41,q89ebxvr,3,survey,Mechanism,1589464850,198,4,False
4,41,q89ebxvr,4,survey,Belief1,1589465028,178,4,False
4,41,q89ebxvr,5,survey,Belief2,1589465086,58,4,False
4,41,q89ebxvr,6,survey,Decisions,1589465232,146,4,False
4,41,q89ebxvr,7,survey,Demographics,1589465279,47,4,False
4,42,a70t1ds6,1,survey,Welcome,1589464497,14,4,False
4,42,a70t1ds6,2,survey,RPS,1589464555,58,4,False
4,42,a70t1ds6,3,survey,Mechanism,1589464574,19,4,False
4,42,a70t1ds6,4,survey,Belief1,1589464594,20,4,False
4,42,a70t1ds6,5,survey,Belief2,1589464605,11,4,False
4,42,a70t1ds6,6,survey,Decisions,1589464657,52,4,False
4,42,a70t1ds6,7,survey,Demographics,1589464673,16,4,False
4,43,3dtlb4eo,1,survey,Welcome,1589464613,23,4,False
4,43,3dtlb4eo,2,survey,RPS,1589464648,35,4,False
4,43,3dtlb4eo,3,survey,Mechanism,1589464673,25,4,False
4,43,3dtlb4eo,4,survey,Belief1,1589464684,11,4,False
4,43,3dtlb4eo,5,survey,Belief2,1589464699,15,4,False
4,43,3dtlb4eo,6,survey,Decisions,1589464734,35,4,False
4,43,3dtlb4eo,7,survey,Demographics,1589464752,18,4,False
4,44,pdtkfdzh,1,survey,Welcome,1589465103,51,4,False
4,44,pdtkfdzh,2,survey,RPS,1589465141,38,4,False
4,44,pdtkfdzh,3,survey,Mechanism,1589465164,23,4,False
4,44,pdtkfdzh,4,survey,Belief1,1589465193,29,4,False
4,44,pdtkfdzh,5,survey,Belief2,1589465212,19,4,False
4,44,pdtkfdzh,6,survey,Decisions,1589465235,23,4,False
4,44,pdtkfdzh,7,survey,Demographics,1589465265,30,4,False
4,45,vxr00tq3,1,survey,Welcome,1589465297,15,4,False
4,45,vxr00tq3,2,survey,RPS,1589465432,135,4,False
4,45,vxr00tq3,3,survey,Mechanism,1589465444,12,4,False
4,45,vxr00tq3,4,survey,Belief1,1589465483,39,4,False
4,45,vxr00tq3,5,survey,Belief2,1589465512,29,4,False
4,45,vxr00tq3,6,survey,Decisions,1589465536,24,4,False
4,45,vxr00tq3,7,survey,Demographics,1589465565,29,4,False
4,46,9c8jkcy8,1,survey,Welcome,1589465345,2,4,False
4,46,9c8jkcy8,2,survey,RPS,1589465355,10,4,False
4,46,9c8jkcy8,3,survey,Mechanism,1589465359,4,4,False
4,46,9c8jkcy8,4,survey,Belief1,1589465367,8,4,False
4,46,9c8jkcy8,5,survey,Belief2,1589465371,4,4,False
4,46,9c8jkcy8,6,survey,Decisions,1589465382,11,4,False
4,46,9c8jkcy8,7,survey,Demographics,1589465390,8,4,False
4,47,ote5j2io,1,survey,Welcome,1589465415,44,4,False
4,47,ote5j2io,2,survey,RPS,1589465543,128,4,False
4,47,ote5j2io,3,survey,Mechanism,1589465572,29,4,False
4,47,ote5j2io,4,survey,Belief1,1589465628,56,4,False
4,47,ote5j2io,5,survey,Belief2,1589465643,15,4,False
4,47,ote5j2io,6,survey,Decisions,1589465670,27,4,False
4,47,ote5j2io,7,survey,Demographics,1589465685,15,4,False
4,48,9mggc5x9,1,survey,Welcome,1589465764,29,4,False
4,48,9mggc5x9,2,survey,RPS,1589465848,84,4,False
4,48,9mggc5x9,3,survey,Mechanism,1589465867,19,4,False
4,48,9mggc5x9,4,survey,Belief1,1589465890,23,4,False
4,48,9mggc5x9,5,survey,Belief2,1589465907,17,4,False
4,48,9mggc5x9,6,survey,Decisions,1589465939,32,4,False
4,48,9mggc5x9,7,survey,Demographics,1589465952,13,4,False
4,49,te92bb3s,1,survey,Welcome,1589466251,30,4,False
4,49,te92bb3s,2,survey,RPS,1589466354,103,4,False
4,49,te92bb3s,3,survey,Mechanism,1589466392,38,4,False
4,49,te92bb3s,4,survey,Belief1,1589466431,39,4,False
4,49,te92bb3s,5,survey,Belief2,1589466445,14,4,False
4,49,te92bb3s,6,survey,Decisions,1589466464,19,4,False
4,49,te92bb3s,7,survey,Demographics,1589466479,15,4,False
4,50,b5auhksz,1,survey,Welcome,1589466307,13,4,False
4,50,b5auhksz,2,survey,RPS,1589466349,42,4,False
4,50,b5auhksz,3,survey,Mechanism,1589466357,8,4,False
4,50,b5auhksz,4,survey,Belief1,1589466371,14,4,False
4,50,b5auhksz,5,survey,Belief2,1589466376,5,4,False
4,50,b5auhksz,6,survey,Decisions,1589466428,52,4,False
4,50,b5auhksz,7,survey,Demographics,1589466439,11,4,False
4,51,r0dfeqnh,1,survey,Welcome,1589467005,16,4,False
4,51,r0dfeqnh,2,survey,RPS,1589467090,85,4,False
4,51,r0dfeqnh,3,survey,Mechanism,1589467299,209,4,False
4,51,r0dfeqnh,4,survey,Belief1,1589467313,14,4,False
4,51,r0dfeqnh,5,survey,Belief2,1589467317,4,4,False
4,51,r0dfeqnh,6,survey,Decisions,1589467342,25,4,False
4,51,r0dfeqnh,7,survey,Demographics,1589467351,9,4,False
4,52,6v5zshjw,1,survey,Welcome,1589467477,5,4,False
4,52,6v5zshjw,2,survey,RPS,1589467499,22,4,False
4,52,6v5zshjw,3,survey,Mechanism,1589467510,11,4,False
4,52,6v5zshjw,4,survey,Belief1,1589467523,13,4,False
4,52,6v5zshjw,5,survey,Belief2,1589467532,9,4,False
4,52,6v5zshjw,6,survey,Decisions,1589467549,17,4,False
4,52,6v5zshjw,7,survey,Demographics,1589467574,25,4,False
4,53,nstvoktz,1,survey,Welcome,1589467544,2,4,False
4,53,nstvoktz,2,survey,RPS,1589467571,27,4,False
4,53,nstvoktz,3,survey,Mechanism,1589467577,6,4,False
4,53,nstvoktz,4,survey,Belief1,1589467581,4,4,False
4,53,nstvoktz,5,survey,Belief2,1589467585,4,4,False
4,53,nstvoktz,6,survey,Decisions,1589467593,8,4,False
4,53,nstvoktz,7,survey,Demographics,1589467599,6,4,False
4,54,si3aeday,1,survey,Welcome,1589469345,7,4,False
4,55,jgpczq5f,1,survey,Welcome,1589469436,24,4,False
4,55,jgpczq5f,2,survey,RPS,1589469493,57,4,False
4,55,jgpczq5f,3,survey,Mechanism,1589469502,9,4,False
4,55,jgpczq5f,4,survey,Belief1,1589469515,13,4,False
4,55,jgpczq5f,5,survey,Belief2,1589469521,6,4,False
4,55,jgpczq5f,6,survey,Decisions,1589469554,33,4,False
4,55,jgpczq5f,7,survey,Demographics,1589469565,11,4,False
4,56,r8pq9m2i,1,survey,Welcome,1589472870,25,4,False
4,56,r8pq9m2i,2,survey,RPS,1589472891,21,4,False
4,56,r8pq9m2i,3,survey,Mechanism,1589472895,4,4,False
4,56,r8pq9m2i,4,survey,Belief1,1589472907,12,4,False
4,56,r8pq9m2i,5,survey,Belief2,1589472915,8,4,False
4,56,r8pq9m2i,6,survey,Decisions,1589472934,19,4,False
4,56,r8pq9m2i,7,survey,Demographics,1589472949,15,4,False
